<?xml version="1.0" encoding="UTF-8" standalone="no"?>
<!DOCTYPE svg PUBLIC "-//W3C//DTD SVG 20010904//EN"
"http://www.w3.org/TR/2001/REC-SVG-20010904/DTD/svg10.dtd">
<svg
   width="60mm"
   height="52mm"
   viewBox="0 0 6000 5200"
   xmlns="http://www.w3.org/2000/svg"
   xmlns:sodipodi="http://sodipodi.sourceforge.net/DTD/sodipodi-0.dtd"
   xmlns:inkscape="http://www.inkscape.org/namespaces/inkscape"
   xmlns:xlink="http://www.w3.org/1999/xlink"
   id="svg1"
   sodipodi:version="0.32"
   inkscape:version="0.38.1"
   sodipodi:docname="ArbEllipse.svg"
   sodipodi:docbase="/local/driveE/Dox/ini/iqr421_Redesign/UserManual/Graphics/Connections">
  <defs
     id="defs554" />
  <sodipodi:namedview
     id="base"
     pagecolor="#ffffff"
     bordercolor="#666666"
     borderopacity="1.0"
     inkscape:pageopacity="0.0"
     inkscape:pageshadow="2"
     inkscape:zoom="1.7511054"
     inkscape:cx="79.464089"
     inkscape:cy="71.402513"
     inkscape:window-width="640"
     inkscape:window-height="500"
     inkscape:window-x="-11"
     inkscape:window-y="20" />
  <g
     style="stroke:none;fill:rgb(76,76,76)"
     id="g2">
    <polygon
       points="2236,1999 1836,1999 1836,1999 1832,1998 1828,1997 1824,1996 1821,1994 1818,1991 1815,1988 1813,1985 1812,1981 1811,1974 1836,1974 1836,1949 2236,1949 2236,1974 2236,1999"
       id="polygon3" />
    <polygon
       points="1811,1974 1811,1174 1811,1174 1811,1170 1812,1166 1813,1162 1815,1159 1818,1156 1821,1153 1824,1151 1828,1150 1836,1149 1836,1174 1861,1174 1861,1974 1836,1974 1811,1974"
       id="polygon4" />
    <polygon
       points="1836,1149 2636,1149 2636,1149 2639,1149 2643,1150 2647,1151 2650,1153 2653,1156 2656,1159 2658,1162 2659,1166 2661,1174 2636,1174 2636,1199 1836,1199 1836,1174 1836,1149"
       id="polygon5" />
    <polygon
       points="2661,1174 2661,1974 2661,1974 2660,1977 2659,1981 2658,1985 2656,1988 2653,1991 2650,1994 2647,1996 2643,1997 2636,1999 2636,1974 2611,1974 2611,1174 2636,1174 2661,1174"
       id="polygon6" />
    <polygon
       points="2636,1974 2636,1999 2236,1999 2236,1974 2236,1949 2636,1949 2636,1974"
       id="polygon7" />
    <polygon
       points="2229,1638 2213,1634 2213,1634 2206,1631 2220,1610 2226,1585 2242,1589 2236,1614 2229,1638"
       id="polygon8" />
    <polygon
       points="2206,1631 2193,1623 2193,1623 2190,1620 2185,1615 2207,1602 2220,1580 2233,1588 2220,1610 2206,1631"
       id="polygon9" />
    <polygon
       points="2185,1615 2177,1602 2177,1602 2176,1599 2174,1593 2199,1589 2220,1575 2228,1588 2207,1602 2185,1615"
       id="polygon10" />
    <polygon
       points="2174,1593 2171,1578 2171,1578 2171,1575 2171,1569 2196,1574 2220,1569 2223,1584 2199,1589 2174,1593"
       id="polygon11" />
    <polygon
       points="2171,1569 2174,1553 2174,1553 2175,1550 2177,1544 2199,1558 2223,1562 2220,1578 2196,1574 2171,1569"
       id="polygon12" />
    <polygon
       points="2177,1544 2185,1531 2185,1531 2188,1528 2193,1523 2207,1545 2228,1558 2220,1571 2199,1558 2177,1544"
       id="polygon13" />
    <polygon
       points="2193,1523 2206,1515 2206,1515 2209,1514 2215,1512 2220,1537 2233,1558 2220,1566 2207,1545 2193,1523"
       id="polygon14" />
    <polygon
       points="2215,1512 2231,1509 2231,1509 2234,1509 2240,1509 2236,1534 2240,1558 2224,1561 2220,1537 2215,1512"
       id="polygon15" />
    <polygon
       points="2240,1509 2255,1512 2255,1512 2258,1513 2264,1515 2251,1537 2246,1561 2231,1558 2236,1534 2240,1509"
       id="polygon16" />
    <polygon
       points="2264,1515 2277,1523 2277,1523 2280,1526 2285,1531 2264,1545 2250,1566 2237,1558 2251,1537 2264,1515"
       id="polygon17" />
    <polygon
       points="2285,1531 2293,1544 2293,1544 2296,1551 2272,1558 2250,1571 2242,1558 2264,1545 2285,1531"
       id="polygon18" />
    <polygon
       points="2296,1551 2300,1567 2300,1567 2300,1572 2300,1580 2276,1574 2251,1580 2247,1564 2272,1558 2296,1551"
       id="polygon19" />
    <polygon
       points="2300,1580 2296,1595 2296,1595 2293,1602 2272,1589 2247,1582 2251,1567 2276,1574 2300,1580"
       id="polygon20" />
    <polygon
       points="2293,1602 2285,1615 2285,1615 2282,1618 2277,1623 2264,1602 2242,1588 2250,1575 2272,1589 2293,1602"
       id="polygon21" />
    <polygon
       points="2277,1623 2264,1631 2264,1631 2257,1634 2251,1610 2237,1588 2250,1580 2264,1602 2277,1623"
       id="polygon22" />
    <polygon
       points="2257,1634 2242,1638 2242,1638 2238,1638 2229,1638 2236,1614 2229,1589 2244,1585 2251,1610 2257,1634"
       id="polygon23" />
    <polygon
       points="2236,2799 1836,2799 1836,2799 1832,2798 1828,2797 1824,2796 1821,2794 1818,2791 1815,2788 1813,2785 1812,2781 1811,2774 1836,2774 1836,2749 2236,2749 2236,2774 2236,2799"
       id="polygon24" />
    <polygon
       points="1811,2774 1811,1974 1811,1974 1811,1970 1812,1966 1813,1962 1815,1959 1818,1956 1821,1953 1824,1951 1828,1950 1836,1949 1836,1974 1861,1974 1861,2774 1836,2774 1811,2774"
       id="polygon25" />
    <polygon
       points="1836,1949 2636,1949 2636,1949 2639,1949 2643,1950 2647,1951 2650,1953 2653,1956 2656,1959 2658,1962 2659,1966 2661,1974 2636,1974 2636,1999 1836,1999 1836,1974 1836,1949"
       id="polygon26" />
    <polygon
       points="2661,1974 2661,2774 2661,2774 2660,2777 2659,2781 2658,2785 2656,2788 2653,2791 2650,2794 2647,2796 2643,2797 2636,2799 2636,2774 2611,2774 2611,1974 2636,1974 2661,1974"
       id="polygon27" />
    <polygon
       points="2636,2774 2636,2799 2236,2799 2236,2774 2236,2749 2636,2749 2636,2774"
       id="polygon28" />
    <polygon
       points="2229,2438 2213,2434 2213,2434 2206,2431 2220,2410 2226,2385 2242,2389 2236,2414 2229,2438"
       id="polygon29" />
    <polygon
       points="2206,2431 2193,2423 2193,2423 2190,2420 2185,2415 2207,2402 2220,2380 2233,2388 2220,2410 2206,2431"
       id="polygon30" />
    <polygon
       points="2185,2415 2177,2402 2177,2402 2176,2399 2174,2393 2199,2389 2220,2375 2228,2388 2207,2402 2185,2415"
       id="polygon31" />
    <polygon
       points="2174,2393 2171,2378 2171,2378 2171,2375 2171,2369 2196,2374 2220,2369 2223,2384 2199,2389 2174,2393"
       id="polygon32" />
    <polygon
       points="2171,2369 2174,2353 2174,2353 2175,2350 2177,2344 2199,2358 2223,2362 2220,2378 2196,2374 2171,2369"
       id="polygon33" />
    <polygon
       points="2177,2344 2185,2331 2185,2331 2188,2328 2193,2323 2207,2345 2228,2358 2220,2371 2199,2358 2177,2344"
       id="polygon34" />
    <polygon
       points="2193,2323 2206,2315 2206,2315 2209,2314 2215,2312 2220,2337 2233,2358 2220,2366 2207,2345 2193,2323"
       id="polygon35" />
    <polygon
       points="2215,2312 2231,2309 2231,2309 2234,2309 2240,2309 2236,2334 2240,2358 2224,2361 2220,2337 2215,2312"
       id="polygon36" />
    <polygon
       points="2240,2309 2255,2312 2255,2312 2258,2313 2264,2315 2251,2337 2246,2361 2231,2358 2236,2334 2240,2309"
       id="polygon37" />
    <polygon
       points="2264,2315 2277,2323 2277,2323 2280,2326 2285,2331 2264,2345 2250,2366 2237,2358 2251,2337 2264,2315"
       id="polygon38" />
    <polygon
       points="2285,2331 2293,2344 2293,2344 2296,2351 2272,2358 2250,2371 2242,2358 2264,2345 2285,2331"
       id="polygon39" />
    <polygon
       points="2296,2351 2300,2367 2300,2367 2300,2372 2300,2380 2276,2374 2251,2380 2247,2364 2272,2358 2296,2351"
       id="polygon40" />
    <polygon
       points="2300,2380 2296,2395 2296,2395 2293,2402 2272,2389 2247,2382 2251,2367 2276,2374 2300,2380"
       id="polygon41" />
    <polygon
       points="2293,2402 2285,2415 2285,2415 2282,2418 2277,2423 2264,2402 2242,2388 2250,2375 2272,2389 2293,2402"
       id="polygon42" />
    <polygon
       points="2277,2423 2264,2431 2264,2431 2257,2434 2251,2410 2237,2388 2250,2380 2264,2402 2277,2423"
       id="polygon43" />
    <polygon
       points="2257,2434 2242,2438 2242,2438 2238,2438 2229,2438 2236,2414 2229,2389 2244,2385 2251,2410 2257,2434"
       id="polygon44" />
    <polygon
       points="2236,3599 1836,3599 1836,3599 1832,3598 1828,3597 1824,3596 1821,3594 1818,3591 1815,3588 1813,3585 1812,3581 1811,3574 1836,3574 1836,3549 2236,3549 2236,3574 2236,3599"
       id="polygon45" />
    <polygon
       points="1811,3574 1811,2774 1811,2774 1811,2770 1812,2766 1813,2762 1815,2759 1818,2756 1821,2753 1824,2751 1828,2750 1836,2749 1836,2774 1861,2774 1861,3574 1836,3574 1811,3574"
       id="polygon46" />
    <polygon
       points="1836,2749 2636,2749 2636,2749 2639,2749 2643,2750 2647,2751 2650,2753 2653,2756 2656,2759 2658,2762 2659,2766 2661,2774 2636,2774 2636,2799 1836,2799 1836,2774 1836,2749"
       id="polygon47" />
    <polygon
       points="2661,2774 2661,3574 2661,3574 2660,3577 2659,3581 2658,3585 2656,3588 2653,3591 2650,3594 2647,3596 2643,3597 2636,3599 2636,3574 2611,3574 2611,2774 2636,2774 2661,2774"
       id="polygon48" />
    <polygon
       points="2636,3574 2636,3599 2236,3599 2236,3574 2236,3549 2636,3549 2636,3574"
       id="polygon49" />
    <polygon
       points="2229,3238 2213,3234 2213,3234 2206,3231 2220,3210 2226,3185 2242,3189 2236,3214 2229,3238"
       id="polygon50" />
    <polygon
       points="2206,3231 2193,3223 2193,3223 2190,3220 2185,3215 2207,3202 2220,3180 2233,3188 2220,3210 2206,3231"
       id="polygon51" />
    <polygon
       points="2185,3215 2177,3202 2177,3202 2176,3199 2174,3193 2199,3189 2220,3175 2228,3188 2207,3202 2185,3215"
       id="polygon52" />
    <polygon
       points="2174,3193 2171,3178 2171,3178 2171,3175 2171,3169 2196,3174 2220,3169 2223,3184 2199,3189 2174,3193"
       id="polygon53" />
    <polygon
       points="2171,3169 2174,3153 2174,3153 2175,3150 2177,3144 2199,3158 2223,3162 2220,3178 2196,3174 2171,3169"
       id="polygon54" />
    <polygon
       points="2177,3144 2185,3131 2185,3131 2188,3128 2193,3123 2207,3145 2228,3158 2220,3171 2199,3158 2177,3144"
       id="polygon55" />
    <polygon
       points="2193,3123 2206,3115 2206,3115 2209,3114 2215,3112 2220,3137 2233,3158 2220,3166 2207,3145 2193,3123"
       id="polygon56" />
    <polygon
       points="2215,3112 2231,3109 2231,3109 2234,3109 2240,3109 2236,3134 2240,3158 2224,3161 2220,3137 2215,3112"
       id="polygon57" />
    <polygon
       points="2240,3109 2255,3112 2255,3112 2258,3113 2264,3115 2251,3137 2246,3161 2231,3158 2236,3134 2240,3109"
       id="polygon58" />
    <polygon
       points="2264,3115 2277,3123 2277,3123 2280,3126 2285,3131 2264,3145 2250,3166 2237,3158 2251,3137 2264,3115"
       id="polygon59" />
    <polygon
       points="2285,3131 2293,3144 2293,3144 2296,3151 2272,3158 2250,3171 2242,3158 2264,3145 2285,3131"
       id="polygon60" />
    <polygon
       points="2296,3151 2300,3167 2300,3167 2300,3172 2300,3180 2276,3174 2251,3180 2247,3164 2272,3158 2296,3151"
       id="polygon61" />
    <polygon
       points="2300,3180 2296,3195 2296,3195 2293,3202 2272,3189 2247,3182 2251,3167 2276,3174 2300,3180"
       id="polygon62" />
    <polygon
       points="2293,3202 2285,3215 2285,3215 2282,3218 2277,3223 2264,3202 2242,3188 2250,3175 2272,3189 2293,3202"
       id="polygon63" />
    <polygon
       points="2277,3223 2264,3231 2264,3231 2257,3234 2251,3210 2237,3188 2250,3180 2264,3202 2277,3223"
       id="polygon64" />
    <polygon
       points="2257,3234 2242,3238 2242,3238 2238,3238 2229,3238 2236,3214 2229,3189 2244,3185 2251,3210 2257,3234"
       id="polygon65" />
    <polygon
       points="2236,4399 1836,4399 1836,4399 1832,4398 1828,4397 1824,4396 1821,4394 1818,4391 1815,4388 1813,4385 1812,4381 1811,4374 1836,4374 1836,4349 2236,4349 2236,4374 2236,4399"
       id="polygon66" />
    <polygon
       points="1811,4374 1811,3574 1811,3574 1811,3570 1812,3566 1813,3562 1815,3559 1818,3556 1821,3553 1824,3551 1828,3550 1836,3549 1836,3574 1861,3574 1861,4374 1836,4374 1811,4374"
       id="polygon67" />
    <polygon
       points="1836,3549 2636,3549 2636,3549 2639,3549 2643,3550 2647,3551 2650,3553 2653,3556 2656,3559 2658,3562 2659,3566 2661,3574 2636,3574 2636,3599 1836,3599 1836,3574 1836,3549"
       id="polygon68" />
    <polygon
       points="2661,3574 2661,4374 2661,4374 2660,4377 2659,4381 2658,4385 2656,4388 2653,4391 2650,4394 2647,4396 2643,4397 2636,4399 2636,4374 2611,4374 2611,3574 2636,3574 2661,3574"
       id="polygon69" />
    <polygon
       points="2636,4374 2636,4399 2236,4399 2236,4374 2236,4349 2636,4349 2636,4374"
       id="polygon70" />
    <polygon
       points="2229,4038 2213,4034 2213,4034 2206,4031 2220,4010 2226,3985 2242,3989 2236,4014 2229,4038"
       id="polygon71" />
    <polygon
       points="2206,4031 2193,4023 2193,4023 2190,4020 2185,4015 2207,4002 2220,3980 2233,3988 2220,4010 2206,4031"
       id="polygon72" />
    <polygon
       points="2185,4015 2177,4002 2177,4002 2176,3999 2174,3993 2199,3989 2220,3975 2228,3988 2207,4002 2185,4015"
       id="polygon73" />
    <polygon
       points="2174,3993 2171,3978 2171,3978 2171,3975 2171,3969 2196,3974 2220,3969 2223,3984 2199,3989 2174,3993"
       id="polygon74" />
    <polygon
       points="2171,3969 2174,3953 2174,3953 2175,3950 2177,3944 2199,3958 2223,3962 2220,3978 2196,3974 2171,3969"
       id="polygon75" />
    <polygon
       points="2177,3944 2185,3931 2185,3931 2188,3928 2193,3923 2207,3945 2228,3958 2220,3971 2199,3958 2177,3944"
       id="polygon76" />
    <polygon
       points="2193,3923 2206,3915 2206,3915 2209,3914 2215,3912 2220,3937 2233,3958 2220,3966 2207,3945 2193,3923"
       id="polygon77" />
    <polygon
       points="2215,3912 2231,3909 2231,3909 2234,3909 2240,3909 2236,3934 2240,3958 2224,3961 2220,3937 2215,3912"
       id="polygon78" />
    <polygon
       points="2240,3909 2255,3912 2255,3912 2258,3913 2264,3915 2251,3937 2246,3961 2231,3958 2236,3934 2240,3909"
       id="polygon79" />
    <polygon
       points="2264,3915 2277,3923 2277,3923 2280,3926 2285,3931 2264,3945 2250,3966 2237,3958 2251,3937 2264,3915"
       id="polygon80" />
    <polygon
       points="2285,3931 2293,3944 2293,3944 2296,3951 2272,3958 2250,3971 2242,3958 2264,3945 2285,3931"
       id="polygon81" />
    <polygon
       points="2296,3951 2300,3967 2300,3967 2300,3972 2300,3980 2276,3974 2251,3980 2247,3964 2272,3958 2296,3951"
       id="polygon82" />
    <polygon
       points="2300,3980 2296,3995 2296,3995 2293,4002 2272,3989 2247,3982 2251,3967 2276,3974 2300,3980"
       id="polygon83" />
    <polygon
       points="2293,4002 2285,4015 2285,4015 2282,4018 2277,4023 2264,4002 2242,3988 2250,3975 2272,3989 2293,4002"
       id="polygon84" />
    <polygon
       points="2277,4023 2264,4031 2264,4031 2257,4034 2251,4010 2237,3988 2250,3980 2264,4002 2277,4023"
       id="polygon85" />
    <polygon
       points="2257,4034 2242,4038 2242,4038 2238,4038 2229,4038 2236,4014 2229,3989 2244,3985 2251,4010 2257,4034"
       id="polygon86" />
    <polygon
       points="2236,5199 1836,5199 1836,5199 1832,5198 1828,5197 1824,5196 1821,5194 1818,5191 1815,5188 1813,5185 1812,5181 1811,5174 1836,5174 1836,5149 2236,5149 2236,5174 2236,5199"
       id="polygon87" />
    <polygon
       points="1811,5174 1811,4374 1811,4374 1811,4370 1812,4366 1813,4362 1815,4359 1818,4356 1821,4353 1824,4351 1828,4350 1836,4349 1836,4374 1861,4374 1861,5174 1836,5174 1811,5174"
       id="polygon88" />
    <polygon
       points="1836,4349 2636,4349 2636,4349 2639,4349 2643,4350 2647,4351 2650,4353 2653,4356 2656,4359 2658,4362 2659,4366 2661,4374 2636,4374 2636,4399 1836,4399 1836,4374 1836,4349"
       id="polygon89" />
    <polygon
       points="2661,4374 2661,5174 2661,5174 2660,5177 2659,5181 2658,5185 2656,5188 2653,5191 2650,5194 2647,5196 2643,5197 2636,5199 2636,5174 2611,5174 2611,4374 2636,4374 2661,4374"
       id="polygon90" />
    <polygon
       points="2636,5174 2636,5199 2236,5199 2236,5174 2236,5149 2636,5149 2636,5174"
       id="polygon91" />
    <polygon
       points="2229,4838 2213,4834 2213,4834 2206,4831 2220,4810 2226,4785 2242,4789 2236,4814 2229,4838"
       id="polygon92" />
    <polygon
       points="2206,4831 2193,4823 2193,4823 2190,4820 2185,4815 2207,4802 2220,4780 2233,4788 2220,4810 2206,4831"
       id="polygon93" />
    <polygon
       points="2185,4815 2177,4802 2177,4802 2176,4799 2174,4793 2199,4789 2220,4775 2228,4788 2207,4802 2185,4815"
       id="polygon94" />
    <polygon
       points="2174,4793 2171,4778 2171,4778 2171,4775 2171,4769 2196,4774 2220,4769 2223,4784 2199,4789 2174,4793"
       id="polygon95" />
    <polygon
       points="2171,4769 2174,4753 2174,4753 2175,4750 2177,4744 2199,4758 2223,4762 2220,4778 2196,4774 2171,4769"
       id="polygon96" />
    <polygon
       points="2177,4744 2185,4731 2185,4731 2188,4728 2193,4723 2207,4745 2228,4758 2220,4771 2199,4758 2177,4744"
       id="polygon97" />
    <polygon
       points="2193,4723 2206,4715 2206,4715 2209,4714 2215,4712 2220,4737 2233,4758 2220,4766 2207,4745 2193,4723"
       id="polygon98" />
    <polygon
       points="2215,4712 2231,4709 2231,4709 2234,4709 2240,4709 2236,4734 2240,4758 2224,4761 2220,4737 2215,4712"
       id="polygon99" />
    <polygon
       points="2240,4709 2255,4712 2255,4712 2258,4713 2264,4715 2251,4737 2246,4761 2231,4758 2236,4734 2240,4709"
       id="polygon100" />
    <polygon
       points="2264,4715 2277,4723 2277,4723 2280,4726 2285,4731 2264,4745 2250,4766 2237,4758 2251,4737 2264,4715"
       id="polygon101" />
    <polygon
       points="2285,4731 2293,4744 2293,4744 2296,4751 2272,4758 2250,4771 2242,4758 2264,4745 2285,4731"
       id="polygon102" />
    <polygon
       points="2296,4751 2300,4767 2300,4767 2300,4772 2300,4780 2276,4774 2251,4780 2247,4764 2272,4758 2296,4751"
       id="polygon103" />
    <polygon
       points="2300,4780 2296,4795 2296,4795 2293,4802 2272,4789 2247,4782 2251,4767 2276,4774 2300,4780"
       id="polygon104" />
    <polygon
       points="2293,4802 2285,4815 2285,4815 2282,4818 2277,4823 2264,4802 2242,4788 2250,4775 2272,4789 2293,4802"
       id="polygon105" />
    <polygon
       points="2277,4823 2264,4831 2264,4831 2257,4834 2251,4810 2237,4788 2250,4780 2264,4802 2277,4823"
       id="polygon106" />
    <polygon
       points="2257,4834 2242,4838 2242,4838 2238,4838 2229,4838 2236,4814 2229,4789 2244,4785 2251,4810 2257,4834"
       id="polygon107" />
    <polygon
       points="3036,1999 2636,1999 2636,1999 2632,1998 2628,1997 2624,1996 2621,1994 2618,1991 2615,1988 2613,1985 2612,1981 2611,1974 2636,1974 2636,1949 3036,1949 3036,1974 3036,1999"
       id="polygon108" />
    <polygon
       points="2611,1974 2611,1174 2611,1174 2611,1170 2612,1166 2613,1162 2615,1159 2618,1156 2621,1153 2624,1151 2628,1150 2636,1149 2636,1174 2661,1174 2661,1974 2636,1974 2611,1974"
       id="polygon109" />
    <polygon
       points="2636,1149 3436,1149 3436,1149 3439,1149 3443,1150 3447,1151 3450,1153 3453,1156 3456,1159 3458,1162 3459,1166 3461,1174 3436,1174 3436,1199 2636,1199 2636,1174 2636,1149"
       id="polygon110" />
    <polygon
       points="3461,1174 3461,1974 3461,1974 3460,1977 3459,1981 3458,1985 3456,1988 3453,1991 3450,1994 3447,1996 3443,1997 3436,1999 3436,1974 3411,1974 3411,1174 3436,1174 3461,1174"
       id="polygon111" />
    <polygon
       points="3436,1974 3436,1999 3036,1999 3036,1974 3036,1949 3436,1949 3436,1974"
       id="polygon112" />
    <polygon
       points="3029,1638 3013,1634 3013,1634 3006,1631 3020,1610 3026,1585 3042,1589 3036,1614 3029,1638"
       id="polygon113" />
    <polygon
       points="3006,1631 2993,1623 2993,1623 2990,1620 2985,1615 3007,1602 3020,1580 3033,1588 3020,1610 3006,1631"
       id="polygon114" />
    <polygon
       points="2985,1615 2977,1602 2977,1602 2976,1599 2974,1593 2999,1589 3020,1575 3028,1588 3007,1602 2985,1615"
       id="polygon115" />
    <polygon
       points="2974,1593 2971,1578 2971,1578 2971,1575 2971,1569 2996,1574 3020,1569 3023,1584 2999,1589 2974,1593"
       id="polygon116" />
    <polygon
       points="2971,1569 2974,1553 2974,1553 2975,1550 2977,1544 2999,1558 3023,1562 3020,1578 2996,1574 2971,1569"
       id="polygon117" />
    <polygon
       points="2977,1544 2985,1531 2985,1531 2988,1528 2993,1523 3007,1545 3028,1558 3020,1571 2999,1558 2977,1544"
       id="polygon118" />
    <polygon
       points="2993,1523 3006,1515 3006,1515 3009,1514 3015,1512 3020,1537 3033,1558 3020,1566 3007,1545 2993,1523"
       id="polygon119" />
    <polygon
       points="3015,1512 3031,1509 3031,1509 3034,1509 3040,1509 3036,1534 3040,1558 3024,1561 3020,1537 3015,1512"
       id="polygon120" />
    <polygon
       points="3040,1509 3055,1512 3055,1512 3058,1513 3064,1515 3051,1537 3046,1561 3031,1558 3036,1534 3040,1509"
       id="polygon121" />
    <polygon
       points="3064,1515 3077,1523 3077,1523 3080,1526 3085,1531 3064,1545 3050,1566 3037,1558 3051,1537 3064,1515"
       id="polygon122" />
    <polygon
       points="3085,1531 3093,1544 3093,1544 3096,1551 3072,1558 3050,1571 3042,1558 3064,1545 3085,1531"
       id="polygon123" />
    <polygon
       points="3096,1551 3100,1567 3100,1567 3100,1572 3100,1580 3076,1574 3051,1580 3047,1564 3072,1558 3096,1551"
       id="polygon124" />
    <polygon
       points="3100,1580 3096,1595 3096,1595 3093,1602 3072,1589 3047,1582 3051,1567 3076,1574 3100,1580"
       id="polygon125" />
    <polygon
       points="3093,1602 3085,1615 3085,1615 3082,1618 3077,1623 3064,1602 3042,1588 3050,1575 3072,1589 3093,1602"
       id="polygon126" />
    <polygon
       points="3077,1623 3064,1631 3064,1631 3057,1634 3051,1610 3037,1588 3050,1580 3064,1602 3077,1623"
       id="polygon127" />
    <polygon
       points="3057,1634 3042,1638 3042,1638 3038,1638 3029,1638 3036,1614 3029,1589 3044,1585 3051,1610 3057,1634"
       id="polygon128" />
    <polygon
       points="3036,2799 2636,2799 2636,2799 2632,2798 2628,2797 2624,2796 2621,2794 2618,2791 2615,2788 2613,2785 2612,2781 2611,2774 2636,2774 2636,2749 3036,2749 3036,2774 3036,2799"
       id="polygon129" />
    <polygon
       points="2611,2774 2611,1974 2611,1974 2611,1970 2612,1966 2613,1962 2615,1959 2618,1956 2621,1953 2624,1951 2628,1950 2636,1949 2636,1974 2661,1974 2661,2774 2636,2774 2611,2774"
       id="polygon130" />
    <polygon
       points="2636,1949 3436,1949 3436,1949 3439,1949 3443,1950 3447,1951 3450,1953 3453,1956 3456,1959 3458,1962 3459,1966 3461,1974 3436,1974 3436,1999 2636,1999 2636,1974 2636,1949"
       id="polygon131" />
    <polygon
       points="3461,1974 3461,2774 3461,2774 3460,2777 3459,2781 3458,2785 3456,2788 3453,2791 3450,2794 3447,2796 3443,2797 3436,2799 3436,2774 3411,2774 3411,1974 3436,1974 3461,1974"
       id="polygon132" />
    <polygon
       points="3436,2774 3436,2799 3036,2799 3036,2774 3036,2749 3436,2749 3436,2774"
       id="polygon133" />
    <polygon
       points="3029,2438 3013,2434 3013,2434 3006,2431 3020,2410 3026,2385 3042,2389 3036,2414 3029,2438"
       id="polygon134" />
    <polygon
       points="3006,2431 2993,2423 2993,2423 2990,2420 2985,2415 3007,2402 3020,2380 3033,2388 3020,2410 3006,2431"
       id="polygon135" />
    <polygon
       points="2985,2415 2977,2402 2977,2402 2976,2399 2974,2393 2999,2389 3020,2375 3028,2388 3007,2402 2985,2415"
       id="polygon136" />
    <polygon
       points="2974,2393 2971,2378 2971,2378 2971,2375 2971,2369 2996,2374 3020,2369 3023,2384 2999,2389 2974,2393"
       id="polygon137" />
    <polygon
       points="2971,2369 2974,2353 2974,2353 2975,2350 2977,2344 2999,2358 3023,2362 3020,2378 2996,2374 2971,2369"
       id="polygon138" />
    <polygon
       points="2977,2344 2985,2331 2985,2331 2988,2328 2993,2323 3007,2345 3028,2358 3020,2371 2999,2358 2977,2344"
       id="polygon139" />
    <polygon
       points="2993,2323 3006,2315 3006,2315 3009,2314 3015,2312 3020,2337 3033,2358 3020,2366 3007,2345 2993,2323"
       id="polygon140" />
    <polygon
       points="3015,2312 3031,2309 3031,2309 3034,2309 3040,2309 3036,2334 3040,2358 3024,2361 3020,2337 3015,2312"
       id="polygon141" />
    <polygon
       points="3040,2309 3055,2312 3055,2312 3058,2313 3064,2315 3051,2337 3046,2361 3031,2358 3036,2334 3040,2309"
       id="polygon142" />
    <polygon
       points="3064,2315 3077,2323 3077,2323 3080,2326 3085,2331 3064,2345 3050,2366 3037,2358 3051,2337 3064,2315"
       id="polygon143" />
    <polygon
       points="3085,2331 3093,2344 3093,2344 3096,2351 3072,2358 3050,2371 3042,2358 3064,2345 3085,2331"
       id="polygon144" />
    <polygon
       points="3096,2351 3100,2367 3100,2367 3100,2372 3100,2380 3076,2374 3051,2380 3047,2364 3072,2358 3096,2351"
       id="polygon145" />
    <polygon
       points="3100,2380 3096,2395 3096,2395 3093,2402 3072,2389 3047,2382 3051,2367 3076,2374 3100,2380"
       id="polygon146" />
    <polygon
       points="3093,2402 3085,2415 3085,2415 3082,2418 3077,2423 3064,2402 3042,2388 3050,2375 3072,2389 3093,2402"
       id="polygon147" />
    <polygon
       points="3077,2423 3064,2431 3064,2431 3057,2434 3051,2410 3037,2388 3050,2380 3064,2402 3077,2423"
       id="polygon148" />
    <polygon
       points="3057,2434 3042,2438 3042,2438 3038,2438 3029,2438 3036,2414 3029,2389 3044,2385 3051,2410 3057,2434"
       id="polygon149" />
    <polygon
       points="3036,3599 2636,3599 2636,3599 2632,3598 2628,3597 2624,3596 2621,3594 2618,3591 2615,3588 2613,3585 2612,3581 2611,3574 2636,3574 2636,3549 3036,3549 3036,3574 3036,3599"
       id="polygon150" />
    <polygon
       points="2611,3574 2611,2774 2611,2774 2611,2770 2612,2766 2613,2762 2615,2759 2618,2756 2621,2753 2624,2751 2628,2750 2636,2749 2636,2774 2661,2774 2661,3574 2636,3574 2611,3574"
       id="polygon151" />
    <polygon
       points="2636,2749 3436,2749 3436,2749 3439,2749 3443,2750 3447,2751 3450,2753 3453,2756 3456,2759 3458,2762 3459,2766 3461,2774 3436,2774 3436,2799 2636,2799 2636,2774 2636,2749"
       id="polygon152" />
    <polygon
       points="3461,2774 3461,3574 3461,3574 3460,3577 3459,3581 3458,3585 3456,3588 3453,3591 3450,3594 3447,3596 3443,3597 3436,3599 3436,3574 3411,3574 3411,2774 3436,2774 3461,2774"
       id="polygon153" />
    <polygon
       points="3436,3574 3436,3599 3036,3599 3036,3574 3036,3549 3436,3549 3436,3574"
       id="polygon154" />
    <polygon
       points="3029,3238 3013,3234 3013,3234 3006,3231 3020,3210 3026,3185 3042,3189 3036,3214 3029,3238"
       id="polygon155" />
    <polygon
       points="3006,3231 2993,3223 2993,3223 2990,3220 2985,3215 3007,3202 3020,3180 3033,3188 3020,3210 3006,3231"
       id="polygon156" />
    <polygon
       points="2985,3215 2977,3202 2977,3202 2976,3199 2974,3193 2999,3189 3020,3175 3028,3188 3007,3202 2985,3215"
       id="polygon157" />
    <polygon
       points="2974,3193 2971,3178 2971,3178 2971,3175 2971,3169 2996,3174 3020,3169 3023,3184 2999,3189 2974,3193"
       id="polygon158" />
    <polygon
       points="2971,3169 2974,3153 2974,3153 2975,3150 2977,3144 2999,3158 3023,3162 3020,3178 2996,3174 2971,3169"
       id="polygon159" />
    <polygon
       points="2977,3144 2985,3131 2985,3131 2988,3128 2993,3123 3007,3145 3028,3158 3020,3171 2999,3158 2977,3144"
       id="polygon160" />
    <polygon
       points="2993,3123 3006,3115 3006,3115 3009,3114 3015,3112 3020,3137 3033,3158 3020,3166 3007,3145 2993,3123"
       id="polygon161" />
    <polygon
       points="3015,3112 3031,3109 3031,3109 3034,3109 3040,3109 3036,3134 3040,3158 3024,3161 3020,3137 3015,3112"
       id="polygon162" />
    <polygon
       points="3040,3109 3055,3112 3055,3112 3058,3113 3064,3115 3051,3137 3046,3161 3031,3158 3036,3134 3040,3109"
       id="polygon163" />
    <polygon
       points="3064,3115 3077,3123 3077,3123 3080,3126 3085,3131 3064,3145 3050,3166 3037,3158 3051,3137 3064,3115"
       id="polygon164" />
    <polygon
       points="3085,3131 3093,3144 3093,3144 3096,3151 3072,3158 3050,3171 3042,3158 3064,3145 3085,3131"
       id="polygon165" />
    <polygon
       points="3096,3151 3100,3167 3100,3167 3100,3172 3100,3180 3076,3174 3051,3180 3047,3164 3072,3158 3096,3151"
       id="polygon166" />
    <polygon
       points="3100,3180 3096,3195 3096,3195 3093,3202 3072,3189 3047,3182 3051,3167 3076,3174 3100,3180"
       id="polygon167" />
    <polygon
       points="3093,3202 3085,3215 3085,3215 3082,3218 3077,3223 3064,3202 3042,3188 3050,3175 3072,3189 3093,3202"
       id="polygon168" />
    <polygon
       points="3077,3223 3064,3231 3064,3231 3057,3234 3051,3210 3037,3188 3050,3180 3064,3202 3077,3223"
       id="polygon169" />
    <polygon
       points="3057,3234 3042,3238 3042,3238 3038,3238 3029,3238 3036,3214 3029,3189 3044,3185 3051,3210 3057,3234"
       id="polygon170" />
    <polygon
       points="3036,4399 2636,4399 2636,4399 2632,4398 2628,4397 2624,4396 2621,4394 2618,4391 2615,4388 2613,4385 2612,4381 2611,4374 2636,4374 2636,4349 3036,4349 3036,4374 3036,4399"
       id="polygon171" />
    <polygon
       points="2611,4374 2611,3574 2611,3574 2611,3570 2612,3566 2613,3562 2615,3559 2618,3556 2621,3553 2624,3551 2628,3550 2636,3549 2636,3574 2661,3574 2661,4374 2636,4374 2611,4374"
       id="polygon172" />
    <polygon
       points="2636,3549 3436,3549 3436,3549 3439,3549 3443,3550 3447,3551 3450,3553 3453,3556 3456,3559 3458,3562 3459,3566 3461,3574 3436,3574 3436,3599 2636,3599 2636,3574 2636,3549"
       id="polygon173" />
    <polygon
       points="3461,3574 3461,4374 3461,4374 3460,4377 3459,4381 3458,4385 3456,4388 3453,4391 3450,4394 3447,4396 3443,4397 3436,4399 3436,4374 3411,4374 3411,3574 3436,3574 3461,3574"
       id="polygon174" />
    <polygon
       points="3436,4374 3436,4399 3036,4399 3036,4374 3036,4349 3436,4349 3436,4374"
       id="polygon175" />
    <polygon
       points="3029,4038 3013,4034 3013,4034 3006,4031 3020,4010 3026,3985 3042,3989 3036,4014 3029,4038"
       id="polygon176" />
    <polygon
       points="3006,4031 2993,4023 2993,4023 2990,4020 2985,4015 3007,4002 3020,3980 3033,3988 3020,4010 3006,4031"
       id="polygon177" />
    <polygon
       points="2985,4015 2977,4002 2977,4002 2976,3999 2974,3993 2999,3989 3020,3975 3028,3988 3007,4002 2985,4015"
       id="polygon178" />
    <polygon
       points="2974,3993 2971,3978 2971,3978 2971,3975 2971,3969 2996,3974 3020,3969 3023,3984 2999,3989 2974,3993"
       id="polygon179" />
    <polygon
       points="2971,3969 2974,3953 2974,3953 2975,3950 2977,3944 2999,3958 3023,3962 3020,3978 2996,3974 2971,3969"
       id="polygon180" />
    <polygon
       points="2977,3944 2985,3931 2985,3931 2988,3928 2993,3923 3007,3945 3028,3958 3020,3971 2999,3958 2977,3944"
       id="polygon181" />
    <polygon
       points="2993,3923 3006,3915 3006,3915 3009,3914 3015,3912 3020,3937 3033,3958 3020,3966 3007,3945 2993,3923"
       id="polygon182" />
    <polygon
       points="3015,3912 3031,3909 3031,3909 3034,3909 3040,3909 3036,3934 3040,3958 3024,3961 3020,3937 3015,3912"
       id="polygon183" />
    <polygon
       points="3040,3909 3055,3912 3055,3912 3058,3913 3064,3915 3051,3937 3046,3961 3031,3958 3036,3934 3040,3909"
       id="polygon184" />
    <polygon
       points="3064,3915 3077,3923 3077,3923 3080,3926 3085,3931 3064,3945 3050,3966 3037,3958 3051,3937 3064,3915"
       id="polygon185" />
    <polygon
       points="3085,3931 3093,3944 3093,3944 3096,3951 3072,3958 3050,3971 3042,3958 3064,3945 3085,3931"
       id="polygon186" />
    <polygon
       points="3096,3951 3100,3967 3100,3967 3100,3972 3100,3980 3076,3974 3051,3980 3047,3964 3072,3958 3096,3951"
       id="polygon187" />
    <polygon
       points="3100,3980 3096,3995 3096,3995 3093,4002 3072,3989 3047,3982 3051,3967 3076,3974 3100,3980"
       id="polygon188" />
    <polygon
       points="3093,4002 3085,4015 3085,4015 3082,4018 3077,4023 3064,4002 3042,3988 3050,3975 3072,3989 3093,4002"
       id="polygon189" />
    <polygon
       points="3077,4023 3064,4031 3064,4031 3057,4034 3051,4010 3037,3988 3050,3980 3064,4002 3077,4023"
       id="polygon190" />
    <polygon
       points="3057,4034 3042,4038 3042,4038 3038,4038 3029,4038 3036,4014 3029,3989 3044,3985 3051,4010 3057,4034"
       id="polygon191" />
    <polygon
       points="3036,5199 2636,5199 2636,5199 2632,5198 2628,5197 2624,5196 2621,5194 2618,5191 2615,5188 2613,5185 2612,5181 2611,5174 2636,5174 2636,5149 3036,5149 3036,5174 3036,5199"
       id="polygon192" />
    <polygon
       points="2611,5174 2611,4374 2611,4374 2611,4370 2612,4366 2613,4362 2615,4359 2618,4356 2621,4353 2624,4351 2628,4350 2636,4349 2636,4374 2661,4374 2661,5174 2636,5174 2611,5174"
       id="polygon193" />
    <polygon
       points="2636,4349 3436,4349 3436,4349 3439,4349 3443,4350 3447,4351 3450,4353 3453,4356 3456,4359 3458,4362 3459,4366 3461,4374 3436,4374 3436,4399 2636,4399 2636,4374 2636,4349"
       id="polygon194" />
    <polygon
       points="3461,4374 3461,5174 3461,5174 3460,5177 3459,5181 3458,5185 3456,5188 3453,5191 3450,5194 3447,5196 3443,5197 3436,5199 3436,5174 3411,5174 3411,4374 3436,4374 3461,4374"
       id="polygon195" />
    <polygon
       points="3436,5174 3436,5199 3036,5199 3036,5174 3036,5149 3436,5149 3436,5174"
       id="polygon196" />
    <polygon
       points="3029,4838 3013,4834 3013,4834 3006,4831 3020,4810 3026,4785 3042,4789 3036,4814 3029,4838"
       id="polygon197" />
    <polygon
       points="3006,4831 2993,4823 2993,4823 2990,4820 2985,4815 3007,4802 3020,4780 3033,4788 3020,4810 3006,4831"
       id="polygon198" />
    <polygon
       points="2985,4815 2977,4802 2977,4802 2976,4799 2974,4793 2999,4789 3020,4775 3028,4788 3007,4802 2985,4815"
       id="polygon199" />
    <polygon
       points="2974,4793 2971,4778 2971,4778 2971,4775 2971,4769 2996,4774 3020,4769 3023,4784 2999,4789 2974,4793"
       id="polygon200" />
    <polygon
       points="2971,4769 2974,4753 2974,4753 2975,4750 2977,4744 2999,4758 3023,4762 3020,4778 2996,4774 2971,4769"
       id="polygon201" />
    <polygon
       points="2977,4744 2985,4731 2985,4731 2988,4728 2993,4723 3007,4745 3028,4758 3020,4771 2999,4758 2977,4744"
       id="polygon202" />
    <polygon
       points="2993,4723 3006,4715 3006,4715 3009,4714 3015,4712 3020,4737 3033,4758 3020,4766 3007,4745 2993,4723"
       id="polygon203" />
    <polygon
       points="3015,4712 3031,4709 3031,4709 3034,4709 3040,4709 3036,4734 3040,4758 3024,4761 3020,4737 3015,4712"
       id="polygon204" />
    <polygon
       points="3040,4709 3055,4712 3055,4712 3058,4713 3064,4715 3051,4737 3046,4761 3031,4758 3036,4734 3040,4709"
       id="polygon205" />
    <polygon
       points="3064,4715 3077,4723 3077,4723 3080,4726 3085,4731 3064,4745 3050,4766 3037,4758 3051,4737 3064,4715"
       id="polygon206" />
    <polygon
       points="3085,4731 3093,4744 3093,4744 3096,4751 3072,4758 3050,4771 3042,4758 3064,4745 3085,4731"
       id="polygon207" />
    <polygon
       points="3096,4751 3100,4767 3100,4767 3100,4772 3100,4780 3076,4774 3051,4780 3047,4764 3072,4758 3096,4751"
       id="polygon208" />
    <polygon
       points="3100,4780 3096,4795 3096,4795 3093,4802 3072,4789 3047,4782 3051,4767 3076,4774 3100,4780"
       id="polygon209" />
    <polygon
       points="3093,4802 3085,4815 3085,4815 3082,4818 3077,4823 3064,4802 3042,4788 3050,4775 3072,4789 3093,4802"
       id="polygon210" />
    <polygon
       points="3077,4823 3064,4831 3064,4831 3057,4834 3051,4810 3037,4788 3050,4780 3064,4802 3077,4823"
       id="polygon211" />
    <polygon
       points="3057,4834 3042,4838 3042,4838 3038,4838 3029,4838 3036,4814 3029,4789 3044,4785 3051,4810 3057,4834"
       id="polygon212" />
    <polygon
       points="3836,1999 3436,1999 3436,1999 3432,1998 3428,1997 3424,1996 3421,1994 3418,1991 3415,1988 3413,1985 3412,1981 3411,1974 3436,1974 3436,1949 3836,1949 3836,1974 3836,1999"
       id="polygon213" />
    <polygon
       points="3411,1974 3411,1174 3411,1174 3411,1170 3412,1166 3413,1162 3415,1159 3418,1156 3421,1153 3424,1151 3428,1150 3436,1149 3436,1174 3461,1174 3461,1974 3436,1974 3411,1974"
       id="polygon214" />
    <polygon
       points="3436,1149 4236,1149 4236,1149 4239,1149 4243,1150 4247,1151 4250,1153 4253,1156 4256,1159 4258,1162 4259,1166 4261,1174 4236,1174 4236,1199 3436,1199 3436,1174 3436,1149"
       id="polygon215" />
    <polygon
       points="4261,1174 4261,1974 4261,1974 4260,1977 4259,1981 4258,1985 4256,1988 4253,1991 4250,1994 4247,1996 4243,1997 4236,1999 4236,1974 4211,1974 4211,1174 4236,1174 4261,1174"
       id="polygon216" />
    <polygon
       points="4236,1974 4236,1999 3836,1999 3836,1974 3836,1949 4236,1949 4236,1974"
       id="polygon217" />
    <polygon
       points="3829,1638 3813,1634 3813,1634 3806,1631 3820,1610 3826,1585 3842,1589 3836,1614 3829,1638"
       id="polygon218" />
    <polygon
       points="3806,1631 3793,1623 3793,1623 3790,1620 3785,1615 3807,1602 3820,1580 3833,1588 3820,1610 3806,1631"
       id="polygon219" />
    <polygon
       points="3785,1615 3777,1602 3777,1602 3776,1599 3774,1593 3799,1589 3820,1575 3828,1588 3807,1602 3785,1615"
       id="polygon220" />
    <polygon
       points="3774,1593 3771,1578 3771,1578 3771,1575 3771,1569 3796,1574 3820,1569 3823,1584 3799,1589 3774,1593"
       id="polygon221" />
    <polygon
       points="3771,1569 3774,1553 3774,1553 3775,1550 3777,1544 3799,1558 3823,1562 3820,1578 3796,1574 3771,1569"
       id="polygon222" />
    <polygon
       points="3777,1544 3785,1531 3785,1531 3788,1528 3793,1523 3807,1545 3828,1558 3820,1571 3799,1558 3777,1544"
       id="polygon223" />
    <polygon
       points="3793,1523 3806,1515 3806,1515 3809,1514 3815,1512 3820,1537 3833,1558 3820,1566 3807,1545 3793,1523"
       id="polygon224" />
    <polygon
       points="3815,1512 3831,1509 3831,1509 3834,1509 3840,1509 3836,1534 3840,1558 3824,1561 3820,1537 3815,1512"
       id="polygon225" />
    <polygon
       points="3840,1509 3855,1512 3855,1512 3858,1513 3864,1515 3851,1537 3846,1561 3831,1558 3836,1534 3840,1509"
       id="polygon226" />
    <polygon
       points="3864,1515 3877,1523 3877,1523 3880,1526 3885,1531 3864,1545 3850,1566 3837,1558 3851,1537 3864,1515"
       id="polygon227" />
    <polygon
       points="3885,1531 3893,1544 3893,1544 3896,1551 3872,1558 3850,1571 3842,1558 3864,1545 3885,1531"
       id="polygon228" />
    <polygon
       points="3896,1551 3900,1567 3900,1567 3900,1572 3900,1580 3876,1574 3851,1580 3847,1564 3872,1558 3896,1551"
       id="polygon229" />
    <polygon
       points="3900,1580 3896,1595 3896,1595 3893,1602 3872,1589 3847,1582 3851,1567 3876,1574 3900,1580"
       id="polygon230" />
    <polygon
       points="3893,1602 3885,1615 3885,1615 3882,1618 3877,1623 3864,1602 3842,1588 3850,1575 3872,1589 3893,1602"
       id="polygon231" />
    <polygon
       points="3877,1623 3864,1631 3864,1631 3857,1634 3851,1610 3837,1588 3850,1580 3864,1602 3877,1623"
       id="polygon232" />
    <polygon
       points="3857,1634 3842,1638 3842,1638 3838,1638 3829,1638 3836,1614 3829,1589 3844,1585 3851,1610 3857,1634"
       id="polygon233" />
    <polygon
       points="3836,2799 3436,2799 3436,2799 3432,2798 3428,2797 3424,2796 3421,2794 3418,2791 3415,2788 3413,2785 3412,2781 3411,2774 3436,2774 3436,2749 3836,2749 3836,2774 3836,2799"
       id="polygon234" />
    <polygon
       points="3411,2774 3411,1974 3411,1974 3411,1970 3412,1966 3413,1962 3415,1959 3418,1956 3421,1953 3424,1951 3428,1950 3436,1949 3436,1974 3461,1974 3461,2774 3436,2774 3411,2774"
       id="polygon235" />
    <polygon
       points="3436,1949 4236,1949 4236,1949 4239,1949 4243,1950 4247,1951 4250,1953 4253,1956 4256,1959 4258,1962 4259,1966 4261,1974 4236,1974 4236,1999 3436,1999 3436,1974 3436,1949"
       id="polygon236" />
    <polygon
       points="4261,1974 4261,2774 4261,2774 4260,2777 4259,2781 4258,2785 4256,2788 4253,2791 4250,2794 4247,2796 4243,2797 4236,2799 4236,2774 4211,2774 4211,1974 4236,1974 4261,1974"
       id="polygon237" />
    <polygon
       points="4236,2774 4236,2799 3836,2799 3836,2774 3836,2749 4236,2749 4236,2774"
       id="polygon238" />
    <polygon
       points="3829,2438 3813,2434 3813,2434 3806,2431 3820,2410 3826,2385 3842,2389 3836,2414 3829,2438"
       id="polygon239" />
    <polygon
       points="3806,2431 3793,2423 3793,2423 3790,2420 3785,2415 3807,2402 3820,2380 3833,2388 3820,2410 3806,2431"
       id="polygon240" />
    <polygon
       points="3785,2415 3777,2402 3777,2402 3776,2399 3774,2393 3799,2389 3820,2375 3828,2388 3807,2402 3785,2415"
       id="polygon241" />
    <polygon
       points="3774,2393 3771,2378 3771,2378 3771,2375 3771,2369 3796,2374 3820,2369 3823,2384 3799,2389 3774,2393"
       id="polygon242" />
    <polygon
       points="3771,2369 3774,2353 3774,2353 3775,2350 3777,2344 3799,2358 3823,2362 3820,2378 3796,2374 3771,2369"
       id="polygon243" />
    <polygon
       points="3777,2344 3785,2331 3785,2331 3788,2328 3793,2323 3807,2345 3828,2358 3820,2371 3799,2358 3777,2344"
       id="polygon244" />
    <polygon
       points="3793,2323 3806,2315 3806,2315 3809,2314 3815,2312 3820,2337 3833,2358 3820,2366 3807,2345 3793,2323"
       id="polygon245" />
    <polygon
       points="3815,2312 3831,2309 3831,2309 3834,2309 3840,2309 3836,2334 3840,2358 3824,2361 3820,2337 3815,2312"
       id="polygon246" />
    <polygon
       points="3840,2309 3855,2312 3855,2312 3858,2313 3864,2315 3851,2337 3846,2361 3831,2358 3836,2334 3840,2309"
       id="polygon247" />
    <polygon
       points="3864,2315 3877,2323 3877,2323 3880,2326 3885,2331 3864,2345 3850,2366 3837,2358 3851,2337 3864,2315"
       id="polygon248" />
    <polygon
       points="3885,2331 3893,2344 3893,2344 3896,2351 3872,2358 3850,2371 3842,2358 3864,2345 3885,2331"
       id="polygon249" />
    <polygon
       points="3896,2351 3900,2367 3900,2367 3900,2372 3900,2380 3876,2374 3851,2380 3847,2364 3872,2358 3896,2351"
       id="polygon250" />
    <polygon
       points="3900,2380 3896,2395 3896,2395 3893,2402 3872,2389 3847,2382 3851,2367 3876,2374 3900,2380"
       id="polygon251" />
    <polygon
       points="3893,2402 3885,2415 3885,2415 3882,2418 3877,2423 3864,2402 3842,2388 3850,2375 3872,2389 3893,2402"
       id="polygon252" />
    <polygon
       points="3877,2423 3864,2431 3864,2431 3857,2434 3851,2410 3837,2388 3850,2380 3864,2402 3877,2423"
       id="polygon253" />
    <polygon
       points="3857,2434 3842,2438 3842,2438 3838,2438 3829,2438 3836,2414 3829,2389 3844,2385 3851,2410 3857,2434"
       id="polygon254" />
    <polygon
       points="3836,3599 3436,3599 3436,3599 3432,3598 3428,3597 3424,3596 3421,3594 3418,3591 3415,3588 3413,3585 3412,3581 3411,3574 3436,3574 3436,3549 3836,3549 3836,3574 3836,3599"
       id="polygon255" />
    <polygon
       points="3411,3574 3411,2774 3411,2774 3411,2770 3412,2766 3413,2762 3415,2759 3418,2756 3421,2753 3424,2751 3428,2750 3436,2749 3436,2774 3461,2774 3461,3574 3436,3574 3411,3574"
       id="polygon256" />
    <polygon
       points="3436,2749 4236,2749 4236,2749 4239,2749 4243,2750 4247,2751 4250,2753 4253,2756 4256,2759 4258,2762 4259,2766 4261,2774 4236,2774 4236,2799 3436,2799 3436,2774 3436,2749"
       id="polygon257" />
    <polygon
       points="4261,2774 4261,3574 4261,3574 4260,3577 4259,3581 4258,3585 4256,3588 4253,3591 4250,3594 4247,3596 4243,3597 4236,3599 4236,3574 4211,3574 4211,2774 4236,2774 4261,2774"
       id="polygon258" />
    <polygon
       points="4236,3574 4236,3599 3836,3599 3836,3574 3836,3549 4236,3549 4236,3574"
       id="polygon259" />
    <polygon
       points="3829,3238 3813,3234 3813,3234 3806,3231 3820,3210 3826,3185 3842,3189 3836,3214 3829,3238"
       id="polygon260" />
    <polygon
       points="3806,3231 3793,3223 3793,3223 3790,3220 3785,3215 3807,3202 3820,3180 3833,3188 3820,3210 3806,3231"
       id="polygon261" />
    <polygon
       points="3785,3215 3777,3202 3777,3202 3776,3199 3774,3193 3799,3189 3820,3175 3828,3188 3807,3202 3785,3215"
       id="polygon262" />
    <polygon
       points="3774,3193 3771,3178 3771,3178 3771,3175 3771,3169 3796,3174 3820,3169 3823,3184 3799,3189 3774,3193"
       id="polygon263" />
    <polygon
       points="3771,3169 3774,3153 3774,3153 3775,3150 3777,3144 3799,3158 3823,3162 3820,3178 3796,3174 3771,3169"
       id="polygon264" />
    <polygon
       points="3777,3144 3785,3131 3785,3131 3788,3128 3793,3123 3807,3145 3828,3158 3820,3171 3799,3158 3777,3144"
       id="polygon265" />
    <polygon
       points="3793,3123 3806,3115 3806,3115 3809,3114 3815,3112 3820,3137 3833,3158 3820,3166 3807,3145 3793,3123"
       id="polygon266" />
    <polygon
       points="3815,3112 3831,3109 3831,3109 3834,3109 3840,3109 3836,3134 3840,3158 3824,3161 3820,3137 3815,3112"
       id="polygon267" />
    <polygon
       points="3840,3109 3855,3112 3855,3112 3858,3113 3864,3115 3851,3137 3846,3161 3831,3158 3836,3134 3840,3109"
       id="polygon268" />
    <polygon
       points="3864,3115 3877,3123 3877,3123 3880,3126 3885,3131 3864,3145 3850,3166 3837,3158 3851,3137 3864,3115"
       id="polygon269" />
    <polygon
       points="3885,3131 3893,3144 3893,3144 3896,3151 3872,3158 3850,3171 3842,3158 3864,3145 3885,3131"
       id="polygon270" />
    <polygon
       points="3896,3151 3900,3167 3900,3167 3900,3172 3900,3180 3876,3174 3851,3180 3847,3164 3872,3158 3896,3151"
       id="polygon271" />
    <polygon
       points="3900,3180 3896,3195 3896,3195 3893,3202 3872,3189 3847,3182 3851,3167 3876,3174 3900,3180"
       id="polygon272" />
    <polygon
       points="3893,3202 3885,3215 3885,3215 3882,3218 3877,3223 3864,3202 3842,3188 3850,3175 3872,3189 3893,3202"
       id="polygon273" />
    <polygon
       points="3877,3223 3864,3231 3864,3231 3857,3234 3851,3210 3837,3188 3850,3180 3864,3202 3877,3223"
       id="polygon274" />
    <polygon
       points="3857,3234 3842,3238 3842,3238 3838,3238 3829,3238 3836,3214 3829,3189 3844,3185 3851,3210 3857,3234"
       id="polygon275" />
    <polygon
       points="3836,4399 3436,4399 3436,4399 3432,4398 3428,4397 3424,4396 3421,4394 3418,4391 3415,4388 3413,4385 3412,4381 3411,4374 3436,4374 3436,4349 3836,4349 3836,4374 3836,4399"
       id="polygon276" />
    <polygon
       points="3411,4374 3411,3574 3411,3574 3411,3570 3412,3566 3413,3562 3415,3559 3418,3556 3421,3553 3424,3551 3428,3550 3436,3549 3436,3574 3461,3574 3461,4374 3436,4374 3411,4374"
       id="polygon277" />
    <polygon
       points="3436,3549 4236,3549 4236,3549 4239,3549 4243,3550 4247,3551 4250,3553 4253,3556 4256,3559 4258,3562 4259,3566 4261,3574 4236,3574 4236,3599 3436,3599 3436,3574 3436,3549"
       id="polygon278" />
    <polygon
       points="4261,3574 4261,4374 4261,4374 4260,4377 4259,4381 4258,4385 4256,4388 4253,4391 4250,4394 4247,4396 4243,4397 4236,4399 4236,4374 4211,4374 4211,3574 4236,3574 4261,3574"
       id="polygon279" />
    <polygon
       points="4236,4374 4236,4399 3836,4399 3836,4374 3836,4349 4236,4349 4236,4374"
       id="polygon280" />
    <polygon
       points="3829,4038 3813,4034 3813,4034 3806,4031 3820,4010 3826,3985 3842,3989 3836,4014 3829,4038"
       id="polygon281" />
    <polygon
       points="3806,4031 3793,4023 3793,4023 3790,4020 3785,4015 3807,4002 3820,3980 3833,3988 3820,4010 3806,4031"
       id="polygon282" />
    <polygon
       points="3785,4015 3777,4002 3777,4002 3776,3999 3774,3993 3799,3989 3820,3975 3828,3988 3807,4002 3785,4015"
       id="polygon283" />
    <polygon
       points="3774,3993 3771,3978 3771,3978 3771,3975 3771,3969 3796,3974 3820,3969 3823,3984 3799,3989 3774,3993"
       id="polygon284" />
    <polygon
       points="3771,3969 3774,3953 3774,3953 3775,3950 3777,3944 3799,3958 3823,3962 3820,3978 3796,3974 3771,3969"
       id="polygon285" />
    <polygon
       points="3777,3944 3785,3931 3785,3931 3788,3928 3793,3923 3807,3945 3828,3958 3820,3971 3799,3958 3777,3944"
       id="polygon286" />
    <polygon
       points="3793,3923 3806,3915 3806,3915 3809,3914 3815,3912 3820,3937 3833,3958 3820,3966 3807,3945 3793,3923"
       id="polygon287" />
    <polygon
       points="3815,3912 3831,3909 3831,3909 3834,3909 3840,3909 3836,3934 3840,3958 3824,3961 3820,3937 3815,3912"
       id="polygon288" />
    <polygon
       points="3840,3909 3855,3912 3855,3912 3858,3913 3864,3915 3851,3937 3846,3961 3831,3958 3836,3934 3840,3909"
       id="polygon289" />
    <polygon
       points="3864,3915 3877,3923 3877,3923 3880,3926 3885,3931 3864,3945 3850,3966 3837,3958 3851,3937 3864,3915"
       id="polygon290" />
    <polygon
       points="3885,3931 3893,3944 3893,3944 3896,3951 3872,3958 3850,3971 3842,3958 3864,3945 3885,3931"
       id="polygon291" />
    <polygon
       points="3896,3951 3900,3967 3900,3967 3900,3972 3900,3980 3876,3974 3851,3980 3847,3964 3872,3958 3896,3951"
       id="polygon292" />
    <polygon
       points="3900,3980 3896,3995 3896,3995 3893,4002 3872,3989 3847,3982 3851,3967 3876,3974 3900,3980"
       id="polygon293" />
    <polygon
       points="3893,4002 3885,4015 3885,4015 3882,4018 3877,4023 3864,4002 3842,3988 3850,3975 3872,3989 3893,4002"
       id="polygon294" />
    <polygon
       points="3877,4023 3864,4031 3864,4031 3857,4034 3851,4010 3837,3988 3850,3980 3864,4002 3877,4023"
       id="polygon295" />
    <polygon
       points="3857,4034 3842,4038 3842,4038 3838,4038 3829,4038 3836,4014 3829,3989 3844,3985 3851,4010 3857,4034"
       id="polygon296" />
    <polygon
       points="3836,5199 3436,5199 3436,5199 3432,5198 3428,5197 3424,5196 3421,5194 3418,5191 3415,5188 3413,5185 3412,5181 3411,5174 3436,5174 3436,5149 3836,5149 3836,5174 3836,5199"
       id="polygon297" />
    <polygon
       points="3411,5174 3411,4374 3411,4374 3411,4370 3412,4366 3413,4362 3415,4359 3418,4356 3421,4353 3424,4351 3428,4350 3436,4349 3436,4374 3461,4374 3461,5174 3436,5174 3411,5174"
       id="polygon298" />
    <polygon
       points="3436,4349 4236,4349 4236,4349 4239,4349 4243,4350 4247,4351 4250,4353 4253,4356 4256,4359 4258,4362 4259,4366 4261,4374 4236,4374 4236,4399 3436,4399 3436,4374 3436,4349"
       id="polygon299" />
    <polygon
       points="4261,4374 4261,5174 4261,5174 4260,5177 4259,5181 4258,5185 4256,5188 4253,5191 4250,5194 4247,5196 4243,5197 4236,5199 4236,5174 4211,5174 4211,4374 4236,4374 4261,4374"
       id="polygon300" />
    <polygon
       points="4236,5174 4236,5199 3836,5199 3836,5174 3836,5149 4236,5149 4236,5174"
       id="polygon301" />
    <polygon
       points="3829,4838 3813,4834 3813,4834 3806,4831 3820,4810 3826,4785 3842,4789 3836,4814 3829,4838"
       id="polygon302" />
    <polygon
       points="3806,4831 3793,4823 3793,4823 3790,4820 3785,4815 3807,4802 3820,4780 3833,4788 3820,4810 3806,4831"
       id="polygon303" />
    <polygon
       points="3785,4815 3777,4802 3777,4802 3776,4799 3774,4793 3799,4789 3820,4775 3828,4788 3807,4802 3785,4815"
       id="polygon304" />
    <polygon
       points="3774,4793 3771,4778 3771,4778 3771,4775 3771,4769 3796,4774 3820,4769 3823,4784 3799,4789 3774,4793"
       id="polygon305" />
    <polygon
       points="3771,4769 3774,4753 3774,4753 3775,4750 3777,4744 3799,4758 3823,4762 3820,4778 3796,4774 3771,4769"
       id="polygon306" />
    <polygon
       points="3777,4744 3785,4731 3785,4731 3788,4728 3793,4723 3807,4745 3828,4758 3820,4771 3799,4758 3777,4744"
       id="polygon307" />
    <polygon
       points="3793,4723 3806,4715 3806,4715 3809,4714 3815,4712 3820,4737 3833,4758 3820,4766 3807,4745 3793,4723"
       id="polygon308" />
    <polygon
       points="3815,4712 3831,4709 3831,4709 3834,4709 3840,4709 3836,4734 3840,4758 3824,4761 3820,4737 3815,4712"
       id="polygon309" />
    <polygon
       points="3840,4709 3855,4712 3855,4712 3858,4713 3864,4715 3851,4737 3846,4761 3831,4758 3836,4734 3840,4709"
       id="polygon310" />
    <polygon
       points="3864,4715 3877,4723 3877,4723 3880,4726 3885,4731 3864,4745 3850,4766 3837,4758 3851,4737 3864,4715"
       id="polygon311" />
    <polygon
       points="3885,4731 3893,4744 3893,4744 3896,4751 3872,4758 3850,4771 3842,4758 3864,4745 3885,4731"
       id="polygon312" />
    <polygon
       points="3896,4751 3900,4767 3900,4767 3900,4772 3900,4780 3876,4774 3851,4780 3847,4764 3872,4758 3896,4751"
       id="polygon313" />
    <polygon
       points="3900,4780 3896,4795 3896,4795 3893,4802 3872,4789 3847,4782 3851,4767 3876,4774 3900,4780"
       id="polygon314" />
    <polygon
       points="3893,4802 3885,4815 3885,4815 3882,4818 3877,4823 3864,4802 3842,4788 3850,4775 3872,4789 3893,4802"
       id="polygon315" />
    <polygon
       points="3877,4823 3864,4831 3864,4831 3857,4834 3851,4810 3837,4788 3850,4780 3864,4802 3877,4823"
       id="polygon316" />
    <polygon
       points="3857,4834 3842,4838 3842,4838 3838,4838 3829,4838 3836,4814 3829,4789 3844,4785 3851,4810 3857,4834"
       id="polygon317" />
    <polygon
       points="4636,1999 4236,1999 4236,1999 4232,1998 4228,1997 4224,1996 4221,1994 4218,1991 4215,1988 4213,1985 4212,1981 4211,1974 4236,1974 4236,1949 4636,1949 4636,1974 4636,1999"
       id="polygon318" />
    <polygon
       points="4211,1974 4211,1174 4211,1174 4211,1170 4212,1166 4213,1162 4215,1159 4218,1156 4221,1153 4224,1151 4228,1150 4236,1149 4236,1174 4261,1174 4261,1974 4236,1974 4211,1974"
       id="polygon319" />
    <polygon
       points="4236,1149 5036,1149 5036,1149 5039,1149 5043,1150 5047,1151 5050,1153 5053,1156 5056,1159 5058,1162 5059,1166 5061,1174 5036,1174 5036,1199 4236,1199 4236,1174 4236,1149"
       id="polygon320" />
    <polygon
       points="5061,1174 5061,1974 5061,1974 5060,1977 5059,1981 5058,1985 5056,1988 5053,1991 5050,1994 5047,1996 5043,1997 5036,1999 5036,1974 5011,1974 5011,1174 5036,1174 5061,1174"
       id="polygon321" />
    <polygon
       points="5036,1974 5036,1999 4636,1999 4636,1974 4636,1949 5036,1949 5036,1974"
       id="polygon322" />
    <polygon
       points="4629,1638 4613,1634 4613,1634 4606,1631 4620,1610 4626,1585 4642,1589 4636,1614 4629,1638"
       id="polygon323" />
    <polygon
       points="4606,1631 4593,1623 4593,1623 4590,1620 4585,1615 4607,1602 4620,1580 4633,1588 4620,1610 4606,1631"
       id="polygon324" />
    <polygon
       points="4585,1615 4577,1602 4577,1602 4576,1599 4574,1593 4599,1589 4620,1575 4628,1588 4607,1602 4585,1615"
       id="polygon325" />
    <polygon
       points="4574,1593 4571,1578 4571,1578 4571,1575 4571,1569 4596,1574 4620,1569 4623,1584 4599,1589 4574,1593"
       id="polygon326" />
    <polygon
       points="4571,1569 4574,1553 4574,1553 4575,1550 4577,1544 4599,1558 4623,1562 4620,1578 4596,1574 4571,1569"
       id="polygon327" />
    <polygon
       points="4577,1544 4585,1531 4585,1531 4588,1528 4593,1523 4607,1545 4628,1558 4620,1571 4599,1558 4577,1544"
       id="polygon328" />
    <polygon
       points="4593,1523 4606,1515 4606,1515 4609,1514 4615,1512 4620,1537 4633,1558 4620,1566 4607,1545 4593,1523"
       id="polygon329" />
    <polygon
       points="4615,1512 4631,1509 4631,1509 4634,1509 4640,1509 4636,1534 4640,1558 4624,1561 4620,1537 4615,1512"
       id="polygon330" />
    <polygon
       points="4640,1509 4655,1512 4655,1512 4658,1513 4664,1515 4651,1537 4646,1561 4631,1558 4636,1534 4640,1509"
       id="polygon331" />
    <polygon
       points="4664,1515 4677,1523 4677,1523 4680,1526 4685,1531 4664,1545 4650,1566 4637,1558 4651,1537 4664,1515"
       id="polygon332" />
    <polygon
       points="4685,1531 4693,1544 4693,1544 4696,1551 4672,1558 4650,1571 4642,1558 4664,1545 4685,1531"
       id="polygon333" />
    <polygon
       points="4696,1551 4700,1567 4700,1567 4700,1572 4700,1580 4676,1574 4651,1580 4647,1564 4672,1558 4696,1551"
       id="polygon334" />
    <polygon
       points="4700,1580 4696,1595 4696,1595 4693,1602 4672,1589 4647,1582 4651,1567 4676,1574 4700,1580"
       id="polygon335" />
    <polygon
       points="4693,1602 4685,1615 4685,1615 4682,1618 4677,1623 4664,1602 4642,1588 4650,1575 4672,1589 4693,1602"
       id="polygon336" />
    <polygon
       points="4677,1623 4664,1631 4664,1631 4657,1634 4651,1610 4637,1588 4650,1580 4664,1602 4677,1623"
       id="polygon337" />
    <polygon
       points="4657,1634 4642,1638 4642,1638 4638,1638 4629,1638 4636,1614 4629,1589 4644,1585 4651,1610 4657,1634"
       id="polygon338" />
    <polygon
       points="4636,2799 4236,2799 4236,2799 4232,2798 4228,2797 4224,2796 4221,2794 4218,2791 4215,2788 4213,2785 4212,2781 4211,2774 4236,2774 4236,2749 4636,2749 4636,2774 4636,2799"
       id="polygon339" />
    <polygon
       points="4211,2774 4211,1974 4211,1974 4211,1970 4212,1966 4213,1962 4215,1959 4218,1956 4221,1953 4224,1951 4228,1950 4236,1949 4236,1974 4261,1974 4261,2774 4236,2774 4211,2774"
       id="polygon340" />
    <polygon
       points="4236,1949 5036,1949 5036,1949 5039,1949 5043,1950 5047,1951 5050,1953 5053,1956 5056,1959 5058,1962 5059,1966 5061,1974 5036,1974 5036,1999 4236,1999 4236,1974 4236,1949"
       id="polygon341" />
    <polygon
       points="5061,1974 5061,2774 5061,2774 5060,2777 5059,2781 5058,2785 5056,2788 5053,2791 5050,2794 5047,2796 5043,2797 5036,2799 5036,2774 5011,2774 5011,1974 5036,1974 5061,1974"
       id="polygon342" />
    <polygon
       points="5036,2774 5036,2799 4636,2799 4636,2774 4636,2749 5036,2749 5036,2774"
       id="polygon343" />
    <polygon
       points="4629,2438 4613,2434 4613,2434 4606,2431 4620,2410 4626,2385 4642,2389 4636,2414 4629,2438"
       id="polygon344" />
    <polygon
       points="4606,2431 4593,2423 4593,2423 4590,2420 4585,2415 4607,2402 4620,2380 4633,2388 4620,2410 4606,2431"
       id="polygon345" />
    <polygon
       points="4585,2415 4577,2402 4577,2402 4576,2399 4574,2393 4599,2389 4620,2375 4628,2388 4607,2402 4585,2415"
       id="polygon346" />
    <polygon
       points="4574,2393 4571,2378 4571,2378 4571,2375 4571,2369 4596,2374 4620,2369 4623,2384 4599,2389 4574,2393"
       id="polygon347" />
    <polygon
       points="4571,2369 4574,2353 4574,2353 4575,2350 4577,2344 4599,2358 4623,2362 4620,2378 4596,2374 4571,2369"
       id="polygon348" />
    <polygon
       points="4577,2344 4585,2331 4585,2331 4588,2328 4593,2323 4607,2345 4628,2358 4620,2371 4599,2358 4577,2344"
       id="polygon349" />
    <polygon
       points="4593,2323 4606,2315 4606,2315 4609,2314 4615,2312 4620,2337 4633,2358 4620,2366 4607,2345 4593,2323"
       id="polygon350" />
    <polygon
       points="4615,2312 4631,2309 4631,2309 4634,2309 4640,2309 4636,2334 4640,2358 4624,2361 4620,2337 4615,2312"
       id="polygon351" />
    <polygon
       points="4640,2309 4655,2312 4655,2312 4658,2313 4664,2315 4651,2337 4646,2361 4631,2358 4636,2334 4640,2309"
       id="polygon352" />
    <polygon
       points="4664,2315 4677,2323 4677,2323 4680,2326 4685,2331 4664,2345 4650,2366 4637,2358 4651,2337 4664,2315"
       id="polygon353" />
    <polygon
       points="4685,2331 4693,2344 4693,2344 4696,2351 4672,2358 4650,2371 4642,2358 4664,2345 4685,2331"
       id="polygon354" />
    <polygon
       points="4696,2351 4700,2367 4700,2367 4700,2372 4700,2380 4676,2374 4651,2380 4647,2364 4672,2358 4696,2351"
       id="polygon355" />
    <polygon
       points="4700,2380 4696,2395 4696,2395 4693,2402 4672,2389 4647,2382 4651,2367 4676,2374 4700,2380"
       id="polygon356" />
    <polygon
       points="4693,2402 4685,2415 4685,2415 4682,2418 4677,2423 4664,2402 4642,2388 4650,2375 4672,2389 4693,2402"
       id="polygon357" />
    <polygon
       points="4677,2423 4664,2431 4664,2431 4657,2434 4651,2410 4637,2388 4650,2380 4664,2402 4677,2423"
       id="polygon358" />
    <polygon
       points="4657,2434 4642,2438 4642,2438 4638,2438 4629,2438 4636,2414 4629,2389 4644,2385 4651,2410 4657,2434"
       id="polygon359" />
    <polygon
       points="4636,3599 4236,3599 4236,3599 4232,3598 4228,3597 4224,3596 4221,3594 4218,3591 4215,3588 4213,3585 4212,3581 4211,3574 4236,3574 4236,3549 4636,3549 4636,3574 4636,3599"
       id="polygon360" />
    <polygon
       points="4211,3574 4211,2774 4211,2774 4211,2770 4212,2766 4213,2762 4215,2759 4218,2756 4221,2753 4224,2751 4228,2750 4236,2749 4236,2774 4261,2774 4261,3574 4236,3574 4211,3574"
       id="polygon361" />
    <polygon
       points="4236,2749 5036,2749 5036,2749 5039,2749 5043,2750 5047,2751 5050,2753 5053,2756 5056,2759 5058,2762 5059,2766 5061,2774 5036,2774 5036,2799 4236,2799 4236,2774 4236,2749"
       id="polygon362" />
    <polygon
       points="5061,2774 5061,3574 5061,3574 5060,3577 5059,3581 5058,3585 5056,3588 5053,3591 5050,3594 5047,3596 5043,3597 5036,3599 5036,3574 5011,3574 5011,2774 5036,2774 5061,2774"
       id="polygon363" />
    <polygon
       points="5036,3574 5036,3599 4636,3599 4636,3574 4636,3549 5036,3549 5036,3574"
       id="polygon364" />
    <polygon
       points="4629,3238 4613,3234 4613,3234 4606,3231 4620,3210 4626,3185 4642,3189 4636,3214 4629,3238"
       id="polygon365" />
    <polygon
       points="4606,3231 4593,3223 4593,3223 4590,3220 4585,3215 4607,3202 4620,3180 4633,3188 4620,3210 4606,3231"
       id="polygon366" />
    <polygon
       points="4585,3215 4577,3202 4577,3202 4576,3199 4574,3193 4599,3189 4620,3175 4628,3188 4607,3202 4585,3215"
       id="polygon367" />
    <polygon
       points="4574,3193 4571,3178 4571,3178 4571,3175 4571,3169 4596,3174 4620,3169 4623,3184 4599,3189 4574,3193"
       id="polygon368" />
    <polygon
       points="4571,3169 4574,3153 4574,3153 4575,3150 4577,3144 4599,3158 4623,3162 4620,3178 4596,3174 4571,3169"
       id="polygon369" />
    <polygon
       points="4577,3144 4585,3131 4585,3131 4588,3128 4593,3123 4607,3145 4628,3158 4620,3171 4599,3158 4577,3144"
       id="polygon370" />
    <polygon
       points="4593,3123 4606,3115 4606,3115 4609,3114 4615,3112 4620,3137 4633,3158 4620,3166 4607,3145 4593,3123"
       id="polygon371" />
    <polygon
       points="4615,3112 4631,3109 4631,3109 4634,3109 4640,3109 4636,3134 4640,3158 4624,3161 4620,3137 4615,3112"
       id="polygon372" />
    <polygon
       points="4640,3109 4655,3112 4655,3112 4658,3113 4664,3115 4651,3137 4646,3161 4631,3158 4636,3134 4640,3109"
       id="polygon373" />
    <polygon
       points="4664,3115 4677,3123 4677,3123 4680,3126 4685,3131 4664,3145 4650,3166 4637,3158 4651,3137 4664,3115"
       id="polygon374" />
    <polygon
       points="4685,3131 4693,3144 4693,3144 4696,3151 4672,3158 4650,3171 4642,3158 4664,3145 4685,3131"
       id="polygon375" />
    <polygon
       points="4696,3151 4700,3167 4700,3167 4700,3172 4700,3180 4676,3174 4651,3180 4647,3164 4672,3158 4696,3151"
       id="polygon376" />
    <polygon
       points="4700,3180 4696,3195 4696,3195 4693,3202 4672,3189 4647,3182 4651,3167 4676,3174 4700,3180"
       id="polygon377" />
    <polygon
       points="4693,3202 4685,3215 4685,3215 4682,3218 4677,3223 4664,3202 4642,3188 4650,3175 4672,3189 4693,3202"
       id="polygon378" />
    <polygon
       points="4677,3223 4664,3231 4664,3231 4657,3234 4651,3210 4637,3188 4650,3180 4664,3202 4677,3223"
       id="polygon379" />
    <polygon
       points="4657,3234 4642,3238 4642,3238 4638,3238 4629,3238 4636,3214 4629,3189 4644,3185 4651,3210 4657,3234"
       id="polygon380" />
    <polygon
       points="4636,4399 4236,4399 4236,4399 4232,4398 4228,4397 4224,4396 4221,4394 4218,4391 4215,4388 4213,4385 4212,4381 4211,4374 4236,4374 4236,4349 4636,4349 4636,4374 4636,4399"
       id="polygon381" />
    <polygon
       points="4211,4374 4211,3574 4211,3574 4211,3570 4212,3566 4213,3562 4215,3559 4218,3556 4221,3553 4224,3551 4228,3550 4236,3549 4236,3574 4261,3574 4261,4374 4236,4374 4211,4374"
       id="polygon382" />
    <polygon
       points="4236,3549 5036,3549 5036,3549 5039,3549 5043,3550 5047,3551 5050,3553 5053,3556 5056,3559 5058,3562 5059,3566 5061,3574 5036,3574 5036,3599 4236,3599 4236,3574 4236,3549"
       id="polygon383" />
    <polygon
       points="5061,3574 5061,4374 5061,4374 5060,4377 5059,4381 5058,4385 5056,4388 5053,4391 5050,4394 5047,4396 5043,4397 5036,4399 5036,4374 5011,4374 5011,3574 5036,3574 5061,3574"
       id="polygon384" />
    <polygon
       points="5036,4374 5036,4399 4636,4399 4636,4374 4636,4349 5036,4349 5036,4374"
       id="polygon385" />
    <polygon
       points="4629,4038 4613,4034 4613,4034 4606,4031 4620,4010 4626,3985 4642,3989 4636,4014 4629,4038"
       id="polygon386" />
    <polygon
       points="4606,4031 4593,4023 4593,4023 4590,4020 4585,4015 4607,4002 4620,3980 4633,3988 4620,4010 4606,4031"
       id="polygon387" />
    <polygon
       points="4585,4015 4577,4002 4577,4002 4576,3999 4574,3993 4599,3989 4620,3975 4628,3988 4607,4002 4585,4015"
       id="polygon388" />
    <polygon
       points="4574,3993 4571,3978 4571,3978 4571,3975 4571,3969 4596,3974 4620,3969 4623,3984 4599,3989 4574,3993"
       id="polygon389" />
    <polygon
       points="4571,3969 4574,3953 4574,3953 4575,3950 4577,3944 4599,3958 4623,3962 4620,3978 4596,3974 4571,3969"
       id="polygon390" />
    <polygon
       points="4577,3944 4585,3931 4585,3931 4588,3928 4593,3923 4607,3945 4628,3958 4620,3971 4599,3958 4577,3944"
       id="polygon391" />
    <polygon
       points="4593,3923 4606,3915 4606,3915 4609,3914 4615,3912 4620,3937 4633,3958 4620,3966 4607,3945 4593,3923"
       id="polygon392" />
    <polygon
       points="4615,3912 4631,3909 4631,3909 4634,3909 4640,3909 4636,3934 4640,3958 4624,3961 4620,3937 4615,3912"
       id="polygon393" />
    <polygon
       points="4640,3909 4655,3912 4655,3912 4658,3913 4664,3915 4651,3937 4646,3961 4631,3958 4636,3934 4640,3909"
       id="polygon394" />
    <polygon
       points="4664,3915 4677,3923 4677,3923 4680,3926 4685,3931 4664,3945 4650,3966 4637,3958 4651,3937 4664,3915"
       id="polygon395" />
    <polygon
       points="4685,3931 4693,3944 4693,3944 4696,3951 4672,3958 4650,3971 4642,3958 4664,3945 4685,3931"
       id="polygon396" />
    <polygon
       points="4696,3951 4700,3967 4700,3967 4700,3972 4700,3980 4676,3974 4651,3980 4647,3964 4672,3958 4696,3951"
       id="polygon397" />
    <polygon
       points="4700,3980 4696,3995 4696,3995 4693,4002 4672,3989 4647,3982 4651,3967 4676,3974 4700,3980"
       id="polygon398" />
    <polygon
       points="4693,4002 4685,4015 4685,4015 4682,4018 4677,4023 4664,4002 4642,3988 4650,3975 4672,3989 4693,4002"
       id="polygon399" />
    <polygon
       points="4677,4023 4664,4031 4664,4031 4657,4034 4651,4010 4637,3988 4650,3980 4664,4002 4677,4023"
       id="polygon400" />
    <polygon
       points="4657,4034 4642,4038 4642,4038 4638,4038 4629,4038 4636,4014 4629,3989 4644,3985 4651,4010 4657,4034"
       id="polygon401" />
    <polygon
       points="4636,5199 4236,5199 4236,5199 4232,5198 4228,5197 4224,5196 4221,5194 4218,5191 4215,5188 4213,5185 4212,5181 4211,5174 4236,5174 4236,5149 4636,5149 4636,5174 4636,5199"
       id="polygon402" />
    <polygon
       points="4211,5174 4211,4374 4211,4374 4211,4370 4212,4366 4213,4362 4215,4359 4218,4356 4221,4353 4224,4351 4228,4350 4236,4349 4236,4374 4261,4374 4261,5174 4236,5174 4211,5174"
       id="polygon403" />
    <polygon
       points="4236,4349 5036,4349 5036,4349 5039,4349 5043,4350 5047,4351 5050,4353 5053,4356 5056,4359 5058,4362 5059,4366 5061,4374 5036,4374 5036,4399 4236,4399 4236,4374 4236,4349"
       id="polygon404" />
    <polygon
       points="5061,4374 5061,5174 5061,5174 5060,5177 5059,5181 5058,5185 5056,5188 5053,5191 5050,5194 5047,5196 5043,5197 5036,5199 5036,5174 5011,5174 5011,4374 5036,4374 5061,4374"
       id="polygon405" />
    <polygon
       points="5036,5174 5036,5199 4636,5199 4636,5174 4636,5149 5036,5149 5036,5174"
       id="polygon406" />
    <polygon
       points="4629,4838 4613,4834 4613,4834 4606,4831 4620,4810 4626,4785 4642,4789 4636,4814 4629,4838"
       id="polygon407" />
    <polygon
       points="4606,4831 4593,4823 4593,4823 4590,4820 4585,4815 4607,4802 4620,4780 4633,4788 4620,4810 4606,4831"
       id="polygon408" />
    <polygon
       points="4585,4815 4577,4802 4577,4802 4576,4799 4574,4793 4599,4789 4620,4775 4628,4788 4607,4802 4585,4815"
       id="polygon409" />
    <polygon
       points="4574,4793 4571,4778 4571,4778 4571,4775 4571,4769 4596,4774 4620,4769 4623,4784 4599,4789 4574,4793"
       id="polygon410" />
    <polygon
       points="4571,4769 4574,4753 4574,4753 4575,4750 4577,4744 4599,4758 4623,4762 4620,4778 4596,4774 4571,4769"
       id="polygon411" />
    <polygon
       points="4577,4744 4585,4731 4585,4731 4588,4728 4593,4723 4607,4745 4628,4758 4620,4771 4599,4758 4577,4744"
       id="polygon412" />
    <polygon
       points="4593,4723 4606,4715 4606,4715 4609,4714 4615,4712 4620,4737 4633,4758 4620,4766 4607,4745 4593,4723"
       id="polygon413" />
    <polygon
       points="4615,4712 4631,4709 4631,4709 4634,4709 4640,4709 4636,4734 4640,4758 4624,4761 4620,4737 4615,4712"
       id="polygon414" />
    <polygon
       points="4640,4709 4655,4712 4655,4712 4658,4713 4664,4715 4651,4737 4646,4761 4631,4758 4636,4734 4640,4709"
       id="polygon415" />
    <polygon
       points="4664,4715 4677,4723 4677,4723 4680,4726 4685,4731 4664,4745 4650,4766 4637,4758 4651,4737 4664,4715"
       id="polygon416" />
    <polygon
       points="4685,4731 4693,4744 4693,4744 4696,4751 4672,4758 4650,4771 4642,4758 4664,4745 4685,4731"
       id="polygon417" />
    <polygon
       points="4696,4751 4700,4767 4700,4767 4700,4772 4700,4780 4676,4774 4651,4780 4647,4764 4672,4758 4696,4751"
       id="polygon418" />
    <polygon
       points="4700,4780 4696,4795 4696,4795 4693,4802 4672,4789 4647,4782 4651,4767 4676,4774 4700,4780"
       id="polygon419" />
    <polygon
       points="4693,4802 4685,4815 4685,4815 4682,4818 4677,4823 4664,4802 4642,4788 4650,4775 4672,4789 4693,4802"
       id="polygon420" />
    <polygon
       points="4677,4823 4664,4831 4664,4831 4657,4834 4651,4810 4637,4788 4650,4780 4664,4802 4677,4823"
       id="polygon421" />
    <polygon
       points="4657,4834 4642,4838 4642,4838 4638,4838 4629,4838 4636,4814 4629,4789 4644,4785 4651,4810 4657,4834"
       id="polygon422" />
    <polygon
       points="5436,1999 5036,1999 5036,1999 5032,1998 5028,1997 5024,1996 5021,1994 5018,1991 5015,1988 5013,1985 5012,1981 5011,1974 5036,1974 5036,1949 5436,1949 5436,1974 5436,1999"
       id="polygon423" />
    <polygon
       points="5011,1974 5011,1174 5011,1174 5011,1170 5012,1166 5013,1162 5015,1159 5018,1156 5021,1153 5024,1151 5028,1150 5036,1149 5036,1174 5061,1174 5061,1974 5036,1974 5011,1974"
       id="polygon424" />
    <polygon
       points="5036,1149 5836,1149 5836,1149 5839,1149 5843,1150 5847,1151 5850,1153 5853,1156 5856,1159 5858,1162 5859,1166 5861,1174 5836,1174 5836,1199 5036,1199 5036,1174 5036,1149"
       id="polygon425" />
    <polygon
       points="5861,1174 5861,1974 5861,1974 5860,1977 5859,1981 5858,1985 5856,1988 5853,1991 5850,1994 5847,1996 5843,1997 5836,1999 5836,1974 5811,1974 5811,1174 5836,1174 5861,1174"
       id="polygon426" />
    <polygon
       points="5836,1974 5836,1999 5436,1999 5436,1974 5436,1949 5836,1949 5836,1974"
       id="polygon427" />
    <polygon
       points="5429,1638 5413,1634 5413,1634 5406,1631 5420,1610 5426,1585 5442,1589 5436,1614 5429,1638"
       id="polygon428" />
    <polygon
       points="5406,1631 5393,1623 5393,1623 5390,1620 5385,1615 5407,1602 5420,1580 5433,1588 5420,1610 5406,1631"
       id="polygon429" />
    <polygon
       points="5385,1615 5377,1602 5377,1602 5376,1599 5374,1593 5399,1589 5420,1575 5428,1588 5407,1602 5385,1615"
       id="polygon430" />
    <polygon
       points="5374,1593 5371,1578 5371,1578 5371,1575 5371,1569 5396,1574 5420,1569 5423,1584 5399,1589 5374,1593"
       id="polygon431" />
    <polygon
       points="5371,1569 5374,1553 5374,1553 5375,1550 5377,1544 5399,1558 5423,1562 5420,1578 5396,1574 5371,1569"
       id="polygon432" />
    <polygon
       points="5377,1544 5385,1531 5385,1531 5388,1528 5393,1523 5407,1545 5428,1558 5420,1571 5399,1558 5377,1544"
       id="polygon433" />
    <polygon
       points="5393,1523 5406,1515 5406,1515 5409,1514 5415,1512 5420,1537 5433,1558 5420,1566 5407,1545 5393,1523"
       id="polygon434" />
    <polygon
       points="5415,1512 5431,1509 5431,1509 5434,1509 5440,1509 5436,1534 5440,1558 5424,1561 5420,1537 5415,1512"
       id="polygon435" />
    <polygon
       points="5440,1509 5455,1512 5455,1512 5458,1513 5464,1515 5451,1537 5446,1561 5431,1558 5436,1534 5440,1509"
       id="polygon436" />
    <polygon
       points="5464,1515 5477,1523 5477,1523 5480,1526 5485,1531 5464,1545 5450,1566 5437,1558 5451,1537 5464,1515"
       id="polygon437" />
    <polygon
       points="5485,1531 5493,1544 5493,1544 5496,1551 5472,1558 5450,1571 5442,1558 5464,1545 5485,1531"
       id="polygon438" />
    <polygon
       points="5496,1551 5500,1567 5500,1567 5500,1572 5500,1580 5476,1574 5451,1580 5447,1564 5472,1558 5496,1551"
       id="polygon439" />
    <polygon
       points="5500,1580 5496,1595 5496,1595 5493,1602 5472,1589 5447,1582 5451,1567 5476,1574 5500,1580"
       id="polygon440" />
    <polygon
       points="5493,1602 5485,1615 5485,1615 5482,1618 5477,1623 5464,1602 5442,1588 5450,1575 5472,1589 5493,1602"
       id="polygon441" />
    <polygon
       points="5477,1623 5464,1631 5464,1631 5457,1634 5451,1610 5437,1588 5450,1580 5464,1602 5477,1623"
       id="polygon442" />
    <polygon
       points="5457,1634 5442,1638 5442,1638 5438,1638 5429,1638 5436,1614 5429,1589 5444,1585 5451,1610 5457,1634"
       id="polygon443" />
    <polygon
       points="5436,2799 5036,2799 5036,2799 5032,2798 5028,2797 5024,2796 5021,2794 5018,2791 5015,2788 5013,2785 5012,2781 5011,2774 5036,2774 5036,2749 5436,2749 5436,2774 5436,2799"
       id="polygon444" />
    <polygon
       points="5011,2774 5011,1974 5011,1974 5011,1970 5012,1966 5013,1962 5015,1959 5018,1956 5021,1953 5024,1951 5028,1950 5036,1949 5036,1974 5061,1974 5061,2774 5036,2774 5011,2774"
       id="polygon445" />
    <polygon
       points="5036,1949 5836,1949 5836,1949 5839,1949 5843,1950 5847,1951 5850,1953 5853,1956 5856,1959 5858,1962 5859,1966 5861,1974 5836,1974 5836,1999 5036,1999 5036,1974 5036,1949"
       id="polygon446" />
    <polygon
       points="5861,1974 5861,2774 5861,2774 5860,2777 5859,2781 5858,2785 5856,2788 5853,2791 5850,2794 5847,2796 5843,2797 5836,2799 5836,2774 5811,2774 5811,1974 5836,1974 5861,1974"
       id="polygon447" />
    <polygon
       points="5836,2774 5836,2799 5436,2799 5436,2774 5436,2749 5836,2749 5836,2774"
       id="polygon448" />
    <polygon
       points="5429,2438 5413,2434 5413,2434 5406,2431 5420,2410 5426,2385 5442,2389 5436,2414 5429,2438"
       id="polygon449" />
    <polygon
       points="5406,2431 5393,2423 5393,2423 5390,2420 5385,2415 5407,2402 5420,2380 5433,2388 5420,2410 5406,2431"
       id="polygon450" />
    <polygon
       points="5385,2415 5377,2402 5377,2402 5376,2399 5374,2393 5399,2389 5420,2375 5428,2388 5407,2402 5385,2415"
       id="polygon451" />
    <polygon
       points="5374,2393 5371,2378 5371,2378 5371,2375 5371,2369 5396,2374 5420,2369 5423,2384 5399,2389 5374,2393"
       id="polygon452" />
    <polygon
       points="5371,2369 5374,2353 5374,2353 5375,2350 5377,2344 5399,2358 5423,2362 5420,2378 5396,2374 5371,2369"
       id="polygon453" />
    <polygon
       points="5377,2344 5385,2331 5385,2331 5388,2328 5393,2323 5407,2345 5428,2358 5420,2371 5399,2358 5377,2344"
       id="polygon454" />
    <polygon
       points="5393,2323 5406,2315 5406,2315 5409,2314 5415,2312 5420,2337 5433,2358 5420,2366 5407,2345 5393,2323"
       id="polygon455" />
    <polygon
       points="5415,2312 5431,2309 5431,2309 5434,2309 5440,2309 5436,2334 5440,2358 5424,2361 5420,2337 5415,2312"
       id="polygon456" />
    <polygon
       points="5440,2309 5455,2312 5455,2312 5458,2313 5464,2315 5451,2337 5446,2361 5431,2358 5436,2334 5440,2309"
       id="polygon457" />
    <polygon
       points="5464,2315 5477,2323 5477,2323 5480,2326 5485,2331 5464,2345 5450,2366 5437,2358 5451,2337 5464,2315"
       id="polygon458" />
    <polygon
       points="5485,2331 5493,2344 5493,2344 5496,2351 5472,2358 5450,2371 5442,2358 5464,2345 5485,2331"
       id="polygon459" />
    <polygon
       points="5496,2351 5500,2367 5500,2367 5500,2372 5500,2380 5476,2374 5451,2380 5447,2364 5472,2358 5496,2351"
       id="polygon460" />
    <polygon
       points="5500,2380 5496,2395 5496,2395 5493,2402 5472,2389 5447,2382 5451,2367 5476,2374 5500,2380"
       id="polygon461" />
    <polygon
       points="5493,2402 5485,2415 5485,2415 5482,2418 5477,2423 5464,2402 5442,2388 5450,2375 5472,2389 5493,2402"
       id="polygon462" />
    <polygon
       points="5477,2423 5464,2431 5464,2431 5457,2434 5451,2410 5437,2388 5450,2380 5464,2402 5477,2423"
       id="polygon463" />
    <polygon
       points="5457,2434 5442,2438 5442,2438 5438,2438 5429,2438 5436,2414 5429,2389 5444,2385 5451,2410 5457,2434"
       id="polygon464" />
    <polygon
       points="5436,3599 5036,3599 5036,3599 5032,3598 5028,3597 5024,3596 5021,3594 5018,3591 5015,3588 5013,3585 5012,3581 5011,3574 5036,3574 5036,3549 5436,3549 5436,3574 5436,3599"
       id="polygon465" />
    <polygon
       points="5011,3574 5011,2774 5011,2774 5011,2770 5012,2766 5013,2762 5015,2759 5018,2756 5021,2753 5024,2751 5028,2750 5036,2749 5036,2774 5061,2774 5061,3574 5036,3574 5011,3574"
       id="polygon466" />
    <polygon
       points="5036,2749 5836,2749 5836,2749 5839,2749 5843,2750 5847,2751 5850,2753 5853,2756 5856,2759 5858,2762 5859,2766 5861,2774 5836,2774 5836,2799 5036,2799 5036,2774 5036,2749"
       id="polygon467" />
    <polygon
       points="5861,2774 5861,3574 5861,3574 5860,3577 5859,3581 5858,3585 5856,3588 5853,3591 5850,3594 5847,3596 5843,3597 5836,3599 5836,3574 5811,3574 5811,2774 5836,2774 5861,2774"
       id="polygon468" />
    <polygon
       points="5836,3574 5836,3599 5436,3599 5436,3574 5436,3549 5836,3549 5836,3574"
       id="polygon469" />
    <polygon
       points="5429,3238 5413,3234 5413,3234 5406,3231 5420,3210 5426,3185 5442,3189 5436,3214 5429,3238"
       id="polygon470" />
    <polygon
       points="5406,3231 5393,3223 5393,3223 5390,3220 5385,3215 5407,3202 5420,3180 5433,3188 5420,3210 5406,3231"
       id="polygon471" />
    <polygon
       points="5385,3215 5377,3202 5377,3202 5376,3199 5374,3193 5399,3189 5420,3175 5428,3188 5407,3202 5385,3215"
       id="polygon472" />
    <polygon
       points="5374,3193 5371,3178 5371,3178 5371,3175 5371,3169 5396,3174 5420,3169 5423,3184 5399,3189 5374,3193"
       id="polygon473" />
    <polygon
       points="5371,3169 5374,3153 5374,3153 5375,3150 5377,3144 5399,3158 5423,3162 5420,3178 5396,3174 5371,3169"
       id="polygon474" />
    <polygon
       points="5377,3144 5385,3131 5385,3131 5388,3128 5393,3123 5407,3145 5428,3158 5420,3171 5399,3158 5377,3144"
       id="polygon475" />
    <polygon
       points="5393,3123 5406,3115 5406,3115 5409,3114 5415,3112 5420,3137 5433,3158 5420,3166 5407,3145 5393,3123"
       id="polygon476" />
    <polygon
       points="5415,3112 5431,3109 5431,3109 5434,3109 5440,3109 5436,3134 5440,3158 5424,3161 5420,3137 5415,3112"
       id="polygon477" />
    <polygon
       points="5440,3109 5455,3112 5455,3112 5458,3113 5464,3115 5451,3137 5446,3161 5431,3158 5436,3134 5440,3109"
       id="polygon478" />
    <polygon
       points="5464,3115 5477,3123 5477,3123 5480,3126 5485,3131 5464,3145 5450,3166 5437,3158 5451,3137 5464,3115"
       id="polygon479" />
    <polygon
       points="5485,3131 5493,3144 5493,3144 5496,3151 5472,3158 5450,3171 5442,3158 5464,3145 5485,3131"
       id="polygon480" />
    <polygon
       points="5496,3151 5500,3167 5500,3167 5500,3172 5500,3180 5476,3174 5451,3180 5447,3164 5472,3158 5496,3151"
       id="polygon481" />
    <polygon
       points="5500,3180 5496,3195 5496,3195 5493,3202 5472,3189 5447,3182 5451,3167 5476,3174 5500,3180"
       id="polygon482" />
    <polygon
       points="5493,3202 5485,3215 5485,3215 5482,3218 5477,3223 5464,3202 5442,3188 5450,3175 5472,3189 5493,3202"
       id="polygon483" />
    <polygon
       points="5477,3223 5464,3231 5464,3231 5457,3234 5451,3210 5437,3188 5450,3180 5464,3202 5477,3223"
       id="polygon484" />
    <polygon
       points="5457,3234 5442,3238 5442,3238 5438,3238 5429,3238 5436,3214 5429,3189 5444,3185 5451,3210 5457,3234"
       id="polygon485" />
    <polygon
       points="5436,4399 5036,4399 5036,4399 5032,4398 5028,4397 5024,4396 5021,4394 5018,4391 5015,4388 5013,4385 5012,4381 5011,4374 5036,4374 5036,4349 5436,4349 5436,4374 5436,4399"
       id="polygon486" />
    <polygon
       points="5011,4374 5011,3574 5011,3574 5011,3570 5012,3566 5013,3562 5015,3559 5018,3556 5021,3553 5024,3551 5028,3550 5036,3549 5036,3574 5061,3574 5061,4374 5036,4374 5011,4374"
       id="polygon487" />
    <polygon
       points="5036,3549 5836,3549 5836,3549 5839,3549 5843,3550 5847,3551 5850,3553 5853,3556 5856,3559 5858,3562 5859,3566 5861,3574 5836,3574 5836,3599 5036,3599 5036,3574 5036,3549"
       id="polygon488" />
    <polygon
       points="5861,3574 5861,4374 5861,4374 5860,4377 5859,4381 5858,4385 5856,4388 5853,4391 5850,4394 5847,4396 5843,4397 5836,4399 5836,4374 5811,4374 5811,3574 5836,3574 5861,3574"
       id="polygon489" />
    <polygon
       points="5836,4374 5836,4399 5436,4399 5436,4374 5436,4349 5836,4349 5836,4374"
       id="polygon490" />
    <polygon
       points="5429,4038 5413,4034 5413,4034 5406,4031 5420,4010 5426,3985 5442,3989 5436,4014 5429,4038"
       id="polygon491" />
    <polygon
       points="5406,4031 5393,4023 5393,4023 5390,4020 5385,4015 5407,4002 5420,3980 5433,3988 5420,4010 5406,4031"
       id="polygon492" />
    <polygon
       points="5385,4015 5377,4002 5377,4002 5376,3999 5374,3993 5399,3989 5420,3975 5428,3988 5407,4002 5385,4015"
       id="polygon493" />
    <polygon
       points="5374,3993 5371,3978 5371,3978 5371,3975 5371,3969 5396,3974 5420,3969 5423,3984 5399,3989 5374,3993"
       id="polygon494" />
    <polygon
       points="5371,3969 5374,3953 5374,3953 5375,3950 5377,3944 5399,3958 5423,3962 5420,3978 5396,3974 5371,3969"
       id="polygon495" />
    <polygon
       points="5377,3944 5385,3931 5385,3931 5388,3928 5393,3923 5407,3945 5428,3958 5420,3971 5399,3958 5377,3944"
       id="polygon496" />
    <polygon
       points="5393,3923 5406,3915 5406,3915 5409,3914 5415,3912 5420,3937 5433,3958 5420,3966 5407,3945 5393,3923"
       id="polygon497" />
    <polygon
       points="5415,3912 5431,3909 5431,3909 5434,3909 5440,3909 5436,3934 5440,3958 5424,3961 5420,3937 5415,3912"
       id="polygon498" />
    <polygon
       points="5440,3909 5455,3912 5455,3912 5458,3913 5464,3915 5451,3937 5446,3961 5431,3958 5436,3934 5440,3909"
       id="polygon499" />
    <polygon
       points="5464,3915 5477,3923 5477,3923 5480,3926 5485,3931 5464,3945 5450,3966 5437,3958 5451,3937 5464,3915"
       id="polygon500" />
    <polygon
       points="5485,3931 5493,3944 5493,3944 5496,3951 5472,3958 5450,3971 5442,3958 5464,3945 5485,3931"
       id="polygon501" />
    <polygon
       points="5496,3951 5500,3967 5500,3967 5500,3972 5500,3980 5476,3974 5451,3980 5447,3964 5472,3958 5496,3951"
       id="polygon502" />
    <polygon
       points="5500,3980 5496,3995 5496,3995 5493,4002 5472,3989 5447,3982 5451,3967 5476,3974 5500,3980"
       id="polygon503" />
    <polygon
       points="5493,4002 5485,4015 5485,4015 5482,4018 5477,4023 5464,4002 5442,3988 5450,3975 5472,3989 5493,4002"
       id="polygon504" />
    <polygon
       points="5477,4023 5464,4031 5464,4031 5457,4034 5451,4010 5437,3988 5450,3980 5464,4002 5477,4023"
       id="polygon505" />
    <polygon
       points="5457,4034 5442,4038 5442,4038 5438,4038 5429,4038 5436,4014 5429,3989 5444,3985 5451,4010 5457,4034"
       id="polygon506" />
    <polygon
       points="5436,5199 5036,5199 5036,5199 5032,5198 5028,5197 5024,5196 5021,5194 5018,5191 5015,5188 5013,5185 5012,5181 5011,5174 5036,5174 5036,5149 5436,5149 5436,5174 5436,5199"
       id="polygon507" />
    <polygon
       points="5011,5174 5011,4374 5011,4374 5011,4370 5012,4366 5013,4362 5015,4359 5018,4356 5021,4353 5024,4351 5028,4350 5036,4349 5036,4374 5061,4374 5061,5174 5036,5174 5011,5174"
       id="polygon508" />
    <polygon
       points="5036,4349 5836,4349 5836,4349 5839,4349 5843,4350 5847,4351 5850,4353 5853,4356 5856,4359 5858,4362 5859,4366 5861,4374 5836,4374 5836,4399 5036,4399 5036,4374 5036,4349"
       id="polygon509" />
    <polygon
       points="5861,4374 5861,5174 5861,5174 5860,5177 5859,5181 5858,5185 5856,5188 5853,5191 5850,5194 5847,5196 5843,5197 5836,5199 5836,5174 5811,5174 5811,4374 5836,4374 5861,4374"
       id="polygon510" />
    <polygon
       points="5836,5174 5836,5199 5436,5199 5436,5174 5436,5149 5836,5149 5836,5174"
       id="polygon511" />
    <polygon
       points="5429,4838 5413,4834 5413,4834 5406,4831 5420,4810 5426,4785 5442,4789 5436,4814 5429,4838"
       id="polygon512" />
    <polygon
       points="5406,4831 5393,4823 5393,4823 5390,4820 5385,4815 5407,4802 5420,4780 5433,4788 5420,4810 5406,4831"
       id="polygon513" />
    <polygon
       points="5385,4815 5377,4802 5377,4802 5376,4799 5374,4793 5399,4789 5420,4775 5428,4788 5407,4802 5385,4815"
       id="polygon514" />
    <polygon
       points="5374,4793 5371,4778 5371,4778 5371,4775 5371,4769 5396,4774 5420,4769 5423,4784 5399,4789 5374,4793"
       id="polygon515" />
    <polygon
       points="5371,4769 5374,4753 5374,4753 5375,4750 5377,4744 5399,4758 5423,4762 5420,4778 5396,4774 5371,4769"
       id="polygon516" />
    <polygon
       points="5377,4744 5385,4731 5385,4731 5388,4728 5393,4723 5407,4745 5428,4758 5420,4771 5399,4758 5377,4744"
       id="polygon517" />
    <polygon
       points="5393,4723 5406,4715 5406,4715 5409,4714 5415,4712 5420,4737 5433,4758 5420,4766 5407,4745 5393,4723"
       id="polygon518" />
    <polygon
       points="5415,4712 5431,4709 5431,4709 5434,4709 5440,4709 5436,4734 5440,4758 5424,4761 5420,4737 5415,4712"
       id="polygon519" />
    <polygon
       points="5440,4709 5455,4712 5455,4712 5458,4713 5464,4715 5451,4737 5446,4761 5431,4758 5436,4734 5440,4709"
       id="polygon520" />
    <polygon
       points="5464,4715 5477,4723 5477,4723 5480,4726 5485,4731 5464,4745 5450,4766 5437,4758 5451,4737 5464,4715"
       id="polygon521" />
    <polygon
       points="5485,4731 5493,4744 5493,4744 5496,4751 5472,4758 5450,4771 5442,4758 5464,4745 5485,4731"
       id="polygon522" />
    <polygon
       points="5496,4751 5500,4767 5500,4767 5500,4772 5500,4780 5476,4774 5451,4780 5447,4764 5472,4758 5496,4751"
       id="polygon523" />
    <polygon
       points="5500,4780 5496,4795 5496,4795 5493,4802 5472,4789 5447,4782 5451,4767 5476,4774 5500,4780"
       id="polygon524" />
    <polygon
       points="5493,4802 5485,4815 5485,4815 5482,4818 5477,4823 5464,4802 5442,4788 5450,4775 5472,4789 5493,4802"
       id="polygon525" />
    <polygon
       points="5477,4823 5464,4831 5464,4831 5457,4834 5451,4810 5437,4788 5450,4780 5464,4802 5477,4823"
       id="polygon526" />
    <polygon
       points="5457,4834 5442,4838 5442,4838 5438,4838 5429,4838 5436,4814 5429,4789 5444,4785 5451,4810 5457,4834"
       id="polygon527" />
    <g
       style="opacity:0.60000002;fill:#ff9966;"
       id="g528">
      <polygon
         points="5836.0000,3174.0000 5833.0000,3113.0000 5826.0000,3053.0000 5813.0000,2992.0000 5795.0000,2932.0000 5772.0000,2873.0000 5744.0000,2815.0000 5712.0000,2757.0000 5674.0000,2701.0000 5632.0000,2646.0000 5585.0000,2592.0000 5533.0000,2539.0000 5478.0000,2488.0000 5418.0000,2439.0000 5354.0000,2392.0000 5286.0000,2347.0000 5214.0000,2304.0000 5139.0000,2263.0000 5060.0000,2225.0000 4979.0000,2189.0000 4894.0000,2156.0000 4807.0000,2125.0000 4717.0000,2097.0000 4625.0000,2071.0000 4531.0000,2049.0000 4435.0000,2029.0000 4337.0000,2012.0000 4239.0000,1999.0000 4139.0000,1988.0000 4038.0000,1980.0000 3937.0000,1976.0000 3836.0000,1974.0000 3836.0000,1974.0000 3735.0000,1976.0000 3634.0000,1980.0000 3533.0000,1988.0000 3433.0000,1999.0000 3335.0000,2012.0000 3237.0000,2029.0000 3141.0000,2049.0000 3047.0000,2071.0000 2955.0000,2097.0000 2865.0000,2125.0000 2778.0000,2156.0000 2693.0000,2189.0000 2612.0000,2225.0000 2533.0000,2263.0000 2458.0000,2304.0000 2386.0000,2347.0000 2318.0000,2392.0000 2254.0000,2439.0000 2194.0000,2488.0000 2139.0000,2539.0000 2087.0000,2592.0000 2040.0000,2646.0000 1998.0000,2701.0000 1960.0000,2757.0000 1928.0000,2815.0000 1900.0000,2873.0000 1877.0000,2932.0000 1859.0000,2992.0000 1846.0000,3053.0000 1839.0000,3113.0000 1836.0000,3174.0000 1836.0000,3174.0000 1839.0000,3235.0000 1846.0000,3295.0000 1859.0000,3356.0000 1877.0000,3416.0000 1900.0000,3475.0000 1928.0000,3533.0000 1960.0000,3591.0000 1998.0000,3647.0000 2040.0000,3702.0000 2087.0000,3756.0000 2139.0000,3809.0000 2194.0000,3860.0000 2254.0000,3909.0000 2318.0000,3956.0000 2386.0000,4001.0000 2458.0000,4044.0000 2533.0000,4085.0000 2612.0000,4123.0000 2693.0000,4159.0000 2778.0000,4192.0000 2865.0000,4223.0000 2955.0000,4251.0000 3047.0000,4277.0000 3141.0000,4299.0000 3237.0000,4319.0000 3335.0000,4336.0000 3433.0000,4349.0000 3533.0000,4360.0000 3634.0000,4368.0000 3735.0000,4372.0000 3836.0000,4374.0000 3836.0000,4374.0000 3937.0000,4372.0000 4038.0000,4368.0000 4139.0000,4360.0000 4239.0000,4349.0000 4337.0000,4336.0000 4435.0000,4319.0000 4531.0000,4299.0000 4625.0000,4277.0000 4717.0000,4251.0000 4807.0000,4223.0000 4894.0000,4192.0000 4979.0000,4159.0000 5060.0000,4123.0000 5139.0000,4085.0000 5214.0000,4044.0000 5286.0000,4001.0000 5354.0000,3956.0000 5418.0000,3909.0000 5478.0000,3860.0000 5533.0000,3809.0000 5585.0000,3756.0000 5632.0000,3702.0000 5674.0000,3647.0000 5712.0000,3591.0000 5744.0000,3533.0000 5772.0000,3475.0000 5795.0000,3416.0000 5813.0000,3356.0000 5826.0000,3295.0000 5833.0000,3235.0000 5836.0000,3174.0000 "
         id="polygon529" />
    </g>
  </g>
  <g
     style="stroke:none;fill:rgb(0,0,0)"
     id="g530">
    <polygon
       points="1836,674 2136,773 2135,573 1836,674"
       id="polygon531" />
    <polygon
       points="5836,674 5535,574 5536,774 5836,674"
       id="polygon532" />
  </g>
  <g
     style="stroke:rgb(0,0,0);fill:none"
     id="g533">
    <polyline
       points="2076,674 5596,674"
       style="fill:none"
       id="polyline534" />
    <polyline
       points="1836,3074 1836,474"
       style="fill:none"
       id="polyline535" />
    <polyline
       points="5836,3074 5836,474"
       style="fill:none"
       id="polyline536" />
  </g>
  <g
     style="font-family:Arial;font-size:423;font-weight:400"
     id="g537">
    <g
       style="stroke:none;fill:rgb(0,0,0)"
       id="g538">
      <text
         x="3360"
         y="385"
         id="text539">width
   </text>
      <polygon
         points="1336,4374 1435,4073 1235,4074 1336,4374"
         id="polygon541" />
      <polygon
         points="1336,1974 1236,2274 1436,2273 1336,1974"
         id="polygon542" />
    </g>
    <g
       style="stroke:rgb(0,0,0);fill:none"
       id="g543">
      <polyline
         points="1336,4134 1336,2214"
         style="fill:none"
         id="polyline544" />
      <polyline
         points="3736,4374 1136,4374"
         style="fill:none"
         id="polyline545" />
      <polyline
         points="3736,1974 1136,1974"
         style="fill:none"
         id="polyline546" />
    </g>
    <g
       style="stroke:none;fill:rgb(0,0,0)"
       id="g547">
      <text
         x="0"
         y="3322"
         id="text548">height
   </text>
    </g>
    <g
       style="stroke:none;fill:rgb(255,0,0)"
       id="g550">
      <polygon
         points="3886,2977 3886,3372 3786,3372 3786,2977 3886,2977"
         id="polygon551" />
      <polygon
         points="3639,3124 4034,3124 4034,3224 3639,3224 3639,3124"
         id="polygon552" />
    </g>
  </g>
</svg>
