x,Curve1
10.1695,60.6936
20.339,65.5106
29.661,74.1811
39.8305,73.2177
50,76.1079
60.1695,88.632
69.209,161.85
79.661,180.154
89.8305,271.676
99.7175,281.31
109.04,321.773
120.056,331.407
130.508,346.821
140.395,369.942
150,381.503
160.169,395.954
170.056,398.844
180.226,420.039
189.548,419.075
200,425.819
210.169,431.599
220.339,439.306
