<?xml version="1.0" encoding="UTF-8" standalone="no"?>
<!DOCTYPE svg PUBLIC "-//W3C//DTD SVG 20010904//EN"
"http://www.w3.org/TR/2001/REC-SVG-20010904/DTD/svg10.dtd">
<!-- Created with Inkscape (http://www.inkscape.org/) -->
<svg
   version="1.0"
   x="0"
   y="0"
   width="3.88056cm"
   height="0.7cm"
   id="svg1"
   sodipodi:version="0.32"
   inkscape:version="0.37"
   sodipodi:docname="test.svg"
   xmlns="http://www.w3.org/2000/svg"
   xmlns:inkscape="http://www.inkscape.org/namespaces/inkscape"
   xmlns:sodipodi="http://sodipodi.sourceforge.net/DTD/sodipodi-0.dtd"
   xmlns:xlink="http://www.w3.org/1999/xlink"
   sodipodi:docbase="/local/driveE/Dox/ini/iqr421_Redesign/UserManual/images">
  <sodipodi:namedview
     id="base"
     pagecolor="#ffffff"
     bordercolor="#666666"
     borderopacity="1.0"
     inkscape:pageopacity="0"
     inkscape:pageshadow="2"
     inkscape:zoom="4.99090355"
     inkscape:cx="55.0000610"
     inkscape:cy="9.92126009"
     inkscape:window-width="794"
     inkscape:window-height="500"
     inkscape:window-x="0"
     inkscape:window-y="0"
     borderlayer="top"
     showborder="true" />
  <defs
     id="defs3" />
  <path
     d="M 36.389812 -10.702036 L 36.389812 14.173227 L 35.43307 14.173227 L 170.33353 14.173227 "
     style="font-size:12;fill:none;fill-opacity:0.75;fill-rule:evenodd;stroke:#000000;stroke-width:2;"
     id="path575" />
</svg>
