<?xml version="1.0" encoding="UTF-8" standalone="no"?>
<!DOCTYPE svg PUBLIC "-//W3C//DTD SVG 20010904//EN"
"http://www.w3.org/TR/2001/REC-SVG-20010904/DTD/svg10.dtd">
<!-- Created with Inkscape (http://www.inkscape.org/) -->
<svg
   width="600"
   height="600"
   viewBox="0 0 600 600"
   id="svg1"
   sodipodi:version="0.32"
   inkscape:version="0.37"
   sodipodi:docname="DiscreteMotorMap.svg"
   xmlns="http://www.w3.org/2000/svg"
   xmlns:inkscape="http://www.inkscape.org/namespaces/inkscape"
   xmlns:sodipodi="http://sodipodi.sourceforge.net/DTD/sodipodi-0.dtd"
   xmlns:xlink="http://www.w3.org/1999/xlink"
   sodipodi:docbase="/local/driveE/Dox/ini/iqr421_Redesign/UserManual/images">
  <sodipodi:namedview
     id="base"
     pagecolor="#ffffff"
     bordercolor="#666666"
     borderopacity="1.0"
     inkscape:pageopacity="0.0"
     inkscape:pageshadow="2"
     inkscape:zoom="1.22184567"
     inkscape:cx="294.823303"
     inkscape:cy="228.159549"
     inkscape:window-width="879"
     inkscape:window-height="795"
     inkscape:window-x="0"
     inkscape:window-y="0" />
  <desc
     id="desc2">Produced by GNUPLOT 3.8k patchlevel 1</desc>
  <defs
     id="defs3">
    <circle
       id="gpDot"
       r="1" />
    <path
       id="gpPt0"
       style="stroke-width:0.222"
       d="M-1,0 h2 M0,-1 v2" />
    <path
       id="gpPt1"
       style="stroke-width:0.222"
       d="M-1,-1 L1,1 M1,-1 L-1,1" />
    <path
       id="gpPt2"
       style="stroke-width:0.222"
       d="M-1,0 L1,0 M0,-1 L0,1 M-1,-1 L1,1 M-1,1 L1,-1" />
    <rect
       id="gpPt3"
       style="stroke-width:0.222"
       x="-1"
       y="-1"
       width="2"
       height="2" />
    <use
       xlink:href="#gpPt3"
       id="gpPt4"
       style="fill:currentColor; stroke:none" />
    <circle
       id="gpPt5"
       style="stroke-width:0.222"
       cx="0"
       cy="0"
       r="1" />
    <use
       xlink:href="#gpPt5"
       id="gpPt6"
       style="fill:currentColor; stroke:none" />
    <path
       id="gpPt7"
       style="stroke-width:0.222"
       d="M0,-1.33 L-1.33,0.67 L1.33,0.67 z" />
    <use
       xlink:href="#gpPt7"
       id="gpPt8"
       style="fill:currentColor; stroke:none" />
    <use
       xlink:href="#gpPt7"
       id="gpPt9"
       transform="rotate(180)" />
    <use
       xlink:href="#gpPt9"
       id="gpPt10"
       style="fill:currentColor; stroke:none" />
    <use
       xlink:href="#gpPt3"
       id="gpPt11"
       transform="rotate(45)" />
    <use
       xlink:href="#gpPt11"
       id="gpPt12"
       style="fill:currentColor; stroke:none" />
  </defs>
  <g
     style="fill:none; color:gray; stroke:gray; stroke-width:1.00"
     id="g110">
    <path
       d="M8,86 L592,86 "
       id="path111" />
  </g>
  <g
     style="fill:none; color:gray; stroke:gray; stroke-width:1.00"
     id="g116">
    <path
       d="M8,149 L592,149 "
       id="path117" />
  </g>
  <g
     style="fill:none; color:gray; stroke:gray; stroke-width:1.00"
     id="g122">
    <path
       d="M8,213 L592,213 "
       id="path123" />
  </g>
  <g
     style="fill:none; color:gray; stroke:gray; stroke-width:1.00"
     id="g128">
    <path
       d="M8,276 L592,276 "
       id="path129" />
  </g>
  <g
     style="fill:none; color:gray; stroke:gray; stroke-width:1.00"
     id="g134">
    <path
       d="M8,340 L592,340 "
       id="path135" />
  </g>
  <g
     style="fill:none; color:gray; stroke:gray; stroke-width:1.00"
     id="g140">
    <path
       d="M8,403 L592,403 "
       id="path141" />
  </g>
  <g
     style="fill:none; color:gray; stroke:gray; stroke-width:1.00"
     id="g146">
    <path
       d="M8,467 L592,467 "
       id="path147" />
  </g>
  <g
     style="fill:none; color:gray; stroke:gray; stroke-width:1.00"
     id="g152">
    <path
       d="M8,530 L592,530 "
       id="path153" />
  </g>
  <g
     style="fill:none; color:gray; stroke:gray; stroke-width:1.00"
     id="g170">
    <path
       d="M78,600 L78,16 "
       id="path171" />
  </g>
  <g
     style="fill:none; color:gray; stroke:gray; stroke-width:1.00"
     id="g176">
    <path
       d="M141,600 L141,16 "
       id="path177" />
  </g>
  <g
     style="fill:none; color:gray; stroke:gray; stroke-width:1.00"
     id="g182">
    <path
       d="M205,600 L205,16 "
       id="path183" />
  </g>
  <g
     style="fill:none; color:gray; stroke:gray; stroke-width:1.00"
     id="g188">
    <path
       d="M268,600 L268,16 "
       id="path189" />
  </g>
  <g
     style="fill:none; color:gray; stroke:gray; stroke-width:1.00"
     id="g194">
    <path
       d="M332,600 L332,16 "
       id="path195" />
  </g>
  <g
     style="fill:none; color:gray; stroke:gray; stroke-width:1.00"
     id="g200">
    <path
       d="M395,600 L395,16 "
       id="path201" />
  </g>
  <g
     style="fill:none; color:gray; stroke:gray; stroke-width:1.00"
     id="g206">
    <path
       d="M459,600 L459,16 "
       id="path207" />
  </g>
  <g
     style="fill:none; color:gray; stroke:gray; stroke-width:1.00"
     id="g212">
    <path
       d="M522,600 L522,16 "
       id="path213" />
  </g>
  <path
     d="M8,600 L592,600 L592,16 L8,16 L8,600 "
     id="path224"
     style="font-size:12;fill:none;stroke:#000000;" />
  <g
     style="fill:none; color:red; stroke:red; stroke-width:2.00"
     id="g226">
    <path
       d="M40,54 M40,119 L40,121 L40,119 M40,114 L40,121 M39,184 L40,188 L41,184 M40,174    L40,188 M39,249 L40,255 L41,249 M40,234 L40,255 M38,314 L40,322 L42,314 M40,294    L40,322 M38,379 L40,389 L42,379 M40,354 L40,389 M37,444 L40,456 L43,444 M40,414    L40,456 M37,509 L40,523 L43,509 M40,473 L40,523 M36,574 L40,590 L44,574 M40,533    L40,590 M103,53 L103,51 L103,53 M103,58 L103,51 M103,118 M103,183 L103,185 L103,183    M103,177 L103,185 M102,248 L103,252 L104,248 M103,237 L103,252 M102,313 L103,319 L104,313    M103,297 L103,319 M101,378 L103,386 L105,378 M103,357 L103,386 M101,443 L103,453 L105,443    M103,417 L103,453 M100,508 L103,520 L106,508 M103,477 L103,520 M100,573 L103,587 L106,573    M103,537 L103,587 M168,51 L167,47 L166,51 M167,61 L167,47 M167,116 L167,114 L167,116    M167,121 L167,114 M167,181 M167,246 L167,248 L167,246 M167,241 L167,248 M166,311 L167,315    L168,311 M167,301 L167,315 M166,376 L167,382 L168,376 M167,361 L167,382 M165,441 L167,449    L169,441 M167,421 L167,449 M165,506 L167,516 L169,506 M167,481 L167,516 M164,571 L167,583    L170,571 M167,540 L167,583 M231,49 L230,43 L229,49 M230,65 L230,43 M231,114 L230,110    L229,114 M230,125 L230,110 M230,179 L230,177 L230,179 M230,185 L230,177 M230,245 M230,310    L230,312 L230,310 M230,304 L230,312 M229,375 L230,379 L231,375 M230,364 L230,379 M229,440    L230,446 L231,440 M230,424 L230,446 M228,505 L230,513 L232,505 M230,484 L230,513 M228,570    L230,580 L232,570 M230,544 L230,580 M296,48 L294,40 L292,48 M294,68 L294,40 M295,113    L294,107 L293,113 M294,128 L294,107 M295,178 L294,174 L293,178 M294,188 L294,174 M294,243    L294,241 L294,243 M294,248 L294,241 M294,308 M294,373 L294,375 L294,373 M294,368 L294,375    M293,438 L294,442 L295,438 M294,428 L294,442 M293,503 L294,509 L295,503 M294,488 L294,509    M292,568 L294,576 L296,568 M294,548 L294,576 M359,46 L357,36 L355,46 M357,72 L357,36    M359,111 L357,103 L355,111 M357,132 L357,103 M358,176 L357,170 L356,176 M357,192 L357,170    M358,241 L357,237 L356,241 M357,252 L357,237 M357,306 L357,304 L357,306 M357,312 L357,304    M357,371 M357,437 L357,439 L357,437 M357,431 L357,439 M356,502 L357,506 L358,502 M357,491    L357,506 M356,567 L357,573 L358,567 M357,551 L357,573 M424,45 L421,33 L418,45 M421,76    L421,33 M423,110 L421,100 L419,110 M421,135 L421,100 M423,175 L421,167 L419,175 M421,195    L421,167 M422,240 L421,234 L420,240 M421,255 L421,234 M422,305 L421,301 L420,305 M421,315    L421,301 M421,370 L421,368 L421,370 M421,375 L421,368 M421,435 M421,500 L421,502 L421,500    M421,495 L421,502 M420,565 L421,569 L422,565 M421,555 L421,569 M487,43 L484,29 L481,43    M484,79 L484,29 M487,108 L484,96 L481,108 M484,139 L484,96 M486,173 L484,163 L482,173    M484,199 L484,163 M486,238 L484,230 L482,238 M484,259 L484,230 M485,303 L484,297 L483,303    M484,319 L484,297 M485,368 L484,364 L483,368 M484,379 L484,364 M484,433 L484,431 L484,433    M484,439 L484,431 M484,498 M484,563 L484,565 L484,563 M484,558 L484,565 M552,42 L548,26    L544,42 M548,83 L548,26 M551,107 L548,93 L545,107 M548,143 L548,93 M551,172 L548,160    L545,172 M548,202 L548,160 M550,237 L548,227 L546,237 M548,262 L548,227 M550,302 L548,294    L546,302 M548,322 L548,294 M549,367 L548,361 L547,367 M548,382 L548,361 M549,432 L548,428    L547,432 M548,442 L548,428 M548,497 L548,495 L548,497 M548,502 L548,495 M548,562 "
       id="path227" />
  </g>
  <g
     style="fill:none; color:blue; stroke:blue; stroke-width:2.00"
     id="g228">
    <path
       d="M56,42 L52,26 L48,42 M52,83 L52,26 M55,107 L52,93 L49,107 M52,143 L52,93    M55,172 L52,160 L49,172 M52,202 L52,160 M54,237 L52,227 L50,237 M52,262 L52,227    M54,302 L52,294 L50,302 M52,322 L52,294 M53,367 L52,361 L51,367 M52,382 L52,361    M53,432 L52,428 L51,432 M52,442 L52,428 M52,497 L52,495 L52,497 M52,502 L52,495    M52,562 M119,43 L116,29 L113,43 M116,79 L116,29 M119,108 L116,96 L113,108 M116,139    L116,96 M118,173 L116,163 L114,173 M116,199 L116,163 M118,238 L116,230 L114,238 M116,259    L116,230 M117,303 L116,297 L115,303 M116,319 L116,297 M117,368 L116,364 L115,368 M116,379    L116,364 M116,433 L116,431 L116,433 M116,439 L116,431 M116,498 M116,563 L116,565 L116,563    M116,558 L116,565 M182,45 L179,33 L176,45 M179,76 L179,33 M181,110 L179,100 L177,110    M179,135 L179,100 M181,175 L179,167 L177,175 M179,195 L179,167 M180,240 L179,234 L178,240    M179,255 L179,234 M180,305 L179,301 L178,305 M179,315 L179,301 M179,370 L179,368 L179,370    M179,375 L179,368 M179,435 M179,500 L179,502 L179,500 M179,495 L179,502 M178,565 L179,569    L180,565 M179,555 L179,569 M245,46 L243,36 L241,46 M243,72 L243,36 M245,111 L243,103    L241,111 M243,132 L243,103 M244,176 L243,170 L242,176 M243,192 L243,170 M244,241 L243,237    L242,241 M243,252 L243,237 M243,306 L243,304 L243,306 M243,312 L243,304 M243,371 M243,437    L243,439 L243,437 M243,431 L243,439 M242,502 L243,506 L244,502 M243,491 L243,506 M242,567    L243,573 L244,567 M243,551 L243,573 M308,48 L306,40 L304,48 M306,68 L306,40 M307,113    L306,107 L305,113 M306,128 L306,107 M307,178 L306,174 L305,178 M306,188 L306,174 M306,243    L306,241 L306,243 M306,248 L306,241 M306,308 M306,373 L306,375 L306,373 M306,368 L306,375    M305,438 L306,442 L307,438 M306,428 L306,442 M305,503 L306,509 L307,503 M306,488 L306,509    M304,568 L306,576 L308,568 M306,548 L306,576 M371,49 L370,43 L369,49 M370,65 L370,43    M371,114 L370,110 L369,114 M370,125 L370,110 M370,179 L370,177 L370,179 M370,185 L370,177    M370,245 M370,310 L370,312 L370,310 M370,304 L370,312 M369,375 L370,379 L371,375 M370,364    L370,379 M369,440 L370,446 L371,440 M370,424 L370,446 M368,505 L370,513 L372,505 M370,484    L370,513 M368,570 L370,580 L372,570 M370,544 L370,580 M434,51 L433,47 L432,51 M433,61    L433,47 M433,116 L433,114 L433,116 M433,121 L433,114 M433,181 M433,246 L433,248 L433,246    M433,241 L433,248 M432,311 L433,315 L434,311 M433,301 L433,315 M432,376 L433,382 L434,376    M433,361 L433,382 M431,441 L433,449 L435,441 M433,421 L433,449 M431,506 L433,516 L435,506    M433,481 L433,516 M430,571 L433,583 L436,571 M433,540 L433,583 M497,53 L497,51 L497,53    M497,58 L497,51 M497,118 M497,183 L497,185 L497,183 M497,177 L497,185 M496,248 L497,252    L498,248 M497,237 L497,252 M496,313 L497,319 L498,313 M497,297 L497,319 M495,378 L497,386    L499,378 M497,357 L497,386 M495,443 L497,453 L499,443 M497,417 L497,453 M494,508 L497,520    L500,508 M497,477 L497,520 M494,573 L497,587 L500,573 M497,537 L497,587 M560,54 M560,119    L560,121 L560,119 M560,114 L560,121 M559,184 L560,188 L561,184 M560,174 L560,188 M559,249    L560,255 L561,249 M560,234 L560,255 M558,314 L560,322 L562,314 M560,294 L560,322 M558,379    L560,389 L562,379 M560,354 L560,389 M557,444 L560,456 L563,444 M560,414 L560,456 M557,509    L560,523 L563,509 M560,473 L560,523 M556,574 L560,590 L564,574 M560,533 L560,590 "
       id="path229" />
  </g>
</svg>
