<?xml version="1.0" encoding="UTF-8"?>
<!DOCTYPE svg PUBLIC "-//W3C//DTD SVG 1.0//EN" "http://www.w3.org/TR/2001/REC-SVG-20010904/DTD/svg10.dtd">
<svg width="46mm" height="28mm" viewBox="0 0 4600 2800">
 <g style="stroke:none;fill:rgb(0,0,0)">
  <polygon points="275,550 25,550 25,550 21,549 17,548 13,547 10,545 7,542 4,539 2,536 1,532 0,525 25,525 25,500 275,500 275,525 275,550"/>
  <polygon points="0,525 0,25 0,25 0,21 1,17 2,13 4,10 7,7 10,4 13,2 17,1 25,0 25,25 50,25 50,525 25,525 0,525"/>
  <polygon points="25,0 525,0 525,0 528,0 532,1 536,2 539,4 542,7 545,10 547,13 548,17 550,25 525,25 525,50 25,50 25,25 25,0"/>
  <polygon points="550,25 550,525 550,525 549,528 548,532 547,536 545,539 542,542 539,545 536,547 532,548 525,550 525,525 500,525 500,25 525,25 550,25"/>
  <polygon points="525,525 525,550 275,550 275,525 275,500 525,500 525,525"/>
 </g>
 <g style="stroke:none;fill:rgb(255,0,0)">
  <polygon points="275,300 265,297 257,292 252,284 250,275 252,265 257,257 265,252 275,250 284,252 292,257 297,265 300,275 297,284 292,292 284,297 275,300"/>
 </g>
 <g style="stroke:none;fill:rgb(0,0,0)">
  <polygon points="267,323 257,320 257,320 251,318 265,297 272,273 282,276 275,300 267,323"/>
  <polygon points="251,318 243,313 243,313 240,310 235,305 257,292 270,270 278,275 265,297 251,318"/>
  <polygon points="235,305 230,297 230,297 227,289 252,284 273,270 278,278 257,292 235,305"/>
  <polygon points="227,289 225,280 225,280 225,276 225,270 250,275 274,269 276,278 252,284 227,289"/>
  <polygon points="225,270 227,260 227,260 228,257 230,251 252,265 276,269 274,279 250,275 225,270"/>
  <polygon points="230,251 235,243 235,243 238,240 243,235 257,257 278,270 273,278 252,265 230,251"/>
  <polygon points="243,235 251,230 251,230 254,229 260,227 265,252 278,273 270,278 257,257 243,235"/>
  <polygon points="260,227 270,225 270,225 273,225 280,225 275,250 279,274 269,276 265,252 260,227"/>
  <polygon points="280,225 289,227 289,227 297,230 284,252 278,276 269,274 275,250 280,225"/>
  <polygon points="297,230 305,235 305,235 308,238 313,243 292,257 278,278 270,273 284,252 297,230"/>
  <polygon points="313,243 318,251 318,251 320,257 297,265 275,278 270,270 292,257 313,243"/>
  <polygon points="320,257 323,267 323,267 324,271 324,275 323,282 300,275 276,282 273,272 297,265 320,257"/>
  <polygon points="323,282 320,291 320,291 318,297 297,284 273,276 276,267 300,275 323,282"/>
  <polygon points="318,297 313,305 313,305 310,308 305,313 292,292 270,278 275,270 297,284 318,297"/>
  <polygon points="305,313 297,318 297,318 291,320 284,297 270,275 278,270 292,292 305,313"/>
  <polygon points="291,320 282,323 282,323 279,324 275,324 267,323 275,300 267,276 276,273 284,297 291,320"/>
  <polygon points="775,550 525,550 525,550 521,549 517,548 513,547 510,545 507,542 504,539 502,536 501,532 500,525 525,525 525,500 775,500 775,525 775,550"/>
  <polygon points="500,525 500,25 500,25 500,21 501,17 502,13 504,10 507,7 510,4 513,2 517,1 525,0 525,25 550,25 550,525 525,525 500,525"/>
  <polygon points="525,0 1025,0 1025,0 1028,0 1032,1 1036,2 1039,4 1042,7 1045,10 1047,13 1048,17 1050,25 1025,25 1025,50 525,50 525,25 525,0"/>
  <polygon points="1050,25 1050,525 1050,525 1049,528 1048,532 1047,536 1045,539 1042,542 1039,545 1036,547 1032,548 1025,550 1025,525 1000,525 1000,25 1025,25 1050,25"/>
  <polygon points="1025,525 1025,550 775,550 775,525 775,500 1025,500 1025,525"/>
 </g>
 <g style="stroke:none;fill:rgb(255,0,0)">
  <polygon points="775,300 765,297 757,292 752,284 750,275 752,265 757,257 765,252 775,250 784,252 792,257 797,265 800,275 797,284 792,292 784,297 775,300"/>
 </g>
 <g style="stroke:none;fill:rgb(0,0,0)">
  <polygon points="767,323 757,320 757,320 751,318 765,297 772,273 782,276 775,300 767,323"/>
  <polygon points="751,318 743,313 743,313 740,310 735,305 757,292 770,270 778,275 765,297 751,318"/>
  <polygon points="735,305 730,297 730,297 727,289 752,284 773,270 778,278 757,292 735,305"/>
  <polygon points="727,289 725,280 725,280 725,276 725,270 750,275 774,269 776,278 752,284 727,289"/>
  <polygon points="725,270 727,260 727,260 728,257 730,251 752,265 776,269 774,279 750,275 725,270"/>
  <polygon points="730,251 735,243 735,243 738,240 743,235 757,257 778,270 773,278 752,265 730,251"/>
  <polygon points="743,235 751,230 751,230 754,229 760,227 765,252 778,273 770,278 757,257 743,235"/>
  <polygon points="760,227 770,225 770,225 773,225 780,225 775,250 779,274 769,276 765,252 760,227"/>
  <polygon points="780,225 789,227 789,227 797,230 784,252 778,276 769,274 775,250 780,225"/>
  <polygon points="797,230 805,235 805,235 808,238 813,243 792,257 778,278 770,273 784,252 797,230"/>
  <polygon points="813,243 818,251 818,251 820,257 797,265 775,278 770,270 792,257 813,243"/>
  <polygon points="820,257 823,267 823,267 824,271 824,275 823,282 800,275 776,282 773,272 797,265 820,257"/>
  <polygon points="823,282 820,291 820,291 818,297 797,284 773,276 776,267 800,275 823,282"/>
  <polygon points="818,297 813,305 813,305 810,308 805,313 792,292 770,278 775,270 797,284 818,297"/>
  <polygon points="805,313 797,318 797,318 791,320 784,297 770,275 778,270 792,292 805,313"/>
  <polygon points="791,320 782,323 782,323 779,324 775,324 767,323 775,300 767,276 776,273 784,297 791,320"/>
  <polygon points="1275,550 1025,550 1025,550 1021,549 1017,548 1013,547 1010,545 1007,542 1004,539 1002,536 1001,532 1000,525 1025,525 1025,500 1275,500 1275,525 1275,550"/>
  <polygon points="1000,525 1000,25 1000,25 1000,21 1001,17 1002,13 1004,10 1007,7 1010,4 1013,2 1017,1 1025,0 1025,25 1050,25 1050,525 1025,525 1000,525"/>
  <polygon points="1025,0 1525,0 1525,0 1528,0 1532,1 1536,2 1539,4 1542,7 1545,10 1547,13 1548,17 1550,25 1525,25 1525,50 1025,50 1025,25 1025,0"/>
  <polygon points="1550,25 1550,525 1550,525 1549,528 1548,532 1547,536 1545,539 1542,542 1539,545 1536,547 1532,548 1525,550 1525,525 1500,525 1500,25 1525,25 1550,25"/>
  <polygon points="1525,525 1525,550 1275,550 1275,525 1275,500 1525,500 1525,525"/>
 </g>
 <g style="stroke:none;fill:rgb(255,0,0)">
  <polygon points="1275,300 1265,297 1257,292 1252,284 1250,275 1252,265 1257,257 1265,252 1275,250 1284,252 1292,257 1297,265 1300,275 1297,284 1292,292 1284,297 1275,300"/>
 </g>
 <g style="stroke:none;fill:rgb(0,0,0)">
  <polygon points="1267,323 1257,320 1257,320 1251,318 1265,297 1272,273 1282,276 1275,300 1267,323"/>
  <polygon points="1251,318 1243,313 1243,313 1240,310 1235,305 1257,292 1270,270 1278,275 1265,297 1251,318"/>
  <polygon points="1235,305 1230,297 1230,297 1227,289 1252,284 1273,270 1278,278 1257,292 1235,305"/>
  <polygon points="1227,289 1225,280 1225,280 1225,276 1225,270 1250,275 1274,269 1276,278 1252,284 1227,289"/>
  <polygon points="1225,270 1227,260 1227,260 1228,257 1230,251 1252,265 1276,269 1274,279 1250,275 1225,270"/>
  <polygon points="1230,251 1235,243 1235,243 1238,240 1243,235 1257,257 1278,270 1273,278 1252,265 1230,251"/>
  <polygon points="1243,235 1251,230 1251,230 1254,229 1260,227 1265,252 1278,273 1270,278 1257,257 1243,235"/>
  <polygon points="1260,227 1270,225 1270,225 1273,225 1280,225 1275,250 1279,274 1269,276 1265,252 1260,227"/>
  <polygon points="1280,225 1289,227 1289,227 1297,230 1284,252 1278,276 1269,274 1275,250 1280,225"/>
  <polygon points="1297,230 1305,235 1305,235 1308,238 1313,243 1292,257 1278,278 1270,273 1284,252 1297,230"/>
  <polygon points="1313,243 1318,251 1318,251 1320,257 1297,265 1275,278 1270,270 1292,257 1313,243"/>
  <polygon points="1320,257 1323,267 1323,267 1324,271 1324,275 1323,282 1300,275 1276,282 1273,272 1297,265 1320,257"/>
  <polygon points="1323,282 1320,291 1320,291 1318,297 1297,284 1273,276 1276,267 1300,275 1323,282"/>
  <polygon points="1318,297 1313,305 1313,305 1310,308 1305,313 1292,292 1270,278 1275,270 1297,284 1318,297"/>
  <polygon points="1305,313 1297,318 1297,318 1291,320 1284,297 1270,275 1278,270 1292,292 1305,313"/>
  <polygon points="1291,320 1282,323 1282,323 1279,324 1275,324 1267,323 1275,300 1267,276 1276,273 1284,297 1291,320"/>
  <polygon points="1775,550 1525,550 1525,550 1521,549 1517,548 1513,547 1510,545 1507,542 1504,539 1502,536 1501,532 1500,525 1525,525 1525,500 1775,500 1775,525 1775,550"/>
  <polygon points="1500,525 1500,25 1500,25 1500,21 1501,17 1502,13 1504,10 1507,7 1510,4 1513,2 1517,1 1525,0 1525,25 1550,25 1550,525 1525,525 1500,525"/>
  <polygon points="1525,0 2025,0 2025,0 2028,0 2032,1 2036,2 2039,4 2042,7 2045,10 2047,13 2048,17 2050,25 2025,25 2025,50 1525,50 1525,25 1525,0"/>
  <polygon points="2050,25 2050,525 2050,525 2049,528 2048,532 2047,536 2045,539 2042,542 2039,545 2036,547 2032,548 2025,550 2025,525 2000,525 2000,25 2025,25 2050,25"/>
  <polygon points="2025,525 2025,550 1775,550 1775,525 1775,500 2025,500 2025,525"/>
 </g>
 <g style="stroke:none;fill:rgb(255,0,0)">
  <polygon points="1775,300 1765,297 1757,292 1752,284 1750,275 1752,265 1757,257 1765,252 1775,250 1784,252 1792,257 1797,265 1800,275 1797,284 1792,292 1784,297 1775,300"/>
 </g>
 <g style="stroke:none;fill:rgb(0,0,0)">
  <polygon points="1767,323 1757,320 1757,320 1751,318 1765,297 1772,273 1782,276 1775,300 1767,323"/>
  <polygon points="1751,318 1743,313 1743,313 1740,310 1735,305 1757,292 1770,270 1778,275 1765,297 1751,318"/>
  <polygon points="1735,305 1730,297 1730,297 1727,289 1752,284 1773,270 1778,278 1757,292 1735,305"/>
  <polygon points="1727,289 1725,280 1725,280 1725,276 1725,270 1750,275 1774,269 1776,278 1752,284 1727,289"/>
  <polygon points="1725,270 1727,260 1727,260 1728,257 1730,251 1752,265 1776,269 1774,279 1750,275 1725,270"/>
  <polygon points="1730,251 1735,243 1735,243 1738,240 1743,235 1757,257 1778,270 1773,278 1752,265 1730,251"/>
  <polygon points="1743,235 1751,230 1751,230 1754,229 1760,227 1765,252 1778,273 1770,278 1757,257 1743,235"/>
  <polygon points="1760,227 1770,225 1770,225 1773,225 1780,225 1775,250 1779,274 1769,276 1765,252 1760,227"/>
  <polygon points="1780,225 1789,227 1789,227 1797,230 1784,252 1778,276 1769,274 1775,250 1780,225"/>
  <polygon points="1797,230 1805,235 1805,235 1808,238 1813,243 1792,257 1778,278 1770,273 1784,252 1797,230"/>
  <polygon points="1813,243 1818,251 1818,251 1820,257 1797,265 1775,278 1770,270 1792,257 1813,243"/>
  <polygon points="1820,257 1823,267 1823,267 1824,271 1824,275 1823,282 1800,275 1776,282 1773,272 1797,265 1820,257"/>
  <polygon points="1823,282 1820,291 1820,291 1818,297 1797,284 1773,276 1776,267 1800,275 1823,282"/>
  <polygon points="1818,297 1813,305 1813,305 1810,308 1805,313 1792,292 1770,278 1775,270 1797,284 1818,297"/>
  <polygon points="1805,313 1797,318 1797,318 1791,320 1784,297 1770,275 1778,270 1792,292 1805,313"/>
  <polygon points="1791,320 1782,323 1782,323 1779,324 1775,324 1767,323 1775,300 1767,276 1776,273 1784,297 1791,320"/>
  <polygon points="275,1050 25,1050 25,1050 21,1049 17,1048 13,1047 10,1045 7,1042 4,1039 2,1036 1,1032 0,1025 25,1025 25,1000 275,1000 275,1025 275,1050"/>
  <polygon points="0,1025 0,525 0,525 0,521 1,517 2,513 4,510 7,507 10,504 13,502 17,501 25,500 25,525 50,525 50,1025 25,1025 0,1025"/>
  <polygon points="25,500 525,500 525,500 528,500 532,501 536,502 539,504 542,507 545,510 547,513 548,517 550,525 525,525 525,550 25,550 25,525 25,500"/>
  <polygon points="550,525 550,1025 550,1025 549,1028 548,1032 547,1036 545,1039 542,1042 539,1045 536,1047 532,1048 525,1050 525,1025 500,1025 500,525 525,525 550,525"/>
  <polygon points="525,1025 525,1050 275,1050 275,1025 275,1000 525,1000 525,1025"/>
 </g>
 <g style="stroke:none;fill:rgb(255,0,0)">
  <polygon points="275,800 265,797 257,792 252,784 250,775 252,765 257,757 265,752 275,750 284,752 292,757 297,765 300,775 297,784 292,792 284,797 275,800"/>
 </g>
 <g style="stroke:none;fill:rgb(0,0,0)">
  <polygon points="267,823 257,820 257,820 251,818 265,797 272,773 282,776 275,800 267,823"/>
  <polygon points="251,818 243,813 243,813 240,810 235,805 257,792 270,770 278,775 265,797 251,818"/>
  <polygon points="235,805 230,797 230,797 227,789 252,784 273,770 278,778 257,792 235,805"/>
  <polygon points="227,789 225,780 225,780 225,776 225,770 250,775 274,769 276,778 252,784 227,789"/>
  <polygon points="225,770 227,760 227,760 228,757 230,751 252,765 276,769 274,779 250,775 225,770"/>
  <polygon points="230,751 235,743 235,743 238,740 243,735 257,757 278,770 273,778 252,765 230,751"/>
  <polygon points="243,735 251,730 251,730 254,729 260,727 265,752 278,773 270,778 257,757 243,735"/>
  <polygon points="260,727 270,725 270,725 273,725 280,725 275,750 279,774 269,776 265,752 260,727"/>
  <polygon points="280,725 289,727 289,727 297,730 284,752 278,776 269,774 275,750 280,725"/>
  <polygon points="297,730 305,735 305,735 308,738 313,743 292,757 278,778 270,773 284,752 297,730"/>
  <polygon points="313,743 318,751 318,751 320,757 297,765 275,778 270,770 292,757 313,743"/>
  <polygon points="320,757 323,767 323,767 324,771 324,775 323,782 300,775 276,782 273,772 297,765 320,757"/>
  <polygon points="323,782 320,791 320,791 318,797 297,784 273,776 276,767 300,775 323,782"/>
  <polygon points="318,797 313,805 313,805 310,808 305,813 292,792 270,778 275,770 297,784 318,797"/>
  <polygon points="305,813 297,818 297,818 291,820 284,797 270,775 278,770 292,792 305,813"/>
  <polygon points="291,820 282,823 282,823 279,824 275,824 267,823 275,800 267,776 276,773 284,797 291,820"/>
  <polygon points="775,1050 525,1050 525,1050 521,1049 517,1048 513,1047 510,1045 507,1042 504,1039 502,1036 501,1032 500,1025 525,1025 525,1000 775,1000 775,1025 775,1050"/>
  <polygon points="500,1025 500,525 500,525 500,521 501,517 502,513 504,510 507,507 510,504 513,502 517,501 525,500 525,525 550,525 550,1025 525,1025 500,1025"/>
  <polygon points="525,500 1025,500 1025,500 1028,500 1032,501 1036,502 1039,504 1042,507 1045,510 1047,513 1048,517 1050,525 1025,525 1025,550 525,550 525,525 525,500"/>
  <polygon points="1050,525 1050,1025 1050,1025 1049,1028 1048,1032 1047,1036 1045,1039 1042,1042 1039,1045 1036,1047 1032,1048 1025,1050 1025,1025 1000,1025 1000,525 1025,525 1050,525"/>
  <polygon points="1025,1025 1025,1050 775,1050 775,1025 775,1000 1025,1000 1025,1025"/>
 </g>
 <g style="stroke:none;fill:rgb(255,0,0)">
  <polygon points="775,800 765,797 757,792 752,784 750,775 752,765 757,757 765,752 775,750 784,752 792,757 797,765 800,775 797,784 792,792 784,797 775,800"/>
 </g>
 <g style="stroke:none;fill:rgb(0,0,0)">
  <polygon points="767,823 757,820 757,820 751,818 765,797 772,773 782,776 775,800 767,823"/>
  <polygon points="751,818 743,813 743,813 740,810 735,805 757,792 770,770 778,775 765,797 751,818"/>
  <polygon points="735,805 730,797 730,797 727,789 752,784 773,770 778,778 757,792 735,805"/>
  <polygon points="727,789 725,780 725,780 725,776 725,770 750,775 774,769 776,778 752,784 727,789"/>
  <polygon points="725,770 727,760 727,760 728,757 730,751 752,765 776,769 774,779 750,775 725,770"/>
  <polygon points="730,751 735,743 735,743 738,740 743,735 757,757 778,770 773,778 752,765 730,751"/>
  <polygon points="743,735 751,730 751,730 754,729 760,727 765,752 778,773 770,778 757,757 743,735"/>
  <polygon points="760,727 770,725 770,725 773,725 780,725 775,750 779,774 769,776 765,752 760,727"/>
  <polygon points="780,725 789,727 789,727 797,730 784,752 778,776 769,774 775,750 780,725"/>
  <polygon points="797,730 805,735 805,735 808,738 813,743 792,757 778,778 770,773 784,752 797,730"/>
  <polygon points="813,743 818,751 818,751 820,757 797,765 775,778 770,770 792,757 813,743"/>
  <polygon points="820,757 823,767 823,767 824,771 824,775 823,782 800,775 776,782 773,772 797,765 820,757"/>
  <polygon points="823,782 820,791 820,791 818,797 797,784 773,776 776,767 800,775 823,782"/>
  <polygon points="818,797 813,805 813,805 810,808 805,813 792,792 770,778 775,770 797,784 818,797"/>
  <polygon points="805,813 797,818 797,818 791,820 784,797 770,775 778,770 792,792 805,813"/>
  <polygon points="791,820 782,823 782,823 779,824 775,824 767,823 775,800 767,776 776,773 784,797 791,820"/>
  <polygon points="1275,1050 1025,1050 1025,1050 1021,1049 1017,1048 1013,1047 1010,1045 1007,1042 1004,1039 1002,1036 1001,1032 1000,1025 1025,1025 1025,1000 1275,1000 1275,1025 1275,1050"/>
  <polygon points="1000,1025 1000,525 1000,525 1000,521 1001,517 1002,513 1004,510 1007,507 1010,504 1013,502 1017,501 1025,500 1025,525 1050,525 1050,1025 1025,1025 1000,1025"/>
  <polygon points="1025,500 1525,500 1525,500 1528,500 1532,501 1536,502 1539,504 1542,507 1545,510 1547,513 1548,517 1550,525 1525,525 1525,550 1025,550 1025,525 1025,500"/>
  <polygon points="1550,525 1550,1025 1550,1025 1549,1028 1548,1032 1547,1036 1545,1039 1542,1042 1539,1045 1536,1047 1532,1048 1525,1050 1525,1025 1500,1025 1500,525 1525,525 1550,525"/>
  <polygon points="1525,1025 1525,1050 1275,1050 1275,1025 1275,1000 1525,1000 1525,1025"/>
 </g>
 <g style="stroke:none;fill:rgb(255,0,0)">
  <polygon points="1275,800 1265,797 1257,792 1252,784 1250,775 1252,765 1257,757 1265,752 1275,750 1284,752 1292,757 1297,765 1300,775 1297,784 1292,792 1284,797 1275,800"/>
 </g>
 <g style="stroke:none;fill:rgb(0,0,0)">
  <polygon points="1267,823 1257,820 1257,820 1251,818 1265,797 1272,773 1282,776 1275,800 1267,823"/>
  <polygon points="1251,818 1243,813 1243,813 1240,810 1235,805 1257,792 1270,770 1278,775 1265,797 1251,818"/>
  <polygon points="1235,805 1230,797 1230,797 1227,789 1252,784 1273,770 1278,778 1257,792 1235,805"/>
  <polygon points="1227,789 1225,780 1225,780 1225,776 1225,770 1250,775 1274,769 1276,778 1252,784 1227,789"/>
  <polygon points="1225,770 1227,760 1227,760 1228,757 1230,751 1252,765 1276,769 1274,779 1250,775 1225,770"/>
  <polygon points="1230,751 1235,743 1235,743 1238,740 1243,735 1257,757 1278,770 1273,778 1252,765 1230,751"/>
  <polygon points="1243,735 1251,730 1251,730 1254,729 1260,727 1265,752 1278,773 1270,778 1257,757 1243,735"/>
  <polygon points="1260,727 1270,725 1270,725 1273,725 1280,725 1275,750 1279,774 1269,776 1265,752 1260,727"/>
  <polygon points="1280,725 1289,727 1289,727 1297,730 1284,752 1278,776 1269,774 1275,750 1280,725"/>
  <polygon points="1297,730 1305,735 1305,735 1308,738 1313,743 1292,757 1278,778 1270,773 1284,752 1297,730"/>
  <polygon points="1313,743 1318,751 1318,751 1320,757 1297,765 1275,778 1270,770 1292,757 1313,743"/>
  <polygon points="1320,757 1323,767 1323,767 1324,771 1324,775 1323,782 1300,775 1276,782 1273,772 1297,765 1320,757"/>
  <polygon points="1323,782 1320,791 1320,791 1318,797 1297,784 1273,776 1276,767 1300,775 1323,782"/>
  <polygon points="1318,797 1313,805 1313,805 1310,808 1305,813 1292,792 1270,778 1275,770 1297,784 1318,797"/>
  <polygon points="1305,813 1297,818 1297,818 1291,820 1284,797 1270,775 1278,770 1292,792 1305,813"/>
  <polygon points="1291,820 1282,823 1282,823 1279,824 1275,824 1267,823 1275,800 1267,776 1276,773 1284,797 1291,820"/>
  <polygon points="1775,1050 1525,1050 1525,1050 1521,1049 1517,1048 1513,1047 1510,1045 1507,1042 1504,1039 1502,1036 1501,1032 1500,1025 1525,1025 1525,1000 1775,1000 1775,1025 1775,1050"/>
  <polygon points="1500,1025 1500,525 1500,525 1500,521 1501,517 1502,513 1504,510 1507,507 1510,504 1513,502 1517,501 1525,500 1525,525 1550,525 1550,1025 1525,1025 1500,1025"/>
  <polygon points="1525,500 2025,500 2025,500 2028,500 2032,501 2036,502 2039,504 2042,507 2045,510 2047,513 2048,517 2050,525 2025,525 2025,550 1525,550 1525,525 1525,500"/>
  <polygon points="2050,525 2050,1025 2050,1025 2049,1028 2048,1032 2047,1036 2045,1039 2042,1042 2039,1045 2036,1047 2032,1048 2025,1050 2025,1025 2000,1025 2000,525 2025,525 2050,525"/>
  <polygon points="2025,1025 2025,1050 1775,1050 1775,1025 1775,1000 2025,1000 2025,1025"/>
 </g>
 <g style="stroke:none;fill:rgb(255,0,0)">
  <polygon points="1775,800 1765,797 1757,792 1752,784 1750,775 1752,765 1757,757 1765,752 1775,750 1784,752 1792,757 1797,765 1800,775 1797,784 1792,792 1784,797 1775,800"/>
 </g>
 <g style="stroke:none;fill:rgb(0,0,0)">
  <polygon points="1767,823 1757,820 1757,820 1751,818 1765,797 1772,773 1782,776 1775,800 1767,823"/>
  <polygon points="1751,818 1743,813 1743,813 1740,810 1735,805 1757,792 1770,770 1778,775 1765,797 1751,818"/>
  <polygon points="1735,805 1730,797 1730,797 1727,789 1752,784 1773,770 1778,778 1757,792 1735,805"/>
  <polygon points="1727,789 1725,780 1725,780 1725,776 1725,770 1750,775 1774,769 1776,778 1752,784 1727,789"/>
  <polygon points="1725,770 1727,760 1727,760 1728,757 1730,751 1752,765 1776,769 1774,779 1750,775 1725,770"/>
  <polygon points="1730,751 1735,743 1735,743 1738,740 1743,735 1757,757 1778,770 1773,778 1752,765 1730,751"/>
  <polygon points="1743,735 1751,730 1751,730 1754,729 1760,727 1765,752 1778,773 1770,778 1757,757 1743,735"/>
  <polygon points="1760,727 1770,725 1770,725 1773,725 1780,725 1775,750 1779,774 1769,776 1765,752 1760,727"/>
  <polygon points="1780,725 1789,727 1789,727 1797,730 1784,752 1778,776 1769,774 1775,750 1780,725"/>
  <polygon points="1797,730 1805,735 1805,735 1808,738 1813,743 1792,757 1778,778 1770,773 1784,752 1797,730"/>
  <polygon points="1813,743 1818,751 1818,751 1820,757 1797,765 1775,778 1770,770 1792,757 1813,743"/>
  <polygon points="1820,757 1823,767 1823,767 1824,771 1824,775 1823,782 1800,775 1776,782 1773,772 1797,765 1820,757"/>
  <polygon points="1823,782 1820,791 1820,791 1818,797 1797,784 1773,776 1776,767 1800,775 1823,782"/>
  <polygon points="1818,797 1813,805 1813,805 1810,808 1805,813 1792,792 1770,778 1775,770 1797,784 1818,797"/>
  <polygon points="1805,813 1797,818 1797,818 1791,820 1784,797 1770,775 1778,770 1792,792 1805,813"/>
  <polygon points="1791,820 1782,823 1782,823 1779,824 1775,824 1767,823 1775,800 1767,776 1776,773 1784,797 1791,820"/>
  <polygon points="275,1550 25,1550 25,1550 21,1549 17,1548 13,1547 10,1545 7,1542 4,1539 2,1536 1,1532 0,1525 25,1525 25,1500 275,1500 275,1525 275,1550"/>
  <polygon points="0,1525 0,1025 0,1025 0,1021 1,1017 2,1013 4,1010 7,1007 10,1004 13,1002 17,1001 25,1000 25,1025 50,1025 50,1525 25,1525 0,1525"/>
  <polygon points="25,1000 525,1000 525,1000 528,1000 532,1001 536,1002 539,1004 542,1007 545,1010 547,1013 548,1017 550,1025 525,1025 525,1050 25,1050 25,1025 25,1000"/>
  <polygon points="550,1025 550,1525 550,1525 549,1528 548,1532 547,1536 545,1539 542,1542 539,1545 536,1547 532,1548 525,1550 525,1525 500,1525 500,1025 525,1025 550,1025"/>
  <polygon points="525,1525 525,1550 275,1550 275,1525 275,1500 525,1500 525,1525"/>
 </g>
 <g style="stroke:none;fill:rgb(255,0,0)">
  <polygon points="275,1300 265,1297 257,1292 252,1284 250,1275 252,1265 257,1257 265,1252 275,1250 284,1252 292,1257 297,1265 300,1275 297,1284 292,1292 284,1297 275,1300"/>
 </g>
 <g style="stroke:none;fill:rgb(0,0,0)">
  <polygon points="267,1323 257,1320 257,1320 251,1318 265,1297 272,1273 282,1276 275,1300 267,1323"/>
  <polygon points="251,1318 243,1313 243,1313 240,1310 235,1305 257,1292 270,1270 278,1275 265,1297 251,1318"/>
  <polygon points="235,1305 230,1297 230,1297 227,1289 252,1284 273,1270 278,1278 257,1292 235,1305"/>
  <polygon points="227,1289 225,1280 225,1280 225,1276 225,1270 250,1275 274,1269 276,1278 252,1284 227,1289"/>
  <polygon points="225,1270 227,1260 227,1260 228,1257 230,1251 252,1265 276,1269 274,1279 250,1275 225,1270"/>
  <polygon points="230,1251 235,1243 235,1243 238,1240 243,1235 257,1257 278,1270 273,1278 252,1265 230,1251"/>
  <polygon points="243,1235 251,1230 251,1230 254,1229 260,1227 265,1252 278,1273 270,1278 257,1257 243,1235"/>
  <polygon points="260,1227 270,1225 270,1225 273,1225 280,1225 275,1250 279,1274 269,1276 265,1252 260,1227"/>
  <polygon points="280,1225 289,1227 289,1227 297,1230 284,1252 278,1276 269,1274 275,1250 280,1225"/>
  <polygon points="297,1230 305,1235 305,1235 308,1238 313,1243 292,1257 278,1278 270,1273 284,1252 297,1230"/>
  <polygon points="313,1243 318,1251 318,1251 320,1257 297,1265 275,1278 270,1270 292,1257 313,1243"/>
  <polygon points="320,1257 323,1267 323,1267 324,1271 324,1275 323,1282 300,1275 276,1282 273,1272 297,1265 320,1257"/>
  <polygon points="323,1282 320,1291 320,1291 318,1297 297,1284 273,1276 276,1267 300,1275 323,1282"/>
  <polygon points="318,1297 313,1305 313,1305 310,1308 305,1313 292,1292 270,1278 275,1270 297,1284 318,1297"/>
  <polygon points="305,1313 297,1318 297,1318 291,1320 284,1297 270,1275 278,1270 292,1292 305,1313"/>
  <polygon points="291,1320 282,1323 282,1323 279,1324 275,1324 267,1323 275,1300 267,1276 276,1273 284,1297 291,1320"/>
  <polygon points="775,1550 525,1550 525,1550 521,1549 517,1548 513,1547 510,1545 507,1542 504,1539 502,1536 501,1532 500,1525 525,1525 525,1500 775,1500 775,1525 775,1550"/>
  <polygon points="500,1525 500,1025 500,1025 500,1021 501,1017 502,1013 504,1010 507,1007 510,1004 513,1002 517,1001 525,1000 525,1025 550,1025 550,1525 525,1525 500,1525"/>
  <polygon points="525,1000 1025,1000 1025,1000 1028,1000 1032,1001 1036,1002 1039,1004 1042,1007 1045,1010 1047,1013 1048,1017 1050,1025 1025,1025 1025,1050 525,1050 525,1025 525,1000"/>
  <polygon points="1050,1025 1050,1525 1050,1525 1049,1528 1048,1532 1047,1536 1045,1539 1042,1542 1039,1545 1036,1547 1032,1548 1025,1550 1025,1525 1000,1525 1000,1025 1025,1025 1050,1025"/>
  <polygon points="1025,1525 1025,1550 775,1550 775,1525 775,1500 1025,1500 1025,1525"/>
 </g>
 <g style="stroke:none;fill:rgb(255,0,0)">
  <polygon points="775,1300 765,1297 757,1292 752,1284 750,1275 752,1265 757,1257 765,1252 775,1250 784,1252 792,1257 797,1265 800,1275 797,1284 792,1292 784,1297 775,1300"/>
 </g>
 <g style="stroke:none;fill:rgb(0,0,0)">
  <polygon points="767,1323 757,1320 757,1320 751,1318 765,1297 772,1273 782,1276 775,1300 767,1323"/>
  <polygon points="751,1318 743,1313 743,1313 740,1310 735,1305 757,1292 770,1270 778,1275 765,1297 751,1318"/>
  <polygon points="735,1305 730,1297 730,1297 727,1289 752,1284 773,1270 778,1278 757,1292 735,1305"/>
  <polygon points="727,1289 725,1280 725,1280 725,1276 725,1270 750,1275 774,1269 776,1278 752,1284 727,1289"/>
  <polygon points="725,1270 727,1260 727,1260 728,1257 730,1251 752,1265 776,1269 774,1279 750,1275 725,1270"/>
  <polygon points="730,1251 735,1243 735,1243 738,1240 743,1235 757,1257 778,1270 773,1278 752,1265 730,1251"/>
  <polygon points="743,1235 751,1230 751,1230 754,1229 760,1227 765,1252 778,1273 770,1278 757,1257 743,1235"/>
  <polygon points="760,1227 770,1225 770,1225 773,1225 780,1225 775,1250 779,1274 769,1276 765,1252 760,1227"/>
  <polygon points="780,1225 789,1227 789,1227 797,1230 784,1252 778,1276 769,1274 775,1250 780,1225"/>
  <polygon points="797,1230 805,1235 805,1235 808,1238 813,1243 792,1257 778,1278 770,1273 784,1252 797,1230"/>
  <polygon points="813,1243 818,1251 818,1251 820,1257 797,1265 775,1278 770,1270 792,1257 813,1243"/>
  <polygon points="820,1257 823,1267 823,1267 824,1271 824,1275 823,1282 800,1275 776,1282 773,1272 797,1265 820,1257"/>
  <polygon points="823,1282 820,1291 820,1291 818,1297 797,1284 773,1276 776,1267 800,1275 823,1282"/>
  <polygon points="818,1297 813,1305 813,1305 810,1308 805,1313 792,1292 770,1278 775,1270 797,1284 818,1297"/>
  <polygon points="805,1313 797,1318 797,1318 791,1320 784,1297 770,1275 778,1270 792,1292 805,1313"/>
  <polygon points="791,1320 782,1323 782,1323 779,1324 775,1324 767,1323 775,1300 767,1276 776,1273 784,1297 791,1320"/>
  <polygon points="1275,1550 1025,1550 1025,1550 1021,1549 1017,1548 1013,1547 1010,1545 1007,1542 1004,1539 1002,1536 1001,1532 1000,1525 1025,1525 1025,1500 1275,1500 1275,1525 1275,1550"/>
  <polygon points="1000,1525 1000,1025 1000,1025 1000,1021 1001,1017 1002,1013 1004,1010 1007,1007 1010,1004 1013,1002 1017,1001 1025,1000 1025,1025 1050,1025 1050,1525 1025,1525 1000,1525"/>
  <polygon points="1025,1000 1525,1000 1525,1000 1528,1000 1532,1001 1536,1002 1539,1004 1542,1007 1545,1010 1547,1013 1548,1017 1550,1025 1525,1025 1525,1050 1025,1050 1025,1025 1025,1000"/>
  <polygon points="1550,1025 1550,1525 1550,1525 1549,1528 1548,1532 1547,1536 1545,1539 1542,1542 1539,1545 1536,1547 1532,1548 1525,1550 1525,1525 1500,1525 1500,1025 1525,1025 1550,1025"/>
  <polygon points="1525,1525 1525,1550 1275,1550 1275,1525 1275,1500 1525,1500 1525,1525"/>
 </g>
 <g style="stroke:none;fill:rgb(255,0,0)">
  <polygon points="1275,1300 1265,1297 1257,1292 1252,1284 1250,1275 1252,1265 1257,1257 1265,1252 1275,1250 1284,1252 1292,1257 1297,1265 1300,1275 1297,1284 1292,1292 1284,1297 1275,1300"/>
 </g>
 <g style="stroke:none;fill:rgb(0,0,0)">
  <polygon points="1267,1323 1257,1320 1257,1320 1251,1318 1265,1297 1272,1273 1282,1276 1275,1300 1267,1323"/>
  <polygon points="1251,1318 1243,1313 1243,1313 1240,1310 1235,1305 1257,1292 1270,1270 1278,1275 1265,1297 1251,1318"/>
  <polygon points="1235,1305 1230,1297 1230,1297 1227,1289 1252,1284 1273,1270 1278,1278 1257,1292 1235,1305"/>
  <polygon points="1227,1289 1225,1280 1225,1280 1225,1276 1225,1270 1250,1275 1274,1269 1276,1278 1252,1284 1227,1289"/>
  <polygon points="1225,1270 1227,1260 1227,1260 1228,1257 1230,1251 1252,1265 1276,1269 1274,1279 1250,1275 1225,1270"/>
  <polygon points="1230,1251 1235,1243 1235,1243 1238,1240 1243,1235 1257,1257 1278,1270 1273,1278 1252,1265 1230,1251"/>
  <polygon points="1243,1235 1251,1230 1251,1230 1254,1229 1260,1227 1265,1252 1278,1273 1270,1278 1257,1257 1243,1235"/>
  <polygon points="1260,1227 1270,1225 1270,1225 1273,1225 1280,1225 1275,1250 1279,1274 1269,1276 1265,1252 1260,1227"/>
  <polygon points="1280,1225 1289,1227 1289,1227 1297,1230 1284,1252 1278,1276 1269,1274 1275,1250 1280,1225"/>
  <polygon points="1297,1230 1305,1235 1305,1235 1308,1238 1313,1243 1292,1257 1278,1278 1270,1273 1284,1252 1297,1230"/>
  <polygon points="1313,1243 1318,1251 1318,1251 1320,1257 1297,1265 1275,1278 1270,1270 1292,1257 1313,1243"/>
  <polygon points="1320,1257 1323,1267 1323,1267 1324,1271 1324,1275 1323,1282 1300,1275 1276,1282 1273,1272 1297,1265 1320,1257"/>
  <polygon points="1323,1282 1320,1291 1320,1291 1318,1297 1297,1284 1273,1276 1276,1267 1300,1275 1323,1282"/>
  <polygon points="1318,1297 1313,1305 1313,1305 1310,1308 1305,1313 1292,1292 1270,1278 1275,1270 1297,1284 1318,1297"/>
  <polygon points="1305,1313 1297,1318 1297,1318 1291,1320 1284,1297 1270,1275 1278,1270 1292,1292 1305,1313"/>
  <polygon points="1291,1320 1282,1323 1282,1323 1279,1324 1275,1324 1267,1323 1275,1300 1267,1276 1276,1273 1284,1297 1291,1320"/>
  <polygon points="1775,1550 1525,1550 1525,1550 1521,1549 1517,1548 1513,1547 1510,1545 1507,1542 1504,1539 1502,1536 1501,1532 1500,1525 1525,1525 1525,1500 1775,1500 1775,1525 1775,1550"/>
  <polygon points="1500,1525 1500,1025 1500,1025 1500,1021 1501,1017 1502,1013 1504,1010 1507,1007 1510,1004 1513,1002 1517,1001 1525,1000 1525,1025 1550,1025 1550,1525 1525,1525 1500,1525"/>
  <polygon points="1525,1000 2025,1000 2025,1000 2028,1000 2032,1001 2036,1002 2039,1004 2042,1007 2045,1010 2047,1013 2048,1017 2050,1025 2025,1025 2025,1050 1525,1050 1525,1025 1525,1000"/>
  <polygon points="2050,1025 2050,1525 2050,1525 2049,1528 2048,1532 2047,1536 2045,1539 2042,1542 2039,1545 2036,1547 2032,1548 2025,1550 2025,1525 2000,1525 2000,1025 2025,1025 2050,1025"/>
  <polygon points="2025,1525 2025,1550 1775,1550 1775,1525 1775,1500 2025,1500 2025,1525"/>
 </g>
 <g style="stroke:none;fill:rgb(255,0,0)">
  <polygon points="1775,1300 1765,1297 1757,1292 1752,1284 1750,1275 1752,1265 1757,1257 1765,1252 1775,1250 1784,1252 1792,1257 1797,1265 1800,1275 1797,1284 1792,1292 1784,1297 1775,1300"/>
 </g>
 <g style="stroke:none;fill:rgb(0,0,0)">
  <polygon points="1767,1323 1757,1320 1757,1320 1751,1318 1765,1297 1772,1273 1782,1276 1775,1300 1767,1323"/>
  <polygon points="1751,1318 1743,1313 1743,1313 1740,1310 1735,1305 1757,1292 1770,1270 1778,1275 1765,1297 1751,1318"/>
  <polygon points="1735,1305 1730,1297 1730,1297 1727,1289 1752,1284 1773,1270 1778,1278 1757,1292 1735,1305"/>
  <polygon points="1727,1289 1725,1280 1725,1280 1725,1276 1725,1270 1750,1275 1774,1269 1776,1278 1752,1284 1727,1289"/>
  <polygon points="1725,1270 1727,1260 1727,1260 1728,1257 1730,1251 1752,1265 1776,1269 1774,1279 1750,1275 1725,1270"/>
  <polygon points="1730,1251 1735,1243 1735,1243 1738,1240 1743,1235 1757,1257 1778,1270 1773,1278 1752,1265 1730,1251"/>
  <polygon points="1743,1235 1751,1230 1751,1230 1754,1229 1760,1227 1765,1252 1778,1273 1770,1278 1757,1257 1743,1235"/>
  <polygon points="1760,1227 1770,1225 1770,1225 1773,1225 1780,1225 1775,1250 1779,1274 1769,1276 1765,1252 1760,1227"/>
  <polygon points="1780,1225 1789,1227 1789,1227 1797,1230 1784,1252 1778,1276 1769,1274 1775,1250 1780,1225"/>
  <polygon points="1797,1230 1805,1235 1805,1235 1808,1238 1813,1243 1792,1257 1778,1278 1770,1273 1784,1252 1797,1230"/>
  <polygon points="1813,1243 1818,1251 1818,1251 1820,1257 1797,1265 1775,1278 1770,1270 1792,1257 1813,1243"/>
  <polygon points="1820,1257 1823,1267 1823,1267 1824,1271 1824,1275 1823,1282 1800,1275 1776,1282 1773,1272 1797,1265 1820,1257"/>
  <polygon points="1823,1282 1820,1291 1820,1291 1818,1297 1797,1284 1773,1276 1776,1267 1800,1275 1823,1282"/>
  <polygon points="1818,1297 1813,1305 1813,1305 1810,1308 1805,1313 1792,1292 1770,1278 1775,1270 1797,1284 1818,1297"/>
  <polygon points="1805,1313 1797,1318 1797,1318 1791,1320 1784,1297 1770,1275 1778,1270 1792,1292 1805,1313"/>
  <polygon points="1791,1320 1782,1323 1782,1323 1779,1324 1775,1324 1767,1323 1775,1300 1767,1276 1776,1273 1784,1297 1791,1320"/>
  <polygon points="275,2050 25,2050 25,2050 21,2049 17,2048 13,2047 10,2045 7,2042 4,2039 2,2036 1,2032 0,2025 25,2025 25,2000 275,2000 275,2025 275,2050"/>
  <polygon points="0,2025 0,1525 0,1525 0,1521 1,1517 2,1513 4,1510 7,1507 10,1504 13,1502 17,1501 25,1500 25,1525 50,1525 50,2025 25,2025 0,2025"/>
  <polygon points="25,1500 525,1500 525,1500 528,1500 532,1501 536,1502 539,1504 542,1507 545,1510 547,1513 548,1517 550,1525 525,1525 525,1550 25,1550 25,1525 25,1500"/>
  <polygon points="550,1525 550,2025 550,2025 549,2028 548,2032 547,2036 545,2039 542,2042 539,2045 536,2047 532,2048 525,2050 525,2025 500,2025 500,1525 525,1525 550,1525"/>
  <polygon points="525,2025 525,2050 275,2050 275,2025 275,2000 525,2000 525,2025"/>
 </g>
 <g style="stroke:none;fill:rgb(255,0,0)">
  <polygon points="275,1800 265,1797 257,1792 252,1784 250,1775 252,1765 257,1757 265,1752 275,1750 284,1752 292,1757 297,1765 300,1775 297,1784 292,1792 284,1797 275,1800"/>
 </g>
 <g style="stroke:none;fill:rgb(0,0,0)">
  <polygon points="267,1823 257,1820 257,1820 251,1818 265,1797 272,1773 282,1776 275,1800 267,1823"/>
  <polygon points="251,1818 243,1813 243,1813 240,1810 235,1805 257,1792 270,1770 278,1775 265,1797 251,1818"/>
  <polygon points="235,1805 230,1797 230,1797 227,1789 252,1784 273,1770 278,1778 257,1792 235,1805"/>
  <polygon points="227,1789 225,1780 225,1780 225,1776 225,1770 250,1775 274,1769 276,1778 252,1784 227,1789"/>
  <polygon points="225,1770 227,1760 227,1760 228,1757 230,1751 252,1765 276,1769 274,1779 250,1775 225,1770"/>
  <polygon points="230,1751 235,1743 235,1743 238,1740 243,1735 257,1757 278,1770 273,1778 252,1765 230,1751"/>
  <polygon points="243,1735 251,1730 251,1730 254,1729 260,1727 265,1752 278,1773 270,1778 257,1757 243,1735"/>
  <polygon points="260,1727 270,1725 270,1725 273,1725 280,1725 275,1750 279,1774 269,1776 265,1752 260,1727"/>
  <polygon points="280,1725 289,1727 289,1727 297,1730 284,1752 278,1776 269,1774 275,1750 280,1725"/>
  <polygon points="297,1730 305,1735 305,1735 308,1738 313,1743 292,1757 278,1778 270,1773 284,1752 297,1730"/>
  <polygon points="313,1743 318,1751 318,1751 320,1757 297,1765 275,1778 270,1770 292,1757 313,1743"/>
  <polygon points="320,1757 323,1767 323,1767 324,1771 324,1775 323,1782 300,1775 276,1782 273,1772 297,1765 320,1757"/>
  <polygon points="323,1782 320,1791 320,1791 318,1797 297,1784 273,1776 276,1767 300,1775 323,1782"/>
  <polygon points="318,1797 313,1805 313,1805 310,1808 305,1813 292,1792 270,1778 275,1770 297,1784 318,1797"/>
  <polygon points="305,1813 297,1818 297,1818 291,1820 284,1797 270,1775 278,1770 292,1792 305,1813"/>
  <polygon points="291,1820 282,1823 282,1823 279,1824 275,1824 267,1823 275,1800 267,1776 276,1773 284,1797 291,1820"/>
  <polygon points="775,2050 525,2050 525,2050 521,2049 517,2048 513,2047 510,2045 507,2042 504,2039 502,2036 501,2032 500,2025 525,2025 525,2000 775,2000 775,2025 775,2050"/>
  <polygon points="500,2025 500,1525 500,1525 500,1521 501,1517 502,1513 504,1510 507,1507 510,1504 513,1502 517,1501 525,1500 525,1525 550,1525 550,2025 525,2025 500,2025"/>
  <polygon points="525,1500 1025,1500 1025,1500 1028,1500 1032,1501 1036,1502 1039,1504 1042,1507 1045,1510 1047,1513 1048,1517 1050,1525 1025,1525 1025,1550 525,1550 525,1525 525,1500"/>
  <polygon points="1050,1525 1050,2025 1050,2025 1049,2028 1048,2032 1047,2036 1045,2039 1042,2042 1039,2045 1036,2047 1032,2048 1025,2050 1025,2025 1000,2025 1000,1525 1025,1525 1050,1525"/>
  <polygon points="1025,2025 1025,2050 775,2050 775,2025 775,2000 1025,2000 1025,2025"/>
 </g>
 <g style="stroke:none;fill:rgb(255,0,0)">
  <polygon points="775,1800 765,1797 757,1792 752,1784 750,1775 752,1765 757,1757 765,1752 775,1750 784,1752 792,1757 797,1765 800,1775 797,1784 792,1792 784,1797 775,1800"/>
 </g>
 <g style="stroke:none;fill:rgb(0,0,0)">
  <polygon points="767,1823 757,1820 757,1820 751,1818 765,1797 772,1773 782,1776 775,1800 767,1823"/>
  <polygon points="751,1818 743,1813 743,1813 740,1810 735,1805 757,1792 770,1770 778,1775 765,1797 751,1818"/>
  <polygon points="735,1805 730,1797 730,1797 727,1789 752,1784 773,1770 778,1778 757,1792 735,1805"/>
  <polygon points="727,1789 725,1780 725,1780 725,1776 725,1770 750,1775 774,1769 776,1778 752,1784 727,1789"/>
  <polygon points="725,1770 727,1760 727,1760 728,1757 730,1751 752,1765 776,1769 774,1779 750,1775 725,1770"/>
  <polygon points="730,1751 735,1743 735,1743 738,1740 743,1735 757,1757 778,1770 773,1778 752,1765 730,1751"/>
  <polygon points="743,1735 751,1730 751,1730 754,1729 760,1727 765,1752 778,1773 770,1778 757,1757 743,1735"/>
  <polygon points="760,1727 770,1725 770,1725 773,1725 780,1725 775,1750 779,1774 769,1776 765,1752 760,1727"/>
  <polygon points="780,1725 789,1727 789,1727 797,1730 784,1752 778,1776 769,1774 775,1750 780,1725"/>
  <polygon points="797,1730 805,1735 805,1735 808,1738 813,1743 792,1757 778,1778 770,1773 784,1752 797,1730"/>
  <polygon points="813,1743 818,1751 818,1751 820,1757 797,1765 775,1778 770,1770 792,1757 813,1743"/>
  <polygon points="820,1757 823,1767 823,1767 824,1771 824,1775 823,1782 800,1775 776,1782 773,1772 797,1765 820,1757"/>
  <polygon points="823,1782 820,1791 820,1791 818,1797 797,1784 773,1776 776,1767 800,1775 823,1782"/>
  <polygon points="818,1797 813,1805 813,1805 810,1808 805,1813 792,1792 770,1778 775,1770 797,1784 818,1797"/>
  <polygon points="805,1813 797,1818 797,1818 791,1820 784,1797 770,1775 778,1770 792,1792 805,1813"/>
  <polygon points="791,1820 782,1823 782,1823 779,1824 775,1824 767,1823 775,1800 767,1776 776,1773 784,1797 791,1820"/>
  <polygon points="1275,2050 1025,2050 1025,2050 1021,2049 1017,2048 1013,2047 1010,2045 1007,2042 1004,2039 1002,2036 1001,2032 1000,2025 1025,2025 1025,2000 1275,2000 1275,2025 1275,2050"/>
  <polygon points="1000,2025 1000,1525 1000,1525 1000,1521 1001,1517 1002,1513 1004,1510 1007,1507 1010,1504 1013,1502 1017,1501 1025,1500 1025,1525 1050,1525 1050,2025 1025,2025 1000,2025"/>
  <polygon points="1025,1500 1525,1500 1525,1500 1528,1500 1532,1501 1536,1502 1539,1504 1542,1507 1545,1510 1547,1513 1548,1517 1550,1525 1525,1525 1525,1550 1025,1550 1025,1525 1025,1500"/>
  <polygon points="1550,1525 1550,2025 1550,2025 1549,2028 1548,2032 1547,2036 1545,2039 1542,2042 1539,2045 1536,2047 1532,2048 1525,2050 1525,2025 1500,2025 1500,1525 1525,1525 1550,1525"/>
  <polygon points="1525,2025 1525,2050 1275,2050 1275,2025 1275,2000 1525,2000 1525,2025"/>
 </g>
 <g style="stroke:none;fill:rgb(255,0,0)">
  <polygon points="1275,1800 1265,1797 1257,1792 1252,1784 1250,1775 1252,1765 1257,1757 1265,1752 1275,1750 1284,1752 1292,1757 1297,1765 1300,1775 1297,1784 1292,1792 1284,1797 1275,1800"/>
 </g>
 <g style="stroke:none;fill:rgb(0,0,0)">
  <polygon points="1267,1823 1257,1820 1257,1820 1251,1818 1265,1797 1272,1773 1282,1776 1275,1800 1267,1823"/>
  <polygon points="1251,1818 1243,1813 1243,1813 1240,1810 1235,1805 1257,1792 1270,1770 1278,1775 1265,1797 1251,1818"/>
  <polygon points="1235,1805 1230,1797 1230,1797 1227,1789 1252,1784 1273,1770 1278,1778 1257,1792 1235,1805"/>
  <polygon points="1227,1789 1225,1780 1225,1780 1225,1776 1225,1770 1250,1775 1274,1769 1276,1778 1252,1784 1227,1789"/>
  <polygon points="1225,1770 1227,1760 1227,1760 1228,1757 1230,1751 1252,1765 1276,1769 1274,1779 1250,1775 1225,1770"/>
  <polygon points="1230,1751 1235,1743 1235,1743 1238,1740 1243,1735 1257,1757 1278,1770 1273,1778 1252,1765 1230,1751"/>
  <polygon points="1243,1735 1251,1730 1251,1730 1254,1729 1260,1727 1265,1752 1278,1773 1270,1778 1257,1757 1243,1735"/>
  <polygon points="1260,1727 1270,1725 1270,1725 1273,1725 1280,1725 1275,1750 1279,1774 1269,1776 1265,1752 1260,1727"/>
  <polygon points="1280,1725 1289,1727 1289,1727 1297,1730 1284,1752 1278,1776 1269,1774 1275,1750 1280,1725"/>
  <polygon points="1297,1730 1305,1735 1305,1735 1308,1738 1313,1743 1292,1757 1278,1778 1270,1773 1284,1752 1297,1730"/>
  <polygon points="1313,1743 1318,1751 1318,1751 1320,1757 1297,1765 1275,1778 1270,1770 1292,1757 1313,1743"/>
  <polygon points="1320,1757 1323,1767 1323,1767 1324,1771 1324,1775 1323,1782 1300,1775 1276,1782 1273,1772 1297,1765 1320,1757"/>
  <polygon points="1323,1782 1320,1791 1320,1791 1318,1797 1297,1784 1273,1776 1276,1767 1300,1775 1323,1782"/>
  <polygon points="1318,1797 1313,1805 1313,1805 1310,1808 1305,1813 1292,1792 1270,1778 1275,1770 1297,1784 1318,1797"/>
  <polygon points="1305,1813 1297,1818 1297,1818 1291,1820 1284,1797 1270,1775 1278,1770 1292,1792 1305,1813"/>
  <polygon points="1291,1820 1282,1823 1282,1823 1279,1824 1275,1824 1267,1823 1275,1800 1267,1776 1276,1773 1284,1797 1291,1820"/>
  <polygon points="1775,2050 1525,2050 1525,2050 1521,2049 1517,2048 1513,2047 1510,2045 1507,2042 1504,2039 1502,2036 1501,2032 1500,2025 1525,2025 1525,2000 1775,2000 1775,2025 1775,2050"/>
  <polygon points="1500,2025 1500,1525 1500,1525 1500,1521 1501,1517 1502,1513 1504,1510 1507,1507 1510,1504 1513,1502 1517,1501 1525,1500 1525,1525 1550,1525 1550,2025 1525,2025 1500,2025"/>
  <polygon points="1525,1500 2025,1500 2025,1500 2028,1500 2032,1501 2036,1502 2039,1504 2042,1507 2045,1510 2047,1513 2048,1517 2050,1525 2025,1525 2025,1550 1525,1550 1525,1525 1525,1500"/>
  <polygon points="2050,1525 2050,2025 2050,2025 2049,2028 2048,2032 2047,2036 2045,2039 2042,2042 2039,2045 2036,2047 2032,2048 2025,2050 2025,2025 2000,2025 2000,1525 2025,1525 2050,1525"/>
  <polygon points="2025,2025 2025,2050 1775,2050 1775,2025 1775,2000 2025,2000 2025,2025"/>
 </g>
 <g style="stroke:none;fill:rgb(255,0,0)">
  <polygon points="1775,1800 1765,1797 1757,1792 1752,1784 1750,1775 1752,1765 1757,1757 1765,1752 1775,1750 1784,1752 1792,1757 1797,1765 1800,1775 1797,1784 1792,1792 1784,1797 1775,1800"/>
 </g>
 <g style="stroke:none;fill:rgb(0,0,0)">
  <polygon points="1767,1823 1757,1820 1757,1820 1751,1818 1765,1797 1772,1773 1782,1776 1775,1800 1767,1823"/>
  <polygon points="1751,1818 1743,1813 1743,1813 1740,1810 1735,1805 1757,1792 1770,1770 1778,1775 1765,1797 1751,1818"/>
  <polygon points="1735,1805 1730,1797 1730,1797 1727,1789 1752,1784 1773,1770 1778,1778 1757,1792 1735,1805"/>
  <polygon points="1727,1789 1725,1780 1725,1780 1725,1776 1725,1770 1750,1775 1774,1769 1776,1778 1752,1784 1727,1789"/>
  <polygon points="1725,1770 1727,1760 1727,1760 1728,1757 1730,1751 1752,1765 1776,1769 1774,1779 1750,1775 1725,1770"/>
  <polygon points="1730,1751 1735,1743 1735,1743 1738,1740 1743,1735 1757,1757 1778,1770 1773,1778 1752,1765 1730,1751"/>
  <polygon points="1743,1735 1751,1730 1751,1730 1754,1729 1760,1727 1765,1752 1778,1773 1770,1778 1757,1757 1743,1735"/>
  <polygon points="1760,1727 1770,1725 1770,1725 1773,1725 1780,1725 1775,1750 1779,1774 1769,1776 1765,1752 1760,1727"/>
  <polygon points="1780,1725 1789,1727 1789,1727 1797,1730 1784,1752 1778,1776 1769,1774 1775,1750 1780,1725"/>
  <polygon points="1797,1730 1805,1735 1805,1735 1808,1738 1813,1743 1792,1757 1778,1778 1770,1773 1784,1752 1797,1730"/>
  <polygon points="1813,1743 1818,1751 1818,1751 1820,1757 1797,1765 1775,1778 1770,1770 1792,1757 1813,1743"/>
  <polygon points="1820,1757 1823,1767 1823,1767 1824,1771 1824,1775 1823,1782 1800,1775 1776,1782 1773,1772 1797,1765 1820,1757"/>
  <polygon points="1823,1782 1820,1791 1820,1791 1818,1797 1797,1784 1773,1776 1776,1767 1800,1775 1823,1782"/>
  <polygon points="1818,1797 1813,1805 1813,1805 1810,1808 1805,1813 1792,1792 1770,1778 1775,1770 1797,1784 1818,1797"/>
  <polygon points="1805,1813 1797,1818 1797,1818 1791,1820 1784,1797 1770,1775 1778,1770 1792,1792 1805,1813"/>
  <polygon points="1791,1820 1782,1823 1782,1823 1779,1824 1775,1824 1767,1823 1775,1800 1767,1776 1776,1773 1784,1797 1791,1820"/>
  <polygon points="2763,1243 2513,1243 2513,1243 2509,1242 2505,1241 2501,1240 2498,1238 2495,1235 2492,1232 2490,1229 2489,1225 2488,1218 2513,1218 2513,1193 2763,1193 2763,1218 2763,1243"/>
  <polygon points="2488,1218 2488,718 2488,718 2488,714 2489,710 2490,706 2492,703 2495,700 2498,697 2501,695 2505,694 2513,693 2513,718 2538,718 2538,1218 2513,1218 2488,1218"/>
  <polygon points="2513,693 3013,693 3013,693 3016,693 3020,694 3024,695 3027,697 3030,700 3033,703 3035,706 3036,710 3038,718 3013,718 3013,743 2513,743 2513,718 2513,693"/>
  <polygon points="3038,718 3038,1218 3038,1218 3037,1221 3036,1225 3035,1229 3033,1232 3030,1235 3027,1238 3024,1240 3020,1241 3013,1243 3013,1218 2988,1218 2988,718 3013,718 3038,718"/>
  <polygon points="3013,1218 3013,1243 2763,1243 2763,1218 2763,1193 3013,1193 3013,1218"/>
 </g>
 <g style="stroke:none;fill:rgb(255,0,0)">
  <polygon points="2763,993 2753,990 2745,985 2740,977 2738,968 2740,958 2745,950 2753,945 2763,943 2772,945 2780,950 2785,958 2788,968 2785,977 2780,985 2772,990 2763,993"/>
 </g>
 <g style="stroke:none;fill:rgb(0,0,0)">
  <polygon points="2755,1016 2745,1013 2745,1013 2739,1011 2753,990 2760,966 2770,969 2763,993 2755,1016"/>
  <polygon points="2739,1011 2731,1006 2731,1006 2728,1003 2723,998 2745,985 2758,963 2766,968 2753,990 2739,1011"/>
  <polygon points="2723,998 2718,990 2718,990 2715,982 2740,977 2761,963 2766,971 2745,985 2723,998"/>
  <polygon points="2715,982 2713,973 2713,973 2713,969 2713,963 2738,968 2762,962 2764,971 2740,977 2715,982"/>
  <polygon points="2713,963 2715,953 2715,953 2716,950 2718,944 2740,958 2764,962 2762,972 2738,968 2713,963"/>
  <polygon points="2718,944 2723,936 2723,936 2726,933 2731,928 2745,950 2766,963 2761,971 2740,958 2718,944"/>
  <polygon points="2731,928 2739,923 2739,923 2742,922 2748,920 2753,945 2766,966 2758,971 2745,950 2731,928"/>
  <polygon points="2748,920 2758,918 2758,918 2761,918 2768,918 2763,943 2767,967 2757,969 2753,945 2748,920"/>
  <polygon points="2768,918 2777,920 2777,920 2785,923 2772,945 2766,969 2757,967 2763,943 2768,918"/>
  <polygon points="2785,923 2793,928 2793,928 2796,931 2801,936 2780,950 2766,971 2758,966 2772,945 2785,923"/>
  <polygon points="2801,936 2806,944 2806,944 2808,950 2785,958 2763,971 2758,963 2780,950 2801,936"/>
  <polygon points="2808,950 2811,960 2811,960 2812,964 2812,968 2811,975 2788,968 2764,975 2761,965 2785,958 2808,950"/>
  <polygon points="2811,975 2808,984 2808,984 2806,990 2785,977 2761,969 2764,960 2788,968 2811,975"/>
  <polygon points="2806,990 2801,998 2801,998 2798,1001 2793,1006 2780,985 2758,971 2763,963 2785,977 2806,990"/>
  <polygon points="2793,1006 2785,1011 2785,1011 2779,1013 2772,990 2758,968 2766,963 2780,985 2793,1006"/>
  <polygon points="2779,1013 2770,1016 2770,1016 2767,1017 2763,1017 2755,1016 2763,993 2755,969 2764,966 2772,990 2779,1013"/>
  <polygon points="3263,1243 3013,1243 3013,1243 3009,1242 3005,1241 3001,1240 2998,1238 2995,1235 2992,1232 2990,1229 2989,1225 2988,1218 3013,1218 3013,1193 3263,1193 3263,1218 3263,1243"/>
  <polygon points="2988,1218 2988,718 2988,718 2988,714 2989,710 2990,706 2992,703 2995,700 2998,697 3001,695 3005,694 3013,693 3013,718 3038,718 3038,1218 3013,1218 2988,1218"/>
  <polygon points="3013,693 3513,693 3513,693 3516,693 3520,694 3524,695 3527,697 3530,700 3533,703 3535,706 3536,710 3538,718 3513,718 3513,743 3013,743 3013,718 3013,693"/>
  <polygon points="3538,718 3538,1218 3538,1218 3537,1221 3536,1225 3535,1229 3533,1232 3530,1235 3527,1238 3524,1240 3520,1241 3513,1243 3513,1218 3488,1218 3488,718 3513,718 3538,718"/>
  <polygon points="3513,1218 3513,1243 3263,1243 3263,1218 3263,1193 3513,1193 3513,1218"/>
 </g>
 <g style="stroke:none;fill:rgb(255,0,0)">
  <polygon points="3263,993 3253,990 3245,985 3240,977 3238,968 3240,958 3245,950 3253,945 3263,943 3272,945 3280,950 3285,958 3288,968 3285,977 3280,985 3272,990 3263,993"/>
 </g>
 <g style="stroke:none;fill:rgb(0,0,0)">
  <polygon points="3255,1016 3245,1013 3245,1013 3239,1011 3253,990 3260,966 3270,969 3263,993 3255,1016"/>
  <polygon points="3239,1011 3231,1006 3231,1006 3228,1003 3223,998 3245,985 3258,963 3266,968 3253,990 3239,1011"/>
  <polygon points="3223,998 3218,990 3218,990 3215,982 3240,977 3261,963 3266,971 3245,985 3223,998"/>
  <polygon points="3215,982 3213,973 3213,973 3213,969 3213,963 3238,968 3262,962 3264,971 3240,977 3215,982"/>
  <polygon points="3213,963 3215,953 3215,953 3216,950 3218,944 3240,958 3264,962 3262,972 3238,968 3213,963"/>
  <polygon points="3218,944 3223,936 3223,936 3226,933 3231,928 3245,950 3266,963 3261,971 3240,958 3218,944"/>
  <polygon points="3231,928 3239,923 3239,923 3242,922 3248,920 3253,945 3266,966 3258,971 3245,950 3231,928"/>
  <polygon points="3248,920 3258,918 3258,918 3261,918 3268,918 3263,943 3267,967 3257,969 3253,945 3248,920"/>
  <polygon points="3268,918 3277,920 3277,920 3285,923 3272,945 3266,969 3257,967 3263,943 3268,918"/>
  <polygon points="3285,923 3293,928 3293,928 3296,931 3301,936 3280,950 3266,971 3258,966 3272,945 3285,923"/>
  <polygon points="3301,936 3306,944 3306,944 3308,950 3285,958 3263,971 3258,963 3280,950 3301,936"/>
  <polygon points="3308,950 3311,960 3311,960 3312,964 3312,968 3311,975 3288,968 3264,975 3261,965 3285,958 3308,950"/>
  <polygon points="3311,975 3308,984 3308,984 3306,990 3285,977 3261,969 3264,960 3288,968 3311,975"/>
  <polygon points="3306,990 3301,998 3301,998 3298,1001 3293,1006 3280,985 3258,971 3263,963 3285,977 3306,990"/>
  <polygon points="3293,1006 3285,1011 3285,1011 3279,1013 3272,990 3258,968 3266,963 3280,985 3293,1006"/>
  <polygon points="3279,1013 3270,1016 3270,1016 3267,1017 3263,1017 3255,1016 3263,993 3255,969 3264,966 3272,990 3279,1013"/>
  <polygon points="3763,1243 3513,1243 3513,1243 3509,1242 3505,1241 3501,1240 3498,1238 3495,1235 3492,1232 3490,1229 3489,1225 3488,1218 3513,1218 3513,1193 3763,1193 3763,1218 3763,1243"/>
  <polygon points="3488,1218 3488,718 3488,718 3488,714 3489,710 3490,706 3492,703 3495,700 3498,697 3501,695 3505,694 3513,693 3513,718 3538,718 3538,1218 3513,1218 3488,1218"/>
  <polygon points="3513,693 4013,693 4013,693 4016,693 4020,694 4024,695 4027,697 4030,700 4033,703 4035,706 4036,710 4038,718 4013,718 4013,743 3513,743 3513,718 3513,693"/>
  <polygon points="4038,718 4038,1218 4038,1218 4037,1221 4036,1225 4035,1229 4033,1232 4030,1235 4027,1238 4024,1240 4020,1241 4013,1243 4013,1218 3988,1218 3988,718 4013,718 4038,718"/>
  <polygon points="4013,1218 4013,1243 3763,1243 3763,1218 3763,1193 4013,1193 4013,1218"/>
 </g>
 <g style="stroke:none;fill:rgb(255,0,0)">
  <polygon points="3763,993 3753,990 3745,985 3740,977 3738,968 3740,958 3745,950 3753,945 3763,943 3772,945 3780,950 3785,958 3788,968 3785,977 3780,985 3772,990 3763,993"/>
 </g>
 <g style="stroke:none;fill:rgb(0,0,0)">
  <polygon points="3755,1016 3745,1013 3745,1013 3739,1011 3753,990 3760,966 3770,969 3763,993 3755,1016"/>
  <polygon points="3739,1011 3731,1006 3731,1006 3728,1003 3723,998 3745,985 3758,963 3766,968 3753,990 3739,1011"/>
  <polygon points="3723,998 3718,990 3718,990 3715,982 3740,977 3761,963 3766,971 3745,985 3723,998"/>
  <polygon points="3715,982 3713,973 3713,973 3713,969 3713,963 3738,968 3762,962 3764,971 3740,977 3715,982"/>
  <polygon points="3713,963 3715,953 3715,953 3716,950 3718,944 3740,958 3764,962 3762,972 3738,968 3713,963"/>
  <polygon points="3718,944 3723,936 3723,936 3726,933 3731,928 3745,950 3766,963 3761,971 3740,958 3718,944"/>
  <polygon points="3731,928 3739,923 3739,923 3742,922 3748,920 3753,945 3766,966 3758,971 3745,950 3731,928"/>
  <polygon points="3748,920 3758,918 3758,918 3761,918 3768,918 3763,943 3767,967 3757,969 3753,945 3748,920"/>
  <polygon points="3768,918 3777,920 3777,920 3785,923 3772,945 3766,969 3757,967 3763,943 3768,918"/>
  <polygon points="3785,923 3793,928 3793,928 3796,931 3801,936 3780,950 3766,971 3758,966 3772,945 3785,923"/>
  <polygon points="3801,936 3806,944 3806,944 3808,950 3785,958 3763,971 3758,963 3780,950 3801,936"/>
  <polygon points="3808,950 3811,960 3811,960 3812,964 3812,968 3811,975 3788,968 3764,975 3761,965 3785,958 3808,950"/>
  <polygon points="3811,975 3808,984 3808,984 3806,990 3785,977 3761,969 3764,960 3788,968 3811,975"/>
  <polygon points="3806,990 3801,998 3801,998 3798,1001 3793,1006 3780,985 3758,971 3763,963 3785,977 3806,990"/>
  <polygon points="3793,1006 3785,1011 3785,1011 3779,1013 3772,990 3758,968 3766,963 3780,985 3793,1006"/>
  <polygon points="3779,1013 3770,1016 3770,1016 3767,1017 3763,1017 3755,1016 3763,993 3755,969 3764,966 3772,990 3779,1013"/>
  <polygon points="4263,1243 4013,1243 4013,1243 4009,1242 4005,1241 4001,1240 3998,1238 3995,1235 3992,1232 3990,1229 3989,1225 3988,1218 4013,1218 4013,1193 4263,1193 4263,1218 4263,1243"/>
  <polygon points="3988,1218 3988,718 3988,718 3988,714 3989,710 3990,706 3992,703 3995,700 3998,697 4001,695 4005,694 4013,693 4013,718 4038,718 4038,1218 4013,1218 3988,1218"/>
  <polygon points="4013,693 4513,693 4513,693 4516,693 4520,694 4524,695 4527,697 4530,700 4533,703 4535,706 4536,710 4538,718 4513,718 4513,743 4013,743 4013,718 4013,693"/>
  <polygon points="4538,718 4538,1218 4538,1218 4537,1221 4536,1225 4535,1229 4533,1232 4530,1235 4527,1238 4524,1240 4520,1241 4513,1243 4513,1218 4488,1218 4488,718 4513,718 4538,718"/>
  <polygon points="4513,1218 4513,1243 4263,1243 4263,1218 4263,1193 4513,1193 4513,1218"/>
 </g>
 <g style="stroke:none;fill:rgb(255,0,0)">
  <polygon points="4263,993 4253,990 4245,985 4240,977 4238,968 4240,958 4245,950 4253,945 4263,943 4272,945 4280,950 4285,958 4288,968 4285,977 4280,985 4272,990 4263,993"/>
 </g>
 <g style="stroke:none;fill:rgb(0,0,0)">
  <polygon points="4255,1016 4245,1013 4245,1013 4239,1011 4253,990 4260,966 4270,969 4263,993 4255,1016"/>
  <polygon points="4239,1011 4231,1006 4231,1006 4228,1003 4223,998 4245,985 4258,963 4266,968 4253,990 4239,1011"/>
  <polygon points="4223,998 4218,990 4218,990 4215,982 4240,977 4261,963 4266,971 4245,985 4223,998"/>
  <polygon points="4215,982 4213,973 4213,973 4213,969 4213,963 4238,968 4262,962 4264,971 4240,977 4215,982"/>
  <polygon points="4213,963 4215,953 4215,953 4216,950 4218,944 4240,958 4264,962 4262,972 4238,968 4213,963"/>
  <polygon points="4218,944 4223,936 4223,936 4226,933 4231,928 4245,950 4266,963 4261,971 4240,958 4218,944"/>
  <polygon points="4231,928 4239,923 4239,923 4242,922 4248,920 4253,945 4266,966 4258,971 4245,950 4231,928"/>
  <polygon points="4248,920 4258,918 4258,918 4261,918 4268,918 4263,943 4267,967 4257,969 4253,945 4248,920"/>
  <polygon points="4268,918 4277,920 4277,920 4285,923 4272,945 4266,969 4257,967 4263,943 4268,918"/>
  <polygon points="4285,923 4293,928 4293,928 4296,931 4301,936 4280,950 4266,971 4258,966 4272,945 4285,923"/>
  <polygon points="4301,936 4306,944 4306,944 4308,950 4285,958 4263,971 4258,963 4280,950 4301,936"/>
  <polygon points="4308,950 4311,960 4311,960 4312,964 4312,968 4311,975 4288,968 4264,975 4261,965 4285,958 4308,950"/>
  <polygon points="4311,975 4308,984 4308,984 4306,990 4285,977 4261,969 4264,960 4288,968 4311,975"/>
  <polygon points="4306,990 4301,998 4301,998 4298,1001 4293,1006 4280,985 4258,971 4263,963 4285,977 4306,990"/>
  <polygon points="4293,1006 4285,1011 4285,1011 4279,1013 4272,990 4258,968 4266,963 4280,985 4293,1006"/>
  <polygon points="4279,1013 4270,1016 4270,1016 4267,1017 4263,1017 4255,1016 4263,993 4255,969 4264,966 4272,990 4279,1013"/>
  <polygon points="2763,1743 2513,1743 2513,1743 2509,1742 2505,1741 2501,1740 2498,1738 2495,1735 2492,1732 2490,1729 2489,1725 2488,1718 2513,1718 2513,1693 2763,1693 2763,1718 2763,1743"/>
  <polygon points="2488,1718 2488,1218 2488,1218 2488,1214 2489,1210 2490,1206 2492,1203 2495,1200 2498,1197 2501,1195 2505,1194 2513,1193 2513,1218 2538,1218 2538,1718 2513,1718 2488,1718"/>
  <polygon points="2513,1193 3013,1193 3013,1193 3016,1193 3020,1194 3024,1195 3027,1197 3030,1200 3033,1203 3035,1206 3036,1210 3038,1218 3013,1218 3013,1243 2513,1243 2513,1218 2513,1193"/>
  <polygon points="3038,1218 3038,1718 3038,1718 3037,1721 3036,1725 3035,1729 3033,1732 3030,1735 3027,1738 3024,1740 3020,1741 3013,1743 3013,1718 2988,1718 2988,1218 3013,1218 3038,1218"/>
  <polygon points="3013,1718 3013,1743 2763,1743 2763,1718 2763,1693 3013,1693 3013,1718"/>
 </g>
 <g style="stroke:none;fill:rgb(255,0,0)">
  <polygon points="2763,1493 2753,1490 2745,1485 2740,1477 2738,1468 2740,1458 2745,1450 2753,1445 2763,1443 2772,1445 2780,1450 2785,1458 2788,1468 2785,1477 2780,1485 2772,1490 2763,1493"/>
 </g>
 <g style="stroke:none;fill:rgb(0,0,0)">
  <polygon points="2755,1516 2745,1513 2745,1513 2739,1511 2753,1490 2760,1466 2770,1469 2763,1493 2755,1516"/>
  <polygon points="2739,1511 2731,1506 2731,1506 2728,1503 2723,1498 2745,1485 2758,1463 2766,1468 2753,1490 2739,1511"/>
  <polygon points="2723,1498 2718,1490 2718,1490 2715,1482 2740,1477 2761,1463 2766,1471 2745,1485 2723,1498"/>
  <polygon points="2715,1482 2713,1473 2713,1473 2713,1469 2713,1463 2738,1468 2762,1462 2764,1471 2740,1477 2715,1482"/>
  <polygon points="2713,1463 2715,1453 2715,1453 2716,1450 2718,1444 2740,1458 2764,1462 2762,1472 2738,1468 2713,1463"/>
  <polygon points="2718,1444 2723,1436 2723,1436 2726,1433 2731,1428 2745,1450 2766,1463 2761,1471 2740,1458 2718,1444"/>
  <polygon points="2731,1428 2739,1423 2739,1423 2742,1422 2748,1420 2753,1445 2766,1466 2758,1471 2745,1450 2731,1428"/>
  <polygon points="2748,1420 2758,1418 2758,1418 2761,1418 2768,1418 2763,1443 2767,1467 2757,1469 2753,1445 2748,1420"/>
  <polygon points="2768,1418 2777,1420 2777,1420 2785,1423 2772,1445 2766,1469 2757,1467 2763,1443 2768,1418"/>
  <polygon points="2785,1423 2793,1428 2793,1428 2796,1431 2801,1436 2780,1450 2766,1471 2758,1466 2772,1445 2785,1423"/>
  <polygon points="2801,1436 2806,1444 2806,1444 2808,1450 2785,1458 2763,1471 2758,1463 2780,1450 2801,1436"/>
  <polygon points="2808,1450 2811,1460 2811,1460 2812,1464 2812,1468 2811,1475 2788,1468 2764,1475 2761,1465 2785,1458 2808,1450"/>
  <polygon points="2811,1475 2808,1484 2808,1484 2806,1490 2785,1477 2761,1469 2764,1460 2788,1468 2811,1475"/>
  <polygon points="2806,1490 2801,1498 2801,1498 2798,1501 2793,1506 2780,1485 2758,1471 2763,1463 2785,1477 2806,1490"/>
  <polygon points="2793,1506 2785,1511 2785,1511 2779,1513 2772,1490 2758,1468 2766,1463 2780,1485 2793,1506"/>
  <polygon points="2779,1513 2770,1516 2770,1516 2767,1517 2763,1517 2755,1516 2763,1493 2755,1469 2764,1466 2772,1490 2779,1513"/>
  <polygon points="3263,1743 3013,1743 3013,1743 3009,1742 3005,1741 3001,1740 2998,1738 2995,1735 2992,1732 2990,1729 2989,1725 2988,1718 3013,1718 3013,1693 3263,1693 3263,1718 3263,1743"/>
  <polygon points="2988,1718 2988,1218 2988,1218 2988,1214 2989,1210 2990,1206 2992,1203 2995,1200 2998,1197 3001,1195 3005,1194 3013,1193 3013,1218 3038,1218 3038,1718 3013,1718 2988,1718"/>
  <polygon points="3013,1193 3513,1193 3513,1193 3516,1193 3520,1194 3524,1195 3527,1197 3530,1200 3533,1203 3535,1206 3536,1210 3538,1218 3513,1218 3513,1243 3013,1243 3013,1218 3013,1193"/>
  <polygon points="3538,1218 3538,1718 3538,1718 3537,1721 3536,1725 3535,1729 3533,1732 3530,1735 3527,1738 3524,1740 3520,1741 3513,1743 3513,1718 3488,1718 3488,1218 3513,1218 3538,1218"/>
  <polygon points="3513,1718 3513,1743 3263,1743 3263,1718 3263,1693 3513,1693 3513,1718"/>
 </g>
 <g style="stroke:none;fill:rgb(255,0,0)">
  <polygon points="3263,1493 3253,1490 3245,1485 3240,1477 3238,1468 3240,1458 3245,1450 3253,1445 3263,1443 3272,1445 3280,1450 3285,1458 3288,1468 3285,1477 3280,1485 3272,1490 3263,1493"/>
 </g>
 <g style="stroke:none;fill:rgb(0,0,0)">
  <polygon points="3255,1516 3245,1513 3245,1513 3239,1511 3253,1490 3260,1466 3270,1469 3263,1493 3255,1516"/>
  <polygon points="3239,1511 3231,1506 3231,1506 3228,1503 3223,1498 3245,1485 3258,1463 3266,1468 3253,1490 3239,1511"/>
  <polygon points="3223,1498 3218,1490 3218,1490 3215,1482 3240,1477 3261,1463 3266,1471 3245,1485 3223,1498"/>
  <polygon points="3215,1482 3213,1473 3213,1473 3213,1469 3213,1463 3238,1468 3262,1462 3264,1471 3240,1477 3215,1482"/>
  <polygon points="3213,1463 3215,1453 3215,1453 3216,1450 3218,1444 3240,1458 3264,1462 3262,1472 3238,1468 3213,1463"/>
  <polygon points="3218,1444 3223,1436 3223,1436 3226,1433 3231,1428 3245,1450 3266,1463 3261,1471 3240,1458 3218,1444"/>
  <polygon points="3231,1428 3239,1423 3239,1423 3242,1422 3248,1420 3253,1445 3266,1466 3258,1471 3245,1450 3231,1428"/>
  <polygon points="3248,1420 3258,1418 3258,1418 3261,1418 3268,1418 3263,1443 3267,1467 3257,1469 3253,1445 3248,1420"/>
  <polygon points="3268,1418 3277,1420 3277,1420 3285,1423 3272,1445 3266,1469 3257,1467 3263,1443 3268,1418"/>
  <polygon points="3285,1423 3293,1428 3293,1428 3296,1431 3301,1436 3280,1450 3266,1471 3258,1466 3272,1445 3285,1423"/>
  <polygon points="3301,1436 3306,1444 3306,1444 3308,1450 3285,1458 3263,1471 3258,1463 3280,1450 3301,1436"/>
  <polygon points="3308,1450 3311,1460 3311,1460 3312,1464 3312,1468 3311,1475 3288,1468 3264,1475 3261,1465 3285,1458 3308,1450"/>
  <polygon points="3311,1475 3308,1484 3308,1484 3306,1490 3285,1477 3261,1469 3264,1460 3288,1468 3311,1475"/>
  <polygon points="3306,1490 3301,1498 3301,1498 3298,1501 3293,1506 3280,1485 3258,1471 3263,1463 3285,1477 3306,1490"/>
  <polygon points="3293,1506 3285,1511 3285,1511 3279,1513 3272,1490 3258,1468 3266,1463 3280,1485 3293,1506"/>
  <polygon points="3279,1513 3270,1516 3270,1516 3267,1517 3263,1517 3255,1516 3263,1493 3255,1469 3264,1466 3272,1490 3279,1513"/>
  <polygon points="3763,1743 3513,1743 3513,1743 3509,1742 3505,1741 3501,1740 3498,1738 3495,1735 3492,1732 3490,1729 3489,1725 3488,1718 3513,1718 3513,1693 3763,1693 3763,1718 3763,1743"/>
  <polygon points="3488,1718 3488,1218 3488,1218 3488,1214 3489,1210 3490,1206 3492,1203 3495,1200 3498,1197 3501,1195 3505,1194 3513,1193 3513,1218 3538,1218 3538,1718 3513,1718 3488,1718"/>
  <polygon points="3513,1193 4013,1193 4013,1193 4016,1193 4020,1194 4024,1195 4027,1197 4030,1200 4033,1203 4035,1206 4036,1210 4038,1218 4013,1218 4013,1243 3513,1243 3513,1218 3513,1193"/>
  <polygon points="4038,1218 4038,1718 4038,1718 4037,1721 4036,1725 4035,1729 4033,1732 4030,1735 4027,1738 4024,1740 4020,1741 4013,1743 4013,1718 3988,1718 3988,1218 4013,1218 4038,1218"/>
  <polygon points="4013,1718 4013,1743 3763,1743 3763,1718 3763,1693 4013,1693 4013,1718"/>
 </g>
 <g style="stroke:none;fill:rgb(255,0,0)">
  <polygon points="3763,1493 3753,1490 3745,1485 3740,1477 3738,1468 3740,1458 3745,1450 3753,1445 3763,1443 3772,1445 3780,1450 3785,1458 3788,1468 3785,1477 3780,1485 3772,1490 3763,1493"/>
 </g>
 <g style="stroke:none;fill:rgb(0,0,0)">
  <polygon points="3755,1516 3745,1513 3745,1513 3739,1511 3753,1490 3760,1466 3770,1469 3763,1493 3755,1516"/>
  <polygon points="3739,1511 3731,1506 3731,1506 3728,1503 3723,1498 3745,1485 3758,1463 3766,1468 3753,1490 3739,1511"/>
  <polygon points="3723,1498 3718,1490 3718,1490 3715,1482 3740,1477 3761,1463 3766,1471 3745,1485 3723,1498"/>
  <polygon points="3715,1482 3713,1473 3713,1473 3713,1469 3713,1463 3738,1468 3762,1462 3764,1471 3740,1477 3715,1482"/>
  <polygon points="3713,1463 3715,1453 3715,1453 3716,1450 3718,1444 3740,1458 3764,1462 3762,1472 3738,1468 3713,1463"/>
  <polygon points="3718,1444 3723,1436 3723,1436 3726,1433 3731,1428 3745,1450 3766,1463 3761,1471 3740,1458 3718,1444"/>
  <polygon points="3731,1428 3739,1423 3739,1423 3742,1422 3748,1420 3753,1445 3766,1466 3758,1471 3745,1450 3731,1428"/>
  <polygon points="3748,1420 3758,1418 3758,1418 3761,1418 3768,1418 3763,1443 3767,1467 3757,1469 3753,1445 3748,1420"/>
  <polygon points="3768,1418 3777,1420 3777,1420 3785,1423 3772,1445 3766,1469 3757,1467 3763,1443 3768,1418"/>
  <polygon points="3785,1423 3793,1428 3793,1428 3796,1431 3801,1436 3780,1450 3766,1471 3758,1466 3772,1445 3785,1423"/>
  <polygon points="3801,1436 3806,1444 3806,1444 3808,1450 3785,1458 3763,1471 3758,1463 3780,1450 3801,1436"/>
  <polygon points="3808,1450 3811,1460 3811,1460 3812,1464 3812,1468 3811,1475 3788,1468 3764,1475 3761,1465 3785,1458 3808,1450"/>
  <polygon points="3811,1475 3808,1484 3808,1484 3806,1490 3785,1477 3761,1469 3764,1460 3788,1468 3811,1475"/>
  <polygon points="3806,1490 3801,1498 3801,1498 3798,1501 3793,1506 3780,1485 3758,1471 3763,1463 3785,1477 3806,1490"/>
  <polygon points="3793,1506 3785,1511 3785,1511 3779,1513 3772,1490 3758,1468 3766,1463 3780,1485 3793,1506"/>
  <polygon points="3779,1513 3770,1516 3770,1516 3767,1517 3763,1517 3755,1516 3763,1493 3755,1469 3764,1466 3772,1490 3779,1513"/>
  <polygon points="4263,1743 4013,1743 4013,1743 4009,1742 4005,1741 4001,1740 3998,1738 3995,1735 3992,1732 3990,1729 3989,1725 3988,1718 4013,1718 4013,1693 4263,1693 4263,1718 4263,1743"/>
  <polygon points="3988,1718 3988,1218 3988,1218 3988,1214 3989,1210 3990,1206 3992,1203 3995,1200 3998,1197 4001,1195 4005,1194 4013,1193 4013,1218 4038,1218 4038,1718 4013,1718 3988,1718"/>
  <polygon points="4013,1193 4513,1193 4513,1193 4516,1193 4520,1194 4524,1195 4527,1197 4530,1200 4533,1203 4535,1206 4536,1210 4538,1218 4513,1218 4513,1243 4013,1243 4013,1218 4013,1193"/>
  <polygon points="4538,1218 4538,1718 4538,1718 4537,1721 4536,1725 4535,1729 4533,1732 4530,1735 4527,1738 4524,1740 4520,1741 4513,1743 4513,1718 4488,1718 4488,1218 4513,1218 4538,1218"/>
  <polygon points="4513,1718 4513,1743 4263,1743 4263,1718 4263,1693 4513,1693 4513,1718"/>
 </g>
 <g style="stroke:none;fill:rgb(255,0,0)">
  <polygon points="4263,1493 4253,1490 4245,1485 4240,1477 4238,1468 4240,1458 4245,1450 4253,1445 4263,1443 4272,1445 4280,1450 4285,1458 4288,1468 4285,1477 4280,1485 4272,1490 4263,1493"/>
 </g>
 <g style="stroke:none;fill:rgb(0,0,0)">
  <polygon points="4255,1516 4245,1513 4245,1513 4239,1511 4253,1490 4260,1466 4270,1469 4263,1493 4255,1516"/>
  <polygon points="4239,1511 4231,1506 4231,1506 4228,1503 4223,1498 4245,1485 4258,1463 4266,1468 4253,1490 4239,1511"/>
  <polygon points="4223,1498 4218,1490 4218,1490 4215,1482 4240,1477 4261,1463 4266,1471 4245,1485 4223,1498"/>
  <polygon points="4215,1482 4213,1473 4213,1473 4213,1469 4213,1463 4238,1468 4262,1462 4264,1471 4240,1477 4215,1482"/>
  <polygon points="4213,1463 4215,1453 4215,1453 4216,1450 4218,1444 4240,1458 4264,1462 4262,1472 4238,1468 4213,1463"/>
  <polygon points="4218,1444 4223,1436 4223,1436 4226,1433 4231,1428 4245,1450 4266,1463 4261,1471 4240,1458 4218,1444"/>
  <polygon points="4231,1428 4239,1423 4239,1423 4242,1422 4248,1420 4253,1445 4266,1466 4258,1471 4245,1450 4231,1428"/>
  <polygon points="4248,1420 4258,1418 4258,1418 4261,1418 4268,1418 4263,1443 4267,1467 4257,1469 4253,1445 4248,1420"/>
  <polygon points="4268,1418 4277,1420 4277,1420 4285,1423 4272,1445 4266,1469 4257,1467 4263,1443 4268,1418"/>
  <polygon points="4285,1423 4293,1428 4293,1428 4296,1431 4301,1436 4280,1450 4266,1471 4258,1466 4272,1445 4285,1423"/>
  <polygon points="4301,1436 4306,1444 4306,1444 4308,1450 4285,1458 4263,1471 4258,1463 4280,1450 4301,1436"/>
  <polygon points="4308,1450 4311,1460 4311,1460 4312,1464 4312,1468 4311,1475 4288,1468 4264,1475 4261,1465 4285,1458 4308,1450"/>
  <polygon points="4311,1475 4308,1484 4308,1484 4306,1490 4285,1477 4261,1469 4264,1460 4288,1468 4311,1475"/>
  <polygon points="4306,1490 4301,1498 4301,1498 4298,1501 4293,1506 4280,1485 4258,1471 4263,1463 4285,1477 4306,1490"/>
  <polygon points="4293,1506 4285,1511 4285,1511 4279,1513 4272,1490 4258,1468 4266,1463 4280,1485 4293,1506"/>
  <polygon points="4279,1513 4270,1516 4270,1516 4267,1517 4263,1517 4255,1516 4263,1493 4255,1469 4264,1466 4272,1490 4279,1513"/>
  <polygon points="2763,2243 2513,2243 2513,2243 2509,2242 2505,2241 2501,2240 2498,2238 2495,2235 2492,2232 2490,2229 2489,2225 2488,2218 2513,2218 2513,2193 2763,2193 2763,2218 2763,2243"/>
  <polygon points="2488,2218 2488,1718 2488,1718 2488,1714 2489,1710 2490,1706 2492,1703 2495,1700 2498,1697 2501,1695 2505,1694 2513,1693 2513,1718 2538,1718 2538,2218 2513,2218 2488,2218"/>
  <polygon points="2513,1693 3013,1693 3013,1693 3016,1693 3020,1694 3024,1695 3027,1697 3030,1700 3033,1703 3035,1706 3036,1710 3038,1718 3013,1718 3013,1743 2513,1743 2513,1718 2513,1693"/>
  <polygon points="3038,1718 3038,2218 3038,2218 3037,2221 3036,2225 3035,2229 3033,2232 3030,2235 3027,2238 3024,2240 3020,2241 3013,2243 3013,2218 2988,2218 2988,1718 3013,1718 3038,1718"/>
  <polygon points="3013,2218 3013,2243 2763,2243 2763,2218 2763,2193 3013,2193 3013,2218"/>
 </g>
 <g style="stroke:none;fill:rgb(255,0,0)">
  <polygon points="2763,1993 2753,1990 2745,1985 2740,1977 2738,1968 2740,1958 2745,1950 2753,1945 2763,1943 2772,1945 2780,1950 2785,1958 2788,1968 2785,1977 2780,1985 2772,1990 2763,1993"/>
 </g>
 <g style="stroke:none;fill:rgb(0,0,0)">
  <polygon points="2755,2016 2745,2013 2745,2013 2739,2011 2753,1990 2760,1966 2770,1969 2763,1993 2755,2016"/>
  <polygon points="2739,2011 2731,2006 2731,2006 2728,2003 2723,1998 2745,1985 2758,1963 2766,1968 2753,1990 2739,2011"/>
  <polygon points="2723,1998 2718,1990 2718,1990 2715,1982 2740,1977 2761,1963 2766,1971 2745,1985 2723,1998"/>
  <polygon points="2715,1982 2713,1973 2713,1973 2713,1969 2713,1963 2738,1968 2762,1962 2764,1971 2740,1977 2715,1982"/>
  <polygon points="2713,1963 2715,1953 2715,1953 2716,1950 2718,1944 2740,1958 2764,1962 2762,1972 2738,1968 2713,1963"/>
  <polygon points="2718,1944 2723,1936 2723,1936 2726,1933 2731,1928 2745,1950 2766,1963 2761,1971 2740,1958 2718,1944"/>
  <polygon points="2731,1928 2739,1923 2739,1923 2742,1922 2748,1920 2753,1945 2766,1966 2758,1971 2745,1950 2731,1928"/>
  <polygon points="2748,1920 2758,1918 2758,1918 2761,1918 2768,1918 2763,1943 2767,1967 2757,1969 2753,1945 2748,1920"/>
  <polygon points="2768,1918 2777,1920 2777,1920 2785,1923 2772,1945 2766,1969 2757,1967 2763,1943 2768,1918"/>
  <polygon points="2785,1923 2793,1928 2793,1928 2796,1931 2801,1936 2780,1950 2766,1971 2758,1966 2772,1945 2785,1923"/>
  <polygon points="2801,1936 2806,1944 2806,1944 2808,1950 2785,1958 2763,1971 2758,1963 2780,1950 2801,1936"/>
  <polygon points="2808,1950 2811,1960 2811,1960 2812,1964 2812,1968 2811,1975 2788,1968 2764,1975 2761,1965 2785,1958 2808,1950"/>
  <polygon points="2811,1975 2808,1984 2808,1984 2806,1990 2785,1977 2761,1969 2764,1960 2788,1968 2811,1975"/>
  <polygon points="2806,1990 2801,1998 2801,1998 2798,2001 2793,2006 2780,1985 2758,1971 2763,1963 2785,1977 2806,1990"/>
  <polygon points="2793,2006 2785,2011 2785,2011 2779,2013 2772,1990 2758,1968 2766,1963 2780,1985 2793,2006"/>
  <polygon points="2779,2013 2770,2016 2770,2016 2767,2017 2763,2017 2755,2016 2763,1993 2755,1969 2764,1966 2772,1990 2779,2013"/>
  <polygon points="3263,2243 3013,2243 3013,2243 3009,2242 3005,2241 3001,2240 2998,2238 2995,2235 2992,2232 2990,2229 2989,2225 2988,2218 3013,2218 3013,2193 3263,2193 3263,2218 3263,2243"/>
  <polygon points="2988,2218 2988,1718 2988,1718 2988,1714 2989,1710 2990,1706 2992,1703 2995,1700 2998,1697 3001,1695 3005,1694 3013,1693 3013,1718 3038,1718 3038,2218 3013,2218 2988,2218"/>
  <polygon points="3013,1693 3513,1693 3513,1693 3516,1693 3520,1694 3524,1695 3527,1697 3530,1700 3533,1703 3535,1706 3536,1710 3538,1718 3513,1718 3513,1743 3013,1743 3013,1718 3013,1693"/>
  <polygon points="3538,1718 3538,2218 3538,2218 3537,2221 3536,2225 3535,2229 3533,2232 3530,2235 3527,2238 3524,2240 3520,2241 3513,2243 3513,2218 3488,2218 3488,1718 3513,1718 3538,1718"/>
  <polygon points="3513,2218 3513,2243 3263,2243 3263,2218 3263,2193 3513,2193 3513,2218"/>
 </g>
 <g style="stroke:none;fill:rgb(255,0,0)">
  <polygon points="3263,1993 3253,1990 3245,1985 3240,1977 3238,1968 3240,1958 3245,1950 3253,1945 3263,1943 3272,1945 3280,1950 3285,1958 3288,1968 3285,1977 3280,1985 3272,1990 3263,1993"/>
 </g>
 <g style="stroke:none;fill:rgb(0,0,0)">
  <polygon points="3255,2016 3245,2013 3245,2013 3239,2011 3253,1990 3260,1966 3270,1969 3263,1993 3255,2016"/>
  <polygon points="3239,2011 3231,2006 3231,2006 3228,2003 3223,1998 3245,1985 3258,1963 3266,1968 3253,1990 3239,2011"/>
  <polygon points="3223,1998 3218,1990 3218,1990 3215,1982 3240,1977 3261,1963 3266,1971 3245,1985 3223,1998"/>
  <polygon points="3215,1982 3213,1973 3213,1973 3213,1969 3213,1963 3238,1968 3262,1962 3264,1971 3240,1977 3215,1982"/>
  <polygon points="3213,1963 3215,1953 3215,1953 3216,1950 3218,1944 3240,1958 3264,1962 3262,1972 3238,1968 3213,1963"/>
  <polygon points="3218,1944 3223,1936 3223,1936 3226,1933 3231,1928 3245,1950 3266,1963 3261,1971 3240,1958 3218,1944"/>
  <polygon points="3231,1928 3239,1923 3239,1923 3242,1922 3248,1920 3253,1945 3266,1966 3258,1971 3245,1950 3231,1928"/>
  <polygon points="3248,1920 3258,1918 3258,1918 3261,1918 3268,1918 3263,1943 3267,1967 3257,1969 3253,1945 3248,1920"/>
  <polygon points="3268,1918 3277,1920 3277,1920 3285,1923 3272,1945 3266,1969 3257,1967 3263,1943 3268,1918"/>
  <polygon points="3285,1923 3293,1928 3293,1928 3296,1931 3301,1936 3280,1950 3266,1971 3258,1966 3272,1945 3285,1923"/>
  <polygon points="3301,1936 3306,1944 3306,1944 3308,1950 3285,1958 3263,1971 3258,1963 3280,1950 3301,1936"/>
  <polygon points="3308,1950 3311,1960 3311,1960 3312,1964 3312,1968 3311,1975 3288,1968 3264,1975 3261,1965 3285,1958 3308,1950"/>
  <polygon points="3311,1975 3308,1984 3308,1984 3306,1990 3285,1977 3261,1969 3264,1960 3288,1968 3311,1975"/>
  <polygon points="3306,1990 3301,1998 3301,1998 3298,2001 3293,2006 3280,1985 3258,1971 3263,1963 3285,1977 3306,1990"/>
  <polygon points="3293,2006 3285,2011 3285,2011 3279,2013 3272,1990 3258,1968 3266,1963 3280,1985 3293,2006"/>
  <polygon points="3279,2013 3270,2016 3270,2016 3267,2017 3263,2017 3255,2016 3263,1993 3255,1969 3264,1966 3272,1990 3279,2013"/>
  <polygon points="3763,2243 3513,2243 3513,2243 3509,2242 3505,2241 3501,2240 3498,2238 3495,2235 3492,2232 3490,2229 3489,2225 3488,2218 3513,2218 3513,2193 3763,2193 3763,2218 3763,2243"/>
  <polygon points="3488,2218 3488,1718 3488,1718 3488,1714 3489,1710 3490,1706 3492,1703 3495,1700 3498,1697 3501,1695 3505,1694 3513,1693 3513,1718 3538,1718 3538,2218 3513,2218 3488,2218"/>
  <polygon points="3513,1693 4013,1693 4013,1693 4016,1693 4020,1694 4024,1695 4027,1697 4030,1700 4033,1703 4035,1706 4036,1710 4038,1718 4013,1718 4013,1743 3513,1743 3513,1718 3513,1693"/>
  <polygon points="4038,1718 4038,2218 4038,2218 4037,2221 4036,2225 4035,2229 4033,2232 4030,2235 4027,2238 4024,2240 4020,2241 4013,2243 4013,2218 3988,2218 3988,1718 4013,1718 4038,1718"/>
  <polygon points="4013,2218 4013,2243 3763,2243 3763,2218 3763,2193 4013,2193 4013,2218"/>
 </g>
 <g style="stroke:none;fill:rgb(255,0,0)">
  <polygon points="3763,1993 3753,1990 3745,1985 3740,1977 3738,1968 3740,1958 3745,1950 3753,1945 3763,1943 3772,1945 3780,1950 3785,1958 3788,1968 3785,1977 3780,1985 3772,1990 3763,1993"/>
 </g>
 <g style="stroke:none;fill:rgb(0,0,0)">
  <polygon points="3755,2016 3745,2013 3745,2013 3739,2011 3753,1990 3760,1966 3770,1969 3763,1993 3755,2016"/>
  <polygon points="3739,2011 3731,2006 3731,2006 3728,2003 3723,1998 3745,1985 3758,1963 3766,1968 3753,1990 3739,2011"/>
  <polygon points="3723,1998 3718,1990 3718,1990 3715,1982 3740,1977 3761,1963 3766,1971 3745,1985 3723,1998"/>
  <polygon points="3715,1982 3713,1973 3713,1973 3713,1969 3713,1963 3738,1968 3762,1962 3764,1971 3740,1977 3715,1982"/>
  <polygon points="3713,1963 3715,1953 3715,1953 3716,1950 3718,1944 3740,1958 3764,1962 3762,1972 3738,1968 3713,1963"/>
  <polygon points="3718,1944 3723,1936 3723,1936 3726,1933 3731,1928 3745,1950 3766,1963 3761,1971 3740,1958 3718,1944"/>
  <polygon points="3731,1928 3739,1923 3739,1923 3742,1922 3748,1920 3753,1945 3766,1966 3758,1971 3745,1950 3731,1928"/>
  <polygon points="3748,1920 3758,1918 3758,1918 3761,1918 3768,1918 3763,1943 3767,1967 3757,1969 3753,1945 3748,1920"/>
  <polygon points="3768,1918 3777,1920 3777,1920 3785,1923 3772,1945 3766,1969 3757,1967 3763,1943 3768,1918"/>
  <polygon points="3785,1923 3793,1928 3793,1928 3796,1931 3801,1936 3780,1950 3766,1971 3758,1966 3772,1945 3785,1923"/>
  <polygon points="3801,1936 3806,1944 3806,1944 3808,1950 3785,1958 3763,1971 3758,1963 3780,1950 3801,1936"/>
  <polygon points="3808,1950 3811,1960 3811,1960 3812,1964 3812,1968 3811,1975 3788,1968 3764,1975 3761,1965 3785,1958 3808,1950"/>
  <polygon points="3811,1975 3808,1984 3808,1984 3806,1990 3785,1977 3761,1969 3764,1960 3788,1968 3811,1975"/>
  <polygon points="3806,1990 3801,1998 3801,1998 3798,2001 3793,2006 3780,1985 3758,1971 3763,1963 3785,1977 3806,1990"/>
  <polygon points="3793,2006 3785,2011 3785,2011 3779,2013 3772,1990 3758,1968 3766,1963 3780,1985 3793,2006"/>
  <polygon points="3779,2013 3770,2016 3770,2016 3767,2017 3763,2017 3755,2016 3763,1993 3755,1969 3764,1966 3772,1990 3779,2013"/>
  <polygon points="4263,2243 4013,2243 4013,2243 4009,2242 4005,2241 4001,2240 3998,2238 3995,2235 3992,2232 3990,2229 3989,2225 3988,2218 4013,2218 4013,2193 4263,2193 4263,2218 4263,2243"/>
  <polygon points="3988,2218 3988,1718 3988,1718 3988,1714 3989,1710 3990,1706 3992,1703 3995,1700 3998,1697 4001,1695 4005,1694 4013,1693 4013,1718 4038,1718 4038,2218 4013,2218 3988,2218"/>
  <polygon points="4013,1693 4513,1693 4513,1693 4516,1693 4520,1694 4524,1695 4527,1697 4530,1700 4533,1703 4535,1706 4536,1710 4538,1718 4513,1718 4513,1743 4013,1743 4013,1718 4013,1693"/>
  <polygon points="4538,1718 4538,2218 4538,2218 4537,2221 4536,2225 4535,2229 4533,2232 4530,2235 4527,2238 4524,2240 4520,2241 4513,2243 4513,2218 4488,2218 4488,1718 4513,1718 4538,1718"/>
  <polygon points="4513,2218 4513,2243 4263,2243 4263,2218 4263,2193 4513,2193 4513,2218"/>
 </g>
 <g style="stroke:none;fill:rgb(255,0,0)">
  <polygon points="4263,1993 4253,1990 4245,1985 4240,1977 4238,1968 4240,1958 4245,1950 4253,1945 4263,1943 4272,1945 4280,1950 4285,1958 4288,1968 4285,1977 4280,1985 4272,1990 4263,1993"/>
 </g>
 <g style="stroke:none;fill:rgb(0,0,0)">
  <polygon points="4255,2016 4245,2013 4245,2013 4239,2011 4253,1990 4260,1966 4270,1969 4263,1993 4255,2016"/>
  <polygon points="4239,2011 4231,2006 4231,2006 4228,2003 4223,1998 4245,1985 4258,1963 4266,1968 4253,1990 4239,2011"/>
  <polygon points="4223,1998 4218,1990 4218,1990 4215,1982 4240,1977 4261,1963 4266,1971 4245,1985 4223,1998"/>
  <polygon points="4215,1982 4213,1973 4213,1973 4213,1969 4213,1963 4238,1968 4262,1962 4264,1971 4240,1977 4215,1982"/>
  <polygon points="4213,1963 4215,1953 4215,1953 4216,1950 4218,1944 4240,1958 4264,1962 4262,1972 4238,1968 4213,1963"/>
  <polygon points="4218,1944 4223,1936 4223,1936 4226,1933 4231,1928 4245,1950 4266,1963 4261,1971 4240,1958 4218,1944"/>
  <polygon points="4231,1928 4239,1923 4239,1923 4242,1922 4248,1920 4253,1945 4266,1966 4258,1971 4245,1950 4231,1928"/>
  <polygon points="4248,1920 4258,1918 4258,1918 4261,1918 4268,1918 4263,1943 4267,1967 4257,1969 4253,1945 4248,1920"/>
  <polygon points="4268,1918 4277,1920 4277,1920 4285,1923 4272,1945 4266,1969 4257,1967 4263,1943 4268,1918"/>
  <polygon points="4285,1923 4293,1928 4293,1928 4296,1931 4301,1936 4280,1950 4266,1971 4258,1966 4272,1945 4285,1923"/>
  <polygon points="4301,1936 4306,1944 4306,1944 4308,1950 4285,1958 4263,1971 4258,1963 4280,1950 4301,1936"/>
  <polygon points="4308,1950 4311,1960 4311,1960 4312,1964 4312,1968 4311,1975 4288,1968 4264,1975 4261,1965 4285,1958 4308,1950"/>
  <polygon points="4311,1975 4308,1984 4308,1984 4306,1990 4285,1977 4261,1969 4264,1960 4288,1968 4311,1975"/>
  <polygon points="4306,1990 4301,1998 4301,1998 4298,2001 4293,2006 4280,1985 4258,1971 4263,1963 4285,1977 4306,1990"/>
  <polygon points="4293,2006 4285,2011 4285,2011 4279,2013 4272,1990 4258,1968 4266,1963 4280,1985 4293,2006"/>
  <polygon points="4279,2013 4270,2016 4270,2016 4267,2017 4263,2017 4255,2016 4263,1993 4255,1969 4264,1966 4272,1990 4279,2013"/>
  <polygon points="2763,2743 2513,2743 2513,2743 2509,2742 2505,2741 2501,2740 2498,2738 2495,2735 2492,2732 2490,2729 2489,2725 2488,2718 2513,2718 2513,2693 2763,2693 2763,2718 2763,2743"/>
  <polygon points="2488,2718 2488,2218 2488,2218 2488,2214 2489,2210 2490,2206 2492,2203 2495,2200 2498,2197 2501,2195 2505,2194 2513,2193 2513,2218 2538,2218 2538,2718 2513,2718 2488,2718"/>
  <polygon points="2513,2193 3013,2193 3013,2193 3016,2193 3020,2194 3024,2195 3027,2197 3030,2200 3033,2203 3035,2206 3036,2210 3038,2218 3013,2218 3013,2243 2513,2243 2513,2218 2513,2193"/>
  <polygon points="3038,2218 3038,2718 3038,2718 3037,2721 3036,2725 3035,2729 3033,2732 3030,2735 3027,2738 3024,2740 3020,2741 3013,2743 3013,2718 2988,2718 2988,2218 3013,2218 3038,2218"/>
  <polygon points="3013,2718 3013,2743 2763,2743 2763,2718 2763,2693 3013,2693 3013,2718"/>
 </g>
 <g style="stroke:none;fill:rgb(255,0,0)">
  <polygon points="2763,2493 2753,2490 2745,2485 2740,2477 2738,2468 2740,2458 2745,2450 2753,2445 2763,2443 2772,2445 2780,2450 2785,2458 2788,2468 2785,2477 2780,2485 2772,2490 2763,2493"/>
 </g>
 <g style="stroke:none;fill:rgb(0,0,0)">
  <polygon points="2755,2516 2745,2513 2745,2513 2739,2511 2753,2490 2760,2466 2770,2469 2763,2493 2755,2516"/>
  <polygon points="2739,2511 2731,2506 2731,2506 2728,2503 2723,2498 2745,2485 2758,2463 2766,2468 2753,2490 2739,2511"/>
  <polygon points="2723,2498 2718,2490 2718,2490 2715,2482 2740,2477 2761,2463 2766,2471 2745,2485 2723,2498"/>
  <polygon points="2715,2482 2713,2473 2713,2473 2713,2469 2713,2463 2738,2468 2762,2462 2764,2471 2740,2477 2715,2482"/>
  <polygon points="2713,2463 2715,2453 2715,2453 2716,2450 2718,2444 2740,2458 2764,2462 2762,2472 2738,2468 2713,2463"/>
  <polygon points="2718,2444 2723,2436 2723,2436 2726,2433 2731,2428 2745,2450 2766,2463 2761,2471 2740,2458 2718,2444"/>
  <polygon points="2731,2428 2739,2423 2739,2423 2742,2422 2748,2420 2753,2445 2766,2466 2758,2471 2745,2450 2731,2428"/>
  <polygon points="2748,2420 2758,2418 2758,2418 2761,2418 2768,2418 2763,2443 2767,2467 2757,2469 2753,2445 2748,2420"/>
  <polygon points="2768,2418 2777,2420 2777,2420 2785,2423 2772,2445 2766,2469 2757,2467 2763,2443 2768,2418"/>
  <polygon points="2785,2423 2793,2428 2793,2428 2796,2431 2801,2436 2780,2450 2766,2471 2758,2466 2772,2445 2785,2423"/>
  <polygon points="2801,2436 2806,2444 2806,2444 2808,2450 2785,2458 2763,2471 2758,2463 2780,2450 2801,2436"/>
  <polygon points="2808,2450 2811,2460 2811,2460 2812,2464 2812,2468 2811,2475 2788,2468 2764,2475 2761,2465 2785,2458 2808,2450"/>
  <polygon points="2811,2475 2808,2484 2808,2484 2806,2490 2785,2477 2761,2469 2764,2460 2788,2468 2811,2475"/>
  <polygon points="2806,2490 2801,2498 2801,2498 2798,2501 2793,2506 2780,2485 2758,2471 2763,2463 2785,2477 2806,2490"/>
  <polygon points="2793,2506 2785,2511 2785,2511 2779,2513 2772,2490 2758,2468 2766,2463 2780,2485 2793,2506"/>
  <polygon points="2779,2513 2770,2516 2770,2516 2767,2517 2763,2517 2755,2516 2763,2493 2755,2469 2764,2466 2772,2490 2779,2513"/>
  <polygon points="3263,2743 3013,2743 3013,2743 3009,2742 3005,2741 3001,2740 2998,2738 2995,2735 2992,2732 2990,2729 2989,2725 2988,2718 3013,2718 3013,2693 3263,2693 3263,2718 3263,2743"/>
  <polygon points="2988,2718 2988,2218 2988,2218 2988,2214 2989,2210 2990,2206 2992,2203 2995,2200 2998,2197 3001,2195 3005,2194 3013,2193 3013,2218 3038,2218 3038,2718 3013,2718 2988,2718"/>
  <polygon points="3013,2193 3513,2193 3513,2193 3516,2193 3520,2194 3524,2195 3527,2197 3530,2200 3533,2203 3535,2206 3536,2210 3538,2218 3513,2218 3513,2243 3013,2243 3013,2218 3013,2193"/>
  <polygon points="3538,2218 3538,2718 3538,2718 3537,2721 3536,2725 3535,2729 3533,2732 3530,2735 3527,2738 3524,2740 3520,2741 3513,2743 3513,2718 3488,2718 3488,2218 3513,2218 3538,2218"/>
  <polygon points="3513,2718 3513,2743 3263,2743 3263,2718 3263,2693 3513,2693 3513,2718"/>
 </g>
 <g style="stroke:none;fill:rgb(255,0,0)">
  <polygon points="3263,2493 3253,2490 3245,2485 3240,2477 3238,2468 3240,2458 3245,2450 3253,2445 3263,2443 3272,2445 3280,2450 3285,2458 3288,2468 3285,2477 3280,2485 3272,2490 3263,2493"/>
 </g>
 <g style="stroke:none;fill:rgb(0,0,0)">
  <polygon points="3255,2516 3245,2513 3245,2513 3239,2511 3253,2490 3260,2466 3270,2469 3263,2493 3255,2516"/>
  <polygon points="3239,2511 3231,2506 3231,2506 3228,2503 3223,2498 3245,2485 3258,2463 3266,2468 3253,2490 3239,2511"/>
  <polygon points="3223,2498 3218,2490 3218,2490 3215,2482 3240,2477 3261,2463 3266,2471 3245,2485 3223,2498"/>
  <polygon points="3215,2482 3213,2473 3213,2473 3213,2469 3213,2463 3238,2468 3262,2462 3264,2471 3240,2477 3215,2482"/>
  <polygon points="3213,2463 3215,2453 3215,2453 3216,2450 3218,2444 3240,2458 3264,2462 3262,2472 3238,2468 3213,2463"/>
  <polygon points="3218,2444 3223,2436 3223,2436 3226,2433 3231,2428 3245,2450 3266,2463 3261,2471 3240,2458 3218,2444"/>
  <polygon points="3231,2428 3239,2423 3239,2423 3242,2422 3248,2420 3253,2445 3266,2466 3258,2471 3245,2450 3231,2428"/>
  <polygon points="3248,2420 3258,2418 3258,2418 3261,2418 3268,2418 3263,2443 3267,2467 3257,2469 3253,2445 3248,2420"/>
  <polygon points="3268,2418 3277,2420 3277,2420 3285,2423 3272,2445 3266,2469 3257,2467 3263,2443 3268,2418"/>
  <polygon points="3285,2423 3293,2428 3293,2428 3296,2431 3301,2436 3280,2450 3266,2471 3258,2466 3272,2445 3285,2423"/>
  <polygon points="3301,2436 3306,2444 3306,2444 3308,2450 3285,2458 3263,2471 3258,2463 3280,2450 3301,2436"/>
  <polygon points="3308,2450 3311,2460 3311,2460 3312,2464 3312,2468 3311,2475 3288,2468 3264,2475 3261,2465 3285,2458 3308,2450"/>
  <polygon points="3311,2475 3308,2484 3308,2484 3306,2490 3285,2477 3261,2469 3264,2460 3288,2468 3311,2475"/>
  <polygon points="3306,2490 3301,2498 3301,2498 3298,2501 3293,2506 3280,2485 3258,2471 3263,2463 3285,2477 3306,2490"/>
  <polygon points="3293,2506 3285,2511 3285,2511 3279,2513 3272,2490 3258,2468 3266,2463 3280,2485 3293,2506"/>
  <polygon points="3279,2513 3270,2516 3270,2516 3267,2517 3263,2517 3255,2516 3263,2493 3255,2469 3264,2466 3272,2490 3279,2513"/>
  <polygon points="3763,2743 3513,2743 3513,2743 3509,2742 3505,2741 3501,2740 3498,2738 3495,2735 3492,2732 3490,2729 3489,2725 3488,2718 3513,2718 3513,2693 3763,2693 3763,2718 3763,2743"/>
  <polygon points="3488,2718 3488,2218 3488,2218 3488,2214 3489,2210 3490,2206 3492,2203 3495,2200 3498,2197 3501,2195 3505,2194 3513,2193 3513,2218 3538,2218 3538,2718 3513,2718 3488,2718"/>
  <polygon points="3513,2193 4013,2193 4013,2193 4016,2193 4020,2194 4024,2195 4027,2197 4030,2200 4033,2203 4035,2206 4036,2210 4038,2218 4013,2218 4013,2243 3513,2243 3513,2218 3513,2193"/>
  <polygon points="4038,2218 4038,2718 4038,2718 4037,2721 4036,2725 4035,2729 4033,2732 4030,2735 4027,2738 4024,2740 4020,2741 4013,2743 4013,2718 3988,2718 3988,2218 4013,2218 4038,2218"/>
  <polygon points="4013,2718 4013,2743 3763,2743 3763,2718 3763,2693 4013,2693 4013,2718"/>
 </g>
 <g style="stroke:none;fill:rgb(255,0,0)">
  <polygon points="3763,2493 3753,2490 3745,2485 3740,2477 3738,2468 3740,2458 3745,2450 3753,2445 3763,2443 3772,2445 3780,2450 3785,2458 3788,2468 3785,2477 3780,2485 3772,2490 3763,2493"/>
 </g>
 <g style="stroke:none;fill:rgb(0,0,0)">
  <polygon points="3755,2516 3745,2513 3745,2513 3739,2511 3753,2490 3760,2466 3770,2469 3763,2493 3755,2516"/>
  <polygon points="3739,2511 3731,2506 3731,2506 3728,2503 3723,2498 3745,2485 3758,2463 3766,2468 3753,2490 3739,2511"/>
  <polygon points="3723,2498 3718,2490 3718,2490 3715,2482 3740,2477 3761,2463 3766,2471 3745,2485 3723,2498"/>
  <polygon points="3715,2482 3713,2473 3713,2473 3713,2469 3713,2463 3738,2468 3762,2462 3764,2471 3740,2477 3715,2482"/>
  <polygon points="3713,2463 3715,2453 3715,2453 3716,2450 3718,2444 3740,2458 3764,2462 3762,2472 3738,2468 3713,2463"/>
  <polygon points="3718,2444 3723,2436 3723,2436 3726,2433 3731,2428 3745,2450 3766,2463 3761,2471 3740,2458 3718,2444"/>
  <polygon points="3731,2428 3739,2423 3739,2423 3742,2422 3748,2420 3753,2445 3766,2466 3758,2471 3745,2450 3731,2428"/>
  <polygon points="3748,2420 3758,2418 3758,2418 3761,2418 3768,2418 3763,2443 3767,2467 3757,2469 3753,2445 3748,2420"/>
  <polygon points="3768,2418 3777,2420 3777,2420 3785,2423 3772,2445 3766,2469 3757,2467 3763,2443 3768,2418"/>
  <polygon points="3785,2423 3793,2428 3793,2428 3796,2431 3801,2436 3780,2450 3766,2471 3758,2466 3772,2445 3785,2423"/>
  <polygon points="3801,2436 3806,2444 3806,2444 3808,2450 3785,2458 3763,2471 3758,2463 3780,2450 3801,2436"/>
  <polygon points="3808,2450 3811,2460 3811,2460 3812,2464 3812,2468 3811,2475 3788,2468 3764,2475 3761,2465 3785,2458 3808,2450"/>
  <polygon points="3811,2475 3808,2484 3808,2484 3806,2490 3785,2477 3761,2469 3764,2460 3788,2468 3811,2475"/>
  <polygon points="3806,2490 3801,2498 3801,2498 3798,2501 3793,2506 3780,2485 3758,2471 3763,2463 3785,2477 3806,2490"/>
  <polygon points="3793,2506 3785,2511 3785,2511 3779,2513 3772,2490 3758,2468 3766,2463 3780,2485 3793,2506"/>
  <polygon points="3779,2513 3770,2516 3770,2516 3767,2517 3763,2517 3755,2516 3763,2493 3755,2469 3764,2466 3772,2490 3779,2513"/>
  <polygon points="4263,2743 4013,2743 4013,2743 4009,2742 4005,2741 4001,2740 3998,2738 3995,2735 3992,2732 3990,2729 3989,2725 3988,2718 4013,2718 4013,2693 4263,2693 4263,2718 4263,2743"/>
  <polygon points="3988,2718 3988,2218 3988,2218 3988,2214 3989,2210 3990,2206 3992,2203 3995,2200 3998,2197 4001,2195 4005,2194 4013,2193 4013,2218 4038,2218 4038,2718 4013,2718 3988,2718"/>
  <polygon points="4013,2193 4513,2193 4513,2193 4516,2193 4520,2194 4524,2195 4527,2197 4530,2200 4533,2203 4535,2206 4536,2210 4538,2218 4513,2218 4513,2243 4013,2243 4013,2218 4013,2193"/>
  <polygon points="4538,2218 4538,2718 4538,2718 4537,2721 4536,2725 4535,2729 4533,2732 4530,2735 4527,2738 4524,2740 4520,2741 4513,2743 4513,2718 4488,2718 4488,2218 4513,2218 4538,2218"/>
  <polygon points="4513,2718 4513,2743 4263,2743 4263,2718 4263,2693 4513,2693 4513,2718"/>
 </g>
 <g style="stroke:none;fill:rgb(255,0,0)">
  <polygon points="4263,2493 4253,2490 4245,2485 4240,2477 4238,2468 4240,2458 4245,2450 4253,2445 4263,2443 4272,2445 4280,2450 4285,2458 4288,2468 4285,2477 4280,2485 4272,2490 4263,2493"/>
 </g>
 <g style="stroke:none;fill:rgb(0,0,0)">
  <polygon points="4255,2516 4245,2513 4245,2513 4239,2511 4253,2490 4260,2466 4270,2469 4263,2493 4255,2516"/>
  <polygon points="4239,2511 4231,2506 4231,2506 4228,2503 4223,2498 4245,2485 4258,2463 4266,2468 4253,2490 4239,2511"/>
  <polygon points="4223,2498 4218,2490 4218,2490 4215,2482 4240,2477 4261,2463 4266,2471 4245,2485 4223,2498"/>
  <polygon points="4215,2482 4213,2473 4213,2473 4213,2469 4213,2463 4238,2468 4262,2462 4264,2471 4240,2477 4215,2482"/>
  <polygon points="4213,2463 4215,2453 4215,2453 4216,2450 4218,2444 4240,2458 4264,2462 4262,2472 4238,2468 4213,2463"/>
  <polygon points="4218,2444 4223,2436 4223,2436 4226,2433 4231,2428 4245,2450 4266,2463 4261,2471 4240,2458 4218,2444"/>
  <polygon points="4231,2428 4239,2423 4239,2423 4242,2422 4248,2420 4253,2445 4266,2466 4258,2471 4245,2450 4231,2428"/>
  <polygon points="4248,2420 4258,2418 4258,2418 4261,2418 4268,2418 4263,2443 4267,2467 4257,2469 4253,2445 4248,2420"/>
  <polygon points="4268,2418 4277,2420 4277,2420 4285,2423 4272,2445 4266,2469 4257,2467 4263,2443 4268,2418"/>
  <polygon points="4285,2423 4293,2428 4293,2428 4296,2431 4301,2436 4280,2450 4266,2471 4258,2466 4272,2445 4285,2423"/>
  <polygon points="4301,2436 4306,2444 4306,2444 4308,2450 4285,2458 4263,2471 4258,2463 4280,2450 4301,2436"/>
  <polygon points="4308,2450 4311,2460 4311,2460 4312,2464 4312,2468 4311,2475 4288,2468 4264,2475 4261,2465 4285,2458 4308,2450"/>
  <polygon points="4311,2475 4308,2484 4308,2484 4306,2490 4285,2477 4261,2469 4264,2460 4288,2468 4311,2475"/>
  <polygon points="4306,2490 4301,2498 4301,2498 4298,2501 4293,2506 4280,2485 4258,2471 4263,2463 4285,2477 4306,2490"/>
  <polygon points="4293,2506 4285,2511 4285,2511 4279,2513 4272,2490 4258,2468 4266,2463 4280,2485 4293,2506"/>
  <polygon points="4279,2513 4270,2516 4270,2516 4267,2517 4263,2517 4255,2516 4263,2493 4255,2469 4264,2466 4272,2490 4279,2513"/>
  <g style="stroke:rgb(128,128,128);fill:rgb(128,128,128)">
   <polygon points="3238,1468 2911,1245 2843,1485 3238,1468"/>
   <polygon points="800,775 1126,997 1194,757 800,775"/>
   <polygon points="2935,1434 1074,905 1102,808 2963,1337 2935,1434"/>
  </g>
  <g style="stroke:rgb(128,128,128);fill:rgb(128,128,128)">
   <polygon points="3738,1968 3411,1745 3343,1985 3738,1968"/>
   <polygon points="1300,1275 1626,1497 1694,1257 1300,1275"/>
   <polygon points="3435,1934 1574,1405 1602,1308 3463,1837 3435,1934"/>
  </g>
  <g style="stroke:rgb(128,128,128);fill:rgb(128,128,128)">
   <polygon points="4238,1968 3911,1745 3843,1985 4238,1968"/>
   <polygon points="1800,1275 2126,1497 2194,1257 1800,1275"/>
   <polygon points="3935,1934 2074,1405 2102,1308 3963,1837 3935,1934"/>
  </g>
  <g style="stroke:rgb(128,128,128);fill:rgb(128,128,128)">
   <polygon points="2738,2468 2411,2245 2343,2485 2738,2468"/>
   <polygon points="300,1775 626,1997 694,1757 300,1775"/>
   <polygon points="2435,2434 574,1905 602,1808 2463,2337 2435,2434"/>
  </g>
  <g style="stroke:rgb(128,128,128);fill:rgb(128,128,128)">
   <polygon points="3238,2468 2911,2245 2843,2485 3238,2468"/>
   <polygon points="800,1775 1126,1997 1194,1757 800,1775"/>
   <polygon points="2935,2434 1074,1905 1102,1808 2963,2337 2935,2434"/>
  </g>
  <g style="stroke:rgb(128,128,128);fill:rgb(128,128,128)">
   <polygon points="3738,2468 3411,2245 3343,2485 3738,2468"/>
   <polygon points="1300,1775 1626,1997 1694,1757 1300,1775"/>
   <polygon points="3435,2434 1574,1905 1602,1808 3463,2337 3435,2434"/>
  </g>
  <g style="stroke:rgb(128,128,128);fill:rgb(128,128,128)">
   <polygon points="2738,1468 2411,1245 2343,1485 2738,1468"/>
   <polygon points="300,775 626,997 694,757 300,775"/>
   <polygon points="2435,1434 574,905 602,808 2463,1337 2435,1434"/>
  </g>
  <g style="stroke:rgb(128,128,128);fill:rgb(128,128,128)">
   <polygon points="4238,1468 3911,1245 3843,1485 4238,1468"/>
   <polygon points="1800,775 2126,997 2194,757 1800,775"/>
   <polygon points="3935,1434 2074,905 2102,808 3963,1337 3935,1434"/>
  </g>
  <g style="stroke:rgb(128,128,128);fill:rgb(128,128,128)">
   <polygon points="3238,968 2911,745 2843,985 3238,968"/>
   <polygon points="800,275 1126,497 1194,257 800,275"/>
   <polygon points="2935,934 1074,405 1102,308 2963,837 2935,934"/>
  </g>
  <g style="stroke:rgb(128,128,128);fill:rgb(128,128,128)">
   <polygon points="3238,1968 2911,1745 2843,1985 3238,1968"/>
   <polygon points="800,1275 1126,1497 1194,1257 800,1275"/>
   <polygon points="2935,1934 1074,1405 1102,1308 2963,1837 2935,1934"/>
  </g>
  <g style="stroke:rgb(128,128,128);fill:rgb(128,128,128)">
   <polygon points="2738,1968 2411,1745 2343,1985 2738,1968"/>
   <polygon points="300,1275 626,1497 694,1257 300,1275"/>
   <polygon points="2435,1934 574,1405 602,1308 2463,1837 2435,1934"/>
  </g>
  <g style="stroke:rgb(128,128,128);fill:rgb(128,128,128)">
   <polygon points="4238,968 3911,745 3843,985 4238,968"/>
   <polygon points="1800,275 2126,497 2194,257 1800,275"/>
   <polygon points="3935,934 2074,405 2102,308 3963,837 3935,934"/>
  </g>
  <g style="stroke:rgb(128,128,128);fill:rgb(128,128,128)">
   <polygon points="3738,1468 3411,1245 3343,1485 3738,1468"/>
   <polygon points="1300,775 1626,997 1694,757 1300,775"/>
   <polygon points="3435,1434 1574,905 1602,808 3463,1337 3435,1434"/>
  </g>
  <g style="stroke:rgb(128,128,128);fill:rgb(128,128,128)">
   <polygon points="2738,968 2411,745 2343,985 2738,968"/>
   <polygon points="300,275 626,497 694,257 300,275"/>
   <polygon points="2435,934 574,405 602,308 2463,837 2435,934"/>
  </g>
  <g style="stroke:rgb(128,128,128);fill:rgb(128,128,128)">
   <polygon points="3738,968 3411,745 3343,985 3738,968"/>
   <polygon points="1300,275 1626,497 1694,257 1300,275"/>
   <polygon points="3435,934 1574,405 1602,308 3463,837 3435,934"/>
  </g>
  <g style="stroke:rgb(128,128,128);fill:rgb(128,128,128)">
   <polygon points="4238,2468 3911,2245 3843,2485 4238,2468"/>
   <polygon points="1800,1775 2126,1997 2194,1757 1800,1775"/>
   <polygon points="3935,2434 2074,1905 2102,1808 3963,2337 3935,2434"/>
  </g>
 </g>
</svg>