<?xml version="1.0" encoding="UTF-8"?>
<!DOCTYPE svg PUBLIC "-//W3C//DTD SVG 1.0//EN" "http://www.w3.org/TR/2001/REC-SVG-20010904/DTD/svg10.dtd">
<svg width="46mm" height="28mm" viewBox="0 0 4600 2800">
 <g style="stroke:none;fill:rgb(0,0,0)">
  <polygon points="275,550 25,550 25,550 21,549 17,548 13,547 10,545 7,542 4,539 2,536 1,532 0,525 25,525 25,500 275,500 275,525 275,550"/>
  <polygon points="0,525 0,25 0,25 0,21 1,17 2,13 4,10 7,7 10,4 13,2 17,1 25,0 25,25 50,25 50,525 25,525 0,525"/>
  <polygon points="25,0 525,0 525,0 528,0 532,1 536,2 539,4 542,7 545,10 547,13 548,17 550,25 525,25 525,50 25,50 25,25 25,0"/>
  <polygon points="550,25 550,525 550,525 549,528 548,532 547,536 545,539 542,542 539,545 536,547 532,548 525,550 525,525 500,525 500,25 525,25 550,25"/>
  <polygon points="525,525 525,550 275,550 275,525 275,500 525,500 525,525"/>
 </g>
 <g style="stroke:none;fill:rgb(255,0,0)">
  <polygon points="275,300 265,297 257,292 252,284 250,275 252,265 257,257 265,252 275,250 284,252 292,257 297,265 300,275 297,284 292,292 284,297 275,300"/>
 </g>
 <g style="stroke:none;fill:rgb(0,0,0)">
  <polygon points="267,323 257,320 257,320 251,318 265,297 272,273 282,276 275,300 267,323"/>
  <polygon points="251,318 243,313 243,313 240,310 235,305 257,292 270,270 278,275 265,297 251,318"/>
  <polygon points="235,305 230,297 230,297 227,289 252,284 273,270 278,278 257,292 235,305"/>
  <polygon points="227,289 225,280 225,280 225,276 225,270 250,275 274,269 276,278 252,284 227,289"/>
  <polygon points="225,270 227,260 227,260 228,257 230,251 252,265 276,269 274,279 250,275 225,270"/>
  <polygon points="230,251 235,243 235,243 238,240 243,235 257,257 278,270 273,278 252,265 230,251"/>
  <polygon points="243,235 251,230 251,230 254,229 260,227 265,252 278,273 270,278 257,257 243,235"/>
  <polygon points="260,227 270,225 270,225 273,225 280,225 275,250 279,274 269,276 265,252 260,227"/>
  <polygon points="280,225 289,227 289,227 297,230 284,252 278,276 269,274 275,250 280,225"/>
  <polygon points="297,230 305,235 305,235 308,238 313,243 292,257 278,278 270,273 284,252 297,230"/>
  <polygon points="313,243 318,251 318,251 320,257 297,265 275,278 270,270 292,257 313,243"/>
  <polygon points="320,257 323,267 323,267 324,271 324,275 323,282 300,275 276,282 273,272 297,265 320,257"/>
  <polygon points="323,282 320,291 320,291 318,297 297,284 273,276 276,267 300,275 323,282"/>
  <polygon points="318,297 313,305 313,305 310,308 305,313 292,292 270,278 275,270 297,284 318,297"/>
  <polygon points="305,313 297,318 297,318 291,320 284,297 270,275 278,270 292,292 305,313"/>
  <polygon points="291,320 282,323 282,323 279,324 275,324 267,323 275,300 267,276 276,273 284,297 291,320"/>
  <polygon points="775,550 525,550 525,550 521,549 517,548 513,547 510,545 507,542 504,539 502,536 501,532 500,525 525,525 525,500 775,500 775,525 775,550"/>
  <polygon points="500,525 500,25 500,25 500,21 501,17 502,13 504,10 507,7 510,4 513,2 517,1 525,0 525,25 550,25 550,525 525,525 500,525"/>
  <polygon points="525,0 1025,0 1025,0 1028,0 1032,1 1036,2 1039,4 1042,7 1045,10 1047,13 1048,17 1050,25 1025,25 1025,50 525,50 525,25 525,0"/>
  <polygon points="1050,25 1050,525 1050,525 1049,528 1048,532 1047,536 1045,539 1042,542 1039,545 1036,547 1032,548 1025,550 1025,525 1000,525 1000,25 1025,25 1050,25"/>
  <polygon points="1025,525 1025,550 775,550 775,525 775,500 1025,500 1025,525"/>
 </g>
 <g style="stroke:none;fill:rgb(255,0,0)">
  <polygon points="775,300 765,297 757,292 752,284 750,275 752,265 757,257 765,252 775,250 784,252 792,257 797,265 800,275 797,284 792,292 784,297 775,300"/>
 </g>
 <g style="stroke:none;fill:rgb(0,0,0)">
  <polygon points="767,323 757,320 757,320 751,318 765,297 772,273 782,276 775,300 767,323"/>
  <polygon points="751,318 743,313 743,313 740,310 735,305 757,292 770,270 778,275 765,297 751,318"/>
  <polygon points="735,305 730,297 730,297 727,289 752,284 773,270 778,278 757,292 735,305"/>
  <polygon points="727,289 725,280 725,280 725,276 725,270 750,275 774,269 776,278 752,284 727,289"/>
  <polygon points="725,270 727,260 727,260 728,257 730,251 752,265 776,269 774,279 750,275 725,270"/>
  <polygon points="730,251 735,243 735,243 738,240 743,235 757,257 778,270 773,278 752,265 730,251"/>
  <polygon points="743,235 751,230 751,230 754,229 760,227 765,252 778,273 770,278 757,257 743,235"/>
  <polygon points="760,227 770,225 770,225 773,225 780,225 775,250 779,274 769,276 765,252 760,227"/>
  <polygon points="780,225 789,227 789,227 797,230 784,252 778,276 769,274 775,250 780,225"/>
  <polygon points="797,230 805,235 805,235 808,238 813,243 792,257 778,278 770,273 784,252 797,230"/>
  <polygon points="813,243 818,251 818,251 820,257 797,265 775,278 770,270 792,257 813,243"/>
  <polygon points="820,257 823,267 823,267 824,271 824,275 823,282 800,275 776,282 773,272 797,265 820,257"/>
  <polygon points="823,282 820,291 820,291 818,297 797,284 773,276 776,267 800,275 823,282"/>
  <polygon points="818,297 813,305 813,305 810,308 805,313 792,292 770,278 775,270 797,284 818,297"/>
  <polygon points="805,313 797,318 797,318 791,320 784,297 770,275 778,270 792,292 805,313"/>
  <polygon points="791,320 782,323 782,323 779,324 775,324 767,323 775,300 767,276 776,273 784,297 791,320"/>
  <polygon points="1275,550 1025,550 1025,550 1021,549 1017,548 1013,547 1010,545 1007,542 1004,539 1002,536 1001,532 1000,525 1025,525 1025,500 1275,500 1275,525 1275,550"/>
  <polygon points="1000,525 1000,25 1000,25 1000,21 1001,17 1002,13 1004,10 1007,7 1010,4 1013,2 1017,1 1025,0 1025,25 1050,25 1050,525 1025,525 1000,525"/>
  <polygon points="1025,0 1525,0 1525,0 1528,0 1532,1 1536,2 1539,4 1542,7 1545,10 1547,13 1548,17 1550,25 1525,25 1525,50 1025,50 1025,25 1025,0"/>
  <polygon points="1550,25 1550,525 1550,525 1549,528 1548,532 1547,536 1545,539 1542,542 1539,545 1536,547 1532,548 1525,550 1525,525 1500,525 1500,25 1525,25 1550,25"/>
  <polygon points="1525,525 1525,550 1275,550 1275,525 1275,500 1525,500 1525,525"/>
 </g>
 <g style="stroke:none;fill:rgb(255,0,0)">
  <polygon points="1275,300 1265,297 1257,292 1252,284 1250,275 1252,265 1257,257 1265,252 1275,250 1284,252 1292,257 1297,265 1300,275 1297,284 1292,292 1284,297 1275,300"/>
 </g>
 <g style="stroke:none;fill:rgb(0,0,0)">
  <polygon points="1267,323 1257,320 1257,320 1251,318 1265,297 1272,273 1282,276 1275,300 1267,323"/>
  <polygon points="1251,318 1243,313 1243,313 1240,310 1235,305 1257,292 1270,270 1278,275 1265,297 1251,318"/>
  <polygon points="1235,305 1230,297 1230,297 1227,289 1252,284 1273,270 1278,278 1257,292 1235,305"/>
  <polygon points="1227,289 1225,280 1225,280 1225,276 1225,270 1250,275 1274,269 1276,278 1252,284 1227,289"/>
  <polygon points="1225,270 1227,260 1227,260 1228,257 1230,251 1252,265 1276,269 1274,279 1250,275 1225,270"/>
  <polygon points="1230,251 1235,243 1235,243 1238,240 1243,235 1257,257 1278,270 1273,278 1252,265 1230,251"/>
  <polygon points="1243,235 1251,230 1251,230 1254,229 1260,227 1265,252 1278,273 1270,278 1257,257 1243,235"/>
  <polygon points="1260,227 1270,225 1270,225 1273,225 1280,225 1275,250 1279,274 1269,276 1265,252 1260,227"/>
  <polygon points="1280,225 1289,227 1289,227 1297,230 1284,252 1278,276 1269,274 1275,250 1280,225"/>
  <polygon points="1297,230 1305,235 1305,235 1308,238 1313,243 1292,257 1278,278 1270,273 1284,252 1297,230"/>
  <polygon points="1313,243 1318,251 1318,251 1320,257 1297,265 1275,278 1270,270 1292,257 1313,243"/>
  <polygon points="1320,257 1323,267 1323,267 1324,271 1324,275 1323,282 1300,275 1276,282 1273,272 1297,265 1320,257"/>
  <polygon points="1323,282 1320,291 1320,291 1318,297 1297,284 1273,276 1276,267 1300,275 1323,282"/>
  <polygon points="1318,297 1313,305 1313,305 1310,308 1305,313 1292,292 1270,278 1275,270 1297,284 1318,297"/>
  <polygon points="1305,313 1297,318 1297,318 1291,320 1284,297 1270,275 1278,270 1292,292 1305,313"/>
  <polygon points="1291,320 1282,323 1282,323 1279,324 1275,324 1267,323 1275,300 1267,276 1276,273 1284,297 1291,320"/>
  <polygon points="1775,550 1525,550 1525,550 1521,549 1517,548 1513,547 1510,545 1507,542 1504,539 1502,536 1501,532 1500,525 1525,525 1525,500 1775,500 1775,525 1775,550"/>
  <polygon points="1500,525 1500,25 1500,25 1500,21 1501,17 1502,13 1504,10 1507,7 1510,4 1513,2 1517,1 1525,0 1525,25 1550,25 1550,525 1525,525 1500,525"/>
  <polygon points="1525,0 2025,0 2025,0 2028,0 2032,1 2036,2 2039,4 2042,7 2045,10 2047,13 2048,17 2050,25 2025,25 2025,50 1525,50 1525,25 1525,0"/>
  <polygon points="2050,25 2050,525 2050,525 2049,528 2048,532 2047,536 2045,539 2042,542 2039,545 2036,547 2032,548 2025,550 2025,525 2000,525 2000,25 2025,25 2050,25"/>
  <polygon points="2025,525 2025,550 1775,550 1775,525 1775,500 2025,500 2025,525"/>
 </g>
 <g style="stroke:none;fill:rgb(255,0,0)">
  <polygon points="1775,300 1765,297 1757,292 1752,284 1750,275 1752,265 1757,257 1765,252 1775,250 1784,252 1792,257 1797,265 1800,275 1797,284 1792,292 1784,297 1775,300"/>
 </g>
 <g style="stroke:none;fill:rgb(0,0,0)">
  <polygon points="1767,323 1757,320 1757,320 1751,318 1765,297 1772,273 1782,276 1775,300 1767,323"/>
  <polygon points="1751,318 1743,313 1743,313 1740,310 1735,305 1757,292 1770,270 1778,275 1765,297 1751,318"/>
  <polygon points="1735,305 1730,297 1730,297 1727,289 1752,284 1773,270 1778,278 1757,292 1735,305"/>
  <polygon points="1727,289 1725,280 1725,280 1725,276 1725,270 1750,275 1774,269 1776,278 1752,284 1727,289"/>
  <polygon points="1725,270 1727,260 1727,260 1728,257 1730,251 1752,265 1776,269 1774,279 1750,275 1725,270"/>
  <polygon points="1730,251 1735,243 1735,243 1738,240 1743,235 1757,257 1778,270 1773,278 1752,265 1730,251"/>
  <polygon points="1743,235 1751,230 1751,230 1754,229 1760,227 1765,252 1778,273 1770,278 1757,257 1743,235"/>
  <polygon points="1760,227 1770,225 1770,225 1773,225 1780,225 1775,250 1779,274 1769,276 1765,252 1760,227"/>
  <polygon points="1780,225 1789,227 1789,227 1797,230 1784,252 1778,276 1769,274 1775,250 1780,225"/>
  <polygon points="1797,230 1805,235 1805,235 1808,238 1813,243 1792,257 1778,278 1770,273 1784,252 1797,230"/>
  <polygon points="1813,243 1818,251 1818,251 1820,257 1797,265 1775,278 1770,270 1792,257 1813,243"/>
  <polygon points="1820,257 1823,267 1823,267 1824,271 1824,275 1823,282 1800,275 1776,282 1773,272 1797,265 1820,257"/>
  <polygon points="1823,282 1820,291 1820,291 1818,297 1797,284 1773,276 1776,267 1800,275 1823,282"/>
  <polygon points="1818,297 1813,305 1813,305 1810,308 1805,313 1792,292 1770,278 1775,270 1797,284 1818,297"/>
  <polygon points="1805,313 1797,318 1797,318 1791,320 1784,297 1770,275 1778,270 1792,292 1805,313"/>
  <polygon points="1791,320 1782,323 1782,323 1779,324 1775,324 1767,323 1775,300 1767,276 1776,273 1784,297 1791,320"/>
  <polygon points="275,1050 25,1050 25,1050 21,1049 17,1048 13,1047 10,1045 7,1042 4,1039 2,1036 1,1032 0,1025 25,1025 25,1000 275,1000 275,1025 275,1050"/>
  <polygon points="0,1025 0,525 0,525 0,521 1,517 2,513 4,510 7,507 10,504 13,502 17,501 25,500 25,525 50,525 50,1025 25,1025 0,1025"/>
  <polygon points="25,500 525,500 525,500 528,500 532,501 536,502 539,504 542,507 545,510 547,513 548,517 550,525 525,525 525,550 25,550 25,525 25,500"/>
  <polygon points="550,525 550,1025 550,1025 549,1028 548,1032 547,1036 545,1039 542,1042 539,1045 536,1047 532,1048 525,1050 525,1025 500,1025 500,525 525,525 550,525"/>
  <polygon points="525,1025 525,1050 275,1050 275,1025 275,1000 525,1000 525,1025"/>
 </g>
 <g style="stroke:none;fill:rgb(255,0,0)">
  <polygon points="275,800 265,797 257,792 252,784 250,775 252,765 257,757 265,752 275,750 284,752 292,757 297,765 300,775 297,784 292,792 284,797 275,800"/>
 </g>
 <g style="stroke:none;fill:rgb(0,0,0)">
  <polygon points="267,823 257,820 257,820 251,818 265,797 272,773 282,776 275,800 267,823"/>
  <polygon points="251,818 243,813 243,813 240,810 235,805 257,792 270,770 278,775 265,797 251,818"/>
  <polygon points="235,805 230,797 230,797 227,789 252,784 273,770 278,778 257,792 235,805"/>
  <polygon points="227,789 225,780 225,780 225,776 225,770 250,775 274,769 276,778 252,784 227,789"/>
  <polygon points="225,770 227,760 227,760 228,757 230,751 252,765 276,769 274,779 250,775 225,770"/>
  <polygon points="230,751 235,743 235,743 238,740 243,735 257,757 278,770 273,778 252,765 230,751"/>
  <polygon points="243,735 251,730 251,730 254,729 260,727 265,752 278,773 270,778 257,757 243,735"/>
  <polygon points="260,727 270,725 270,725 273,725 280,725 275,750 279,774 269,776 265,752 260,727"/>
  <polygon points="280,725 289,727 289,727 297,730 284,752 278,776 269,774 275,750 280,725"/>
  <polygon points="297,730 305,735 305,735 308,738 313,743 292,757 278,778 270,773 284,752 297,730"/>
  <polygon points="313,743 318,751 318,751 320,757 297,765 275,778 270,770 292,757 313,743"/>
  <polygon points="320,757 323,767 323,767 324,771 324,775 323,782 300,775 276,782 273,772 297,765 320,757"/>
  <polygon points="323,782 320,791 320,791 318,797 297,784 273,776 276,767 300,775 323,782"/>
  <polygon points="318,797 313,805 313,805 310,808 305,813 292,792 270,778 275,770 297,784 318,797"/>
  <polygon points="305,813 297,818 297,818 291,820 284,797 270,775 278,770 292,792 305,813"/>
  <polygon points="291,820 282,823 282,823 279,824 275,824 267,823 275,800 267,776 276,773 284,797 291,820"/>
  <polygon points="775,1050 525,1050 525,1050 521,1049 517,1048 513,1047 510,1045 507,1042 504,1039 502,1036 501,1032 500,1025 525,1025 525,1000 775,1000 775,1025 775,1050"/>
  <polygon points="500,1025 500,525 500,525 500,521 501,517 502,513 504,510 507,507 510,504 513,502 517,501 525,500 525,525 550,525 550,1025 525,1025 500,1025"/>
  <polygon points="525,500 1025,500 1025,500 1028,500 1032,501 1036,502 1039,504 1042,507 1045,510 1047,513 1048,517 1050,525 1025,525 1025,550 525,550 525,525 525,500"/>
  <polygon points="1050,525 1050,1025 1050,1025 1049,1028 1048,1032 1047,1036 1045,1039 1042,1042 1039,1045 1036,1047 1032,1048 1025,1050 1025,1025 1000,1025 1000,525 1025,525 1050,525"/>
  <polygon points="1025,1025 1025,1050 775,1050 775,1025 775,1000 1025,1000 1025,1025"/>
 </g>
 <g style="stroke:none;fill:rgb(255,0,0)">
  <polygon points="775,800 765,797 757,792 752,784 750,775 752,765 757,757 765,752 775,750 784,752 792,757 797,765 800,775 797,784 792,792 784,797 775,800"/>
 </g>
 <g style="stroke:none;fill:rgb(0,0,0)">
  <polygon points="767,823 757,820 757,820 751,818 765,797 772,773 782,776 775,800 767,823"/>
  <polygon points="751,818 743,813 743,813 740,810 735,805 757,792 770,770 778,775 765,797 751,818"/>
  <polygon points="735,805 730,797 730,797 727,789 752,784 773,770 778,778 757,792 735,805"/>
  <polygon points="727,789 725,780 725,780 725,776 725,770 750,775 774,769 776,778 752,784 727,789"/>
  <polygon points="725,770 727,760 727,760 728,757 730,751 752,765 776,769 774,779 750,775 725,770"/>
  <polygon points="730,751 735,743 735,743 738,740 743,735 757,757 778,770 773,778 752,765 730,751"/>
  <polygon points="743,735 751,730 751,730 754,729 760,727 765,752 778,773 770,778 757,757 743,735"/>
  <polygon points="760,727 770,725 770,725 773,725 780,725 775,750 779,774 769,776 765,752 760,727"/>
  <polygon points="780,725 789,727 789,727 797,730 784,752 778,776 769,774 775,750 780,725"/>
  <polygon points="797,730 805,735 805,735 808,738 813,743 792,757 778,778 770,773 784,752 797,730"/>
  <polygon points="813,743 818,751 818,751 820,757 797,765 775,778 770,770 792,757 813,743"/>
  <polygon points="820,757 823,767 823,767 824,771 824,775 823,782 800,775 776,782 773,772 797,765 820,757"/>
  <polygon points="823,782 820,791 820,791 818,797 797,784 773,776 776,767 800,775 823,782"/>
  <polygon points="818,797 813,805 813,805 810,808 805,813 792,792 770,778 775,770 797,784 818,797"/>
  <polygon points="805,813 797,818 797,818 791,820 784,797 770,775 778,770 792,792 805,813"/>
  <polygon points="791,820 782,823 782,823 779,824 775,824 767,823 775,800 767,776 776,773 784,797 791,820"/>
  <polygon points="1275,1050 1025,1050 1025,1050 1021,1049 1017,1048 1013,1047 1010,1045 1007,1042 1004,1039 1002,1036 1001,1032 1000,1025 1025,1025 1025,1000 1275,1000 1275,1025 1275,1050"/>
  <polygon points="1000,1025 1000,525 1000,525 1000,521 1001,517 1002,513 1004,510 1007,507 1010,504 1013,502 1017,501 1025,500 1025,525 1050,525 1050,1025 1025,1025 1000,1025"/>
  <polygon points="1025,500 1525,500 1525,500 1528,500 1532,501 1536,502 1539,504 1542,507 1545,510 1547,513 1548,517 1550,525 1525,525 1525,550 1025,550 1025,525 1025,500"/>
  <polygon points="1550,525 1550,1025 1550,1025 1549,1028 1548,1032 1547,1036 1545,1039 1542,1042 1539,1045 1536,1047 1532,1048 1525,1050 1525,1025 1500,1025 1500,525 1525,525 1550,525"/>
  <polygon points="1525,1025 1525,1050 1275,1050 1275,1025 1275,1000 1525,1000 1525,1025"/>
 </g>
 <g style="stroke:none;fill:rgb(255,0,0)">
  <polygon points="1275,800 1265,797 1257,792 1252,784 1250,775 1252,765 1257,757 1265,752 1275,750 1284,752 1292,757 1297,765 1300,775 1297,784 1292,792 1284,797 1275,800"/>
 </g>
 <g style="stroke:none;fill:rgb(0,0,0)">
  <polygon points="1267,823 1257,820 1257,820 1251,818 1265,797 1272,773 1282,776 1275,800 1267,823"/>
  <polygon points="1251,818 1243,813 1243,813 1240,810 1235,805 1257,792 1270,770 1278,775 1265,797 1251,818"/>
  <polygon points="1235,805 1230,797 1230,797 1227,789 1252,784 1273,770 1278,778 1257,792 1235,805"/>
  <polygon points="1227,789 1225,780 1225,780 1225,776 1225,770 1250,775 1274,769 1276,778 1252,784 1227,789"/>
  <polygon points="1225,770 1227,760 1227,760 1228,757 1230,751 1252,765 1276,769 1274,779 1250,775 1225,770"/>
  <polygon points="1230,751 1235,743 1235,743 1238,740 1243,735 1257,757 1278,770 1273,778 1252,765 1230,751"/>
  <polygon points="1243,735 1251,730 1251,730 1254,729 1260,727 1265,752 1278,773 1270,778 1257,757 1243,735"/>
  <polygon points="1260,727 1270,725 1270,725 1273,725 1280,725 1275,750 1279,774 1269,776 1265,752 1260,727"/>
  <polygon points="1280,725 1289,727 1289,727 1297,730 1284,752 1278,776 1269,774 1275,750 1280,725"/>
  <polygon points="1297,730 1305,735 1305,735 1308,738 1313,743 1292,757 1278,778 1270,773 1284,752 1297,730"/>
  <polygon points="1313,743 1318,751 1318,751 1320,757 1297,765 1275,778 1270,770 1292,757 1313,743"/>
  <polygon points="1320,757 1323,767 1323,767 1324,771 1324,775 1323,782 1300,775 1276,782 1273,772 1297,765 1320,757"/>
  <polygon points="1323,782 1320,791 1320,791 1318,797 1297,784 1273,776 1276,767 1300,775 1323,782"/>
  <polygon points="1318,797 1313,805 1313,805 1310,808 1305,813 1292,792 1270,778 1275,770 1297,784 1318,797"/>
  <polygon points="1305,813 1297,818 1297,818 1291,820 1284,797 1270,775 1278,770 1292,792 1305,813"/>
  <polygon points="1291,820 1282,823 1282,823 1279,824 1275,824 1267,823 1275,800 1267,776 1276,773 1284,797 1291,820"/>
  <polygon points="1775,1050 1525,1050 1525,1050 1521,1049 1517,1048 1513,1047 1510,1045 1507,1042 1504,1039 1502,1036 1501,1032 1500,1025 1525,1025 1525,1000 1775,1000 1775,1025 1775,1050"/>
  <polygon points="1500,1025 1500,525 1500,525 1500,521 1501,517 1502,513 1504,510 1507,507 1510,504 1513,502 1517,501 1525,500 1525,525 1550,525 1550,1025 1525,1025 1500,1025"/>
  <polygon points="1525,500 2025,500 2025,500 2028,500 2032,501 2036,502 2039,504 2042,507 2045,510 2047,513 2048,517 2050,525 2025,525 2025,550 1525,550 1525,525 1525,500"/>
  <polygon points="2050,525 2050,1025 2050,1025 2049,1028 2048,1032 2047,1036 2045,1039 2042,1042 2039,1045 2036,1047 2032,1048 2025,1050 2025,1025 2000,1025 2000,525 2025,525 2050,525"/>
  <polygon points="2025,1025 2025,1050 1775,1050 1775,1025 1775,1000 2025,1000 2025,1025"/>
 </g>
 <g style="stroke:none;fill:rgb(255,0,0)">
  <polygon points="1775,800 1765,797 1757,792 1752,784 1750,775 1752,765 1757,757 1765,752 1775,750 1784,752 1792,757 1797,765 1800,775 1797,784 1792,792 1784,797 1775,800"/>
 </g>
 <g style="stroke:none;fill:rgb(0,0,0)">
  <polygon points="1767,823 1757,820 1757,820 1751,818 1765,797 1772,773 1782,776 1775,800 1767,823"/>
  <polygon points="1751,818 1743,813 1743,813 1740,810 1735,805 1757,792 1770,770 1778,775 1765,797 1751,818"/>
  <polygon points="1735,805 1730,797 1730,797 1727,789 1752,784 1773,770 1778,778 1757,792 1735,805"/>
  <polygon points="1727,789 1725,780 1725,780 1725,776 1725,770 1750,775 1774,769 1776,778 1752,784 1727,789"/>
  <polygon points="1725,770 1727,760 1727,760 1728,757 1730,751 1752,765 1776,769 1774,779 1750,775 1725,770"/>
  <polygon points="1730,751 1735,743 1735,743 1738,740 1743,735 1757,757 1778,770 1773,778 1752,765 1730,751"/>
  <polygon points="1743,735 1751,730 1751,730 1754,729 1760,727 1765,752 1778,773 1770,778 1757,757 1743,735"/>
  <polygon points="1760,727 1770,725 1770,725 1773,725 1780,725 1775,750 1779,774 1769,776 1765,752 1760,727"/>
  <polygon points="1780,725 1789,727 1789,727 1797,730 1784,752 1778,776 1769,774 1775,750 1780,725"/>
  <polygon points="1797,730 1805,735 1805,735 1808,738 1813,743 1792,757 1778,778 1770,773 1784,752 1797,730"/>
  <polygon points="1813,743 1818,751 1818,751 1820,757 1797,765 1775,778 1770,770 1792,757 1813,743"/>
  <polygon points="1820,757 1823,767 1823,767 1824,771 1824,775 1823,782 1800,775 1776,782 1773,772 1797,765 1820,757"/>
  <polygon points="1823,782 1820,791 1820,791 1818,797 1797,784 1773,776 1776,767 1800,775 1823,782"/>
  <polygon points="1818,797 1813,805 1813,805 1810,808 1805,813 1792,792 1770,778 1775,770 1797,784 1818,797"/>
  <polygon points="1805,813 1797,818 1797,818 1791,820 1784,797 1770,775 1778,770 1792,792 1805,813"/>
  <polygon points="1791,820 1782,823 1782,823 1779,824 1775,824 1767,823 1775,800 1767,776 1776,773 1784,797 1791,820"/>
  <polygon points="275,1550 25,1550 25,1550 21,1549 17,1548 13,1547 10,1545 7,1542 4,1539 2,1536 1,1532 0,1525 25,1525 25,1500 275,1500 275,1525 275,1550"/>
  <polygon points="0,1525 0,1025 0,1025 0,1021 1,1017 2,1013 4,1010 7,1007 10,1004 13,1002 17,1001 25,1000 25,1025 50,1025 50,1525 25,1525 0,1525"/>
  <polygon points="25,1000 525,1000 525,1000 528,1000 532,1001 536,1002 539,1004 542,1007 545,1010 547,1013 548,1017 550,1025 525,1025 525,1050 25,1050 25,1025 25,1000"/>
  <polygon points="550,1025 550,1525 550,1525 549,1528 548,1532 547,1536 545,1539 542,1542 539,1545 536,1547 532,1548 525,1550 525,1525 500,1525 500,1025 525,1025 550,1025"/>
  <polygon points="525,1525 525,1550 275,1550 275,1525 275,1500 525,1500 525,1525"/>
 </g>
 <g style="stroke:none;fill:rgb(255,0,0)">
  <polygon points="275,1300 265,1297 257,1292 252,1284 250,1275 252,1265 257,1257 265,1252 275,1250 284,1252 292,1257 297,1265 300,1275 297,1284 292,1292 284,1297 275,1300"/>
 </g>
 <g style="stroke:none;fill:rgb(0,0,0)">
  <polygon points="267,1323 257,1320 257,1320 251,1318 265,1297 272,1273 282,1276 275,1300 267,1323"/>
  <polygon points="251,1318 243,1313 243,1313 240,1310 235,1305 257,1292 270,1270 278,1275 265,1297 251,1318"/>
  <polygon points="235,1305 230,1297 230,1297 227,1289 252,1284 273,1270 278,1278 257,1292 235,1305"/>
  <polygon points="227,1289 225,1280 225,1280 225,1276 225,1270 250,1275 274,1269 276,1278 252,1284 227,1289"/>
  <polygon points="225,1270 227,1260 227,1260 228,1257 230,1251 252,1265 276,1269 274,1279 250,1275 225,1270"/>
  <polygon points="230,1251 235,1243 235,1243 238,1240 243,1235 257,1257 278,1270 273,1278 252,1265 230,1251"/>
  <polygon points="243,1235 251,1230 251,1230 254,1229 260,1227 265,1252 278,1273 270,1278 257,1257 243,1235"/>
  <polygon points="260,1227 270,1225 270,1225 273,1225 280,1225 275,1250 279,1274 269,1276 265,1252 260,1227"/>
  <polygon points="280,1225 289,1227 289,1227 297,1230 284,1252 278,1276 269,1274 275,1250 280,1225"/>
  <polygon points="297,1230 305,1235 305,1235 308,1238 313,1243 292,1257 278,1278 270,1273 284,1252 297,1230"/>
  <polygon points="313,1243 318,1251 318,1251 320,1257 297,1265 275,1278 270,1270 292,1257 313,1243"/>
  <polygon points="320,1257 323,1267 323,1267 324,1271 324,1275 323,1282 300,1275 276,1282 273,1272 297,1265 320,1257"/>
  <polygon points="323,1282 320,1291 320,1291 318,1297 297,1284 273,1276 276,1267 300,1275 323,1282"/>
  <polygon points="318,1297 313,1305 313,1305 310,1308 305,1313 292,1292 270,1278 275,1270 297,1284 318,1297"/>
  <polygon points="305,1313 297,1318 297,1318 291,1320 284,1297 270,1275 278,1270 292,1292 305,1313"/>
  <polygon points="291,1320 282,1323 282,1323 279,1324 275,1324 267,1323 275,1300 267,1276 276,1273 284,1297 291,1320"/>
  <polygon points="775,1550 525,1550 525,1550 521,1549 517,1548 513,1547 510,1545 507,1542 504,1539 502,1536 501,1532 500,1525 525,1525 525,1500 775,1500 775,1525 775,1550"/>
  <polygon points="500,1525 500,1025 500,1025 500,1021 501,1017 502,1013 504,1010 507,1007 510,1004 513,1002 517,1001 525,1000 525,1025 550,1025 550,1525 525,1525 500,1525"/>
  <polygon points="525,1000 1025,1000 1025,1000 1028,1000 1032,1001 1036,1002 1039,1004 1042,1007 1045,1010 1047,1013 1048,1017 1050,1025 1025,1025 1025,1050 525,1050 525,1025 525,1000"/>
  <polygon points="1050,1025 1050,1525 1050,1525 1049,1528 1048,1532 1047,1536 1045,1539 1042,1542 1039,1545 1036,1547 1032,1548 1025,1550 1025,1525 1000,1525 1000,1025 1025,1025 1050,1025"/>
  <polygon points="1025,1525 1025,1550 775,1550 775,1525 775,1500 1025,1500 1025,1525"/>
 </g>
 <g style="stroke:none;fill:rgb(255,0,0)">
  <polygon points="775,1300 765,1297 757,1292 752,1284 750,1275 752,1265 757,1257 765,1252 775,1250 784,1252 792,1257 797,1265 800,1275 797,1284 792,1292 784,1297 775,1300"/>
 </g>
 <g style="stroke:none;fill:rgb(0,0,0)">
  <polygon points="767,1323 757,1320 757,1320 751,1318 765,1297 772,1273 782,1276 775,1300 767,1323"/>
  <polygon points="751,1318 743,1313 743,1313 740,1310 735,1305 757,1292 770,1270 778,1275 765,1297 751,1318"/>
  <polygon points="735,1305 730,1297 730,1297 727,1289 752,1284 773,1270 778,1278 757,1292 735,1305"/>
  <polygon points="727,1289 725,1280 725,1280 725,1276 725,1270 750,1275 774,1269 776,1278 752,1284 727,1289"/>
  <polygon points="725,1270 727,1260 727,1260 728,1257 730,1251 752,1265 776,1269 774,1279 750,1275 725,1270"/>
  <polygon points="730,1251 735,1243 735,1243 738,1240 743,1235 757,1257 778,1270 773,1278 752,1265 730,1251"/>
  <polygon points="743,1235 751,1230 751,1230 754,1229 760,1227 765,1252 778,1273 770,1278 757,1257 743,1235"/>
  <polygon points="760,1227 770,1225 770,1225 773,1225 780,1225 775,1250 779,1274 769,1276 765,1252 760,1227"/>
  <polygon points="780,1225 789,1227 789,1227 797,1230 784,1252 778,1276 769,1274 775,1250 780,1225"/>
  <polygon points="797,1230 805,1235 805,1235 808,1238 813,1243 792,1257 778,1278 770,1273 784,1252 797,1230"/>
  <polygon points="813,1243 818,1251 818,1251 820,1257 797,1265 775,1278 770,1270 792,1257 813,1243"/>
  <polygon points="820,1257 823,1267 823,1267 824,1271 824,1275 823,1282 800,1275 776,1282 773,1272 797,1265 820,1257"/>
  <polygon points="823,1282 820,1291 820,1291 818,1297 797,1284 773,1276 776,1267 800,1275 823,1282"/>
  <polygon points="818,1297 813,1305 813,1305 810,1308 805,1313 792,1292 770,1278 775,1270 797,1284 818,1297"/>
  <polygon points="805,1313 797,1318 797,1318 791,1320 784,1297 770,1275 778,1270 792,1292 805,1313"/>
  <polygon points="791,1320 782,1323 782,1323 779,1324 775,1324 767,1323 775,1300 767,1276 776,1273 784,1297 791,1320"/>
  <polygon points="1275,1550 1025,1550 1025,1550 1021,1549 1017,1548 1013,1547 1010,1545 1007,1542 1004,1539 1002,1536 1001,1532 1000,1525 1025,1525 1025,1500 1275,1500 1275,1525 1275,1550"/>
  <polygon points="1000,1525 1000,1025 1000,1025 1000,1021 1001,1017 1002,1013 1004,1010 1007,1007 1010,1004 1013,1002 1017,1001 1025,1000 1025,1025 1050,1025 1050,1525 1025,1525 1000,1525"/>
  <polygon points="1025,1000 1525,1000 1525,1000 1528,1000 1532,1001 1536,1002 1539,1004 1542,1007 1545,1010 1547,1013 1548,1017 1550,1025 1525,1025 1525,1050 1025,1050 1025,1025 1025,1000"/>
  <polygon points="1550,1025 1550,1525 1550,1525 1549,1528 1548,1532 1547,1536 1545,1539 1542,1542 1539,1545 1536,1547 1532,1548 1525,1550 1525,1525 1500,1525 1500,1025 1525,1025 1550,1025"/>
  <polygon points="1525,1525 1525,1550 1275,1550 1275,1525 1275,1500 1525,1500 1525,1525"/>
 </g>
 <g style="stroke:none;fill:rgb(255,0,0)">
  <polygon points="1275,1300 1265,1297 1257,1292 1252,1284 1250,1275 1252,1265 1257,1257 1265,1252 1275,1250 1284,1252 1292,1257 1297,1265 1300,1275 1297,1284 1292,1292 1284,1297 1275,1300"/>
 </g>
 <g style="stroke:none;fill:rgb(0,0,0)">
  <polygon points="1267,1323 1257,1320 1257,1320 1251,1318 1265,1297 1272,1273 1282,1276 1275,1300 1267,1323"/>
  <polygon points="1251,1318 1243,1313 1243,1313 1240,1310 1235,1305 1257,1292 1270,1270 1278,1275 1265,1297 1251,1318"/>
  <polygon points="1235,1305 1230,1297 1230,1297 1227,1289 1252,1284 1273,1270 1278,1278 1257,1292 1235,1305"/>
  <polygon points="1227,1289 1225,1280 1225,1280 1225,1276 1225,1270 1250,1275 1274,1269 1276,1278 1252,1284 1227,1289"/>
  <polygon points="1225,1270 1227,1260 1227,1260 1228,1257 1230,1251 1252,1265 1276,1269 1274,1279 1250,1275 1225,1270"/>
  <polygon points="1230,1251 1235,1243 1235,1243 1238,1240 1243,1235 1257,1257 1278,1270 1273,1278 1252,1265 1230,1251"/>
  <polygon points="1243,1235 1251,1230 1251,1230 1254,1229 1260,1227 1265,1252 1278,1273 1270,1278 1257,1257 1243,1235"/>
  <polygon points="1260,1227 1270,1225 1270,1225 1273,1225 1280,1225 1275,1250 1279,1274 1269,1276 1265,1252 1260,1227"/>
  <polygon points="1280,1225 1289,1227 1289,1227 1297,1230 1284,1252 1278,1276 1269,1274 1275,1250 1280,1225"/>
  <polygon points="1297,1230 1305,1235 1305,1235 1308,1238 1313,1243 1292,1257 1278,1278 1270,1273 1284,1252 1297,1230"/>
  <polygon points="1313,1243 1318,1251 1318,1251 1320,1257 1297,1265 1275,1278 1270,1270 1292,1257 1313,1243"/>
  <polygon points="1320,1257 1323,1267 1323,1267 1324,1271 1324,1275 1323,1282 1300,1275 1276,1282 1273,1272 1297,1265 1320,1257"/>
  <polygon points="1323,1282 1320,1291 1320,1291 1318,1297 1297,1284 1273,1276 1276,1267 1300,1275 1323,1282"/>
  <polygon points="1318,1297 1313,1305 1313,1305 1310,1308 1305,1313 1292,1292 1270,1278 1275,1270 1297,1284 1318,1297"/>
  <polygon points="1305,1313 1297,1318 1297,1318 1291,1320 1284,1297 1270,1275 1278,1270 1292,1292 1305,1313"/>
  <polygon points="1291,1320 1282,1323 1282,1323 1279,1324 1275,1324 1267,1323 1275,1300 1267,1276 1276,1273 1284,1297 1291,1320"/>
  <polygon points="1775,1550 1525,1550 1525,1550 1521,1549 1517,1548 1513,1547 1510,1545 1507,1542 1504,1539 1502,1536 1501,1532 1500,1525 1525,1525 1525,1500 1775,1500 1775,1525 1775,1550"/>
  <polygon points="1500,1525 1500,1025 1500,1025 1500,1021 1501,1017 1502,1013 1504,1010 1507,1007 1510,1004 1513,1002 1517,1001 1525,1000 1525,1025 1550,1025 1550,1525 1525,1525 1500,1525"/>
  <polygon points="1525,1000 2025,1000 2025,1000 2028,1000 2032,1001 2036,1002 2039,1004 2042,1007 2045,1010 2047,1013 2048,1017 2050,1025 2025,1025 2025,1050 1525,1050 1525,1025 1525,1000"/>
  <polygon points="2050,1025 2050,1525 2050,1525 2049,1528 2048,1532 2047,1536 2045,1539 2042,1542 2039,1545 2036,1547 2032,1548 2025,1550 2025,1525 2000,1525 2000,1025 2025,1025 2050,1025"/>
  <polygon points="2025,1525 2025,1550 1775,1550 1775,1525 1775,1500 2025,1500 2025,1525"/>
 </g>
 <g style="stroke:none;fill:rgb(255,0,0)">
  <polygon points="1775,1300 1765,1297 1757,1292 1752,1284 1750,1275 1752,1265 1757,1257 1765,1252 1775,1250 1784,1252 1792,1257 1797,1265 1800,1275 1797,1284 1792,1292 1784,1297 1775,1300"/>
 </g>
 <g style="stroke:none;fill:rgb(0,0,0)">
  <polygon points="1767,1323 1757,1320 1757,1320 1751,1318 1765,1297 1772,1273 1782,1276 1775,1300 1767,1323"/>
  <polygon points="1751,1318 1743,1313 1743,1313 1740,1310 1735,1305 1757,1292 1770,1270 1778,1275 1765,1297 1751,1318"/>
  <polygon points="1735,1305 1730,1297 1730,1297 1727,1289 1752,1284 1773,1270 1778,1278 1757,1292 1735,1305"/>
  <polygon points="1727,1289 1725,1280 1725,1280 1725,1276 1725,1270 1750,1275 1774,1269 1776,1278 1752,1284 1727,1289"/>
  <polygon points="1725,1270 1727,1260 1727,1260 1728,1257 1730,1251 1752,1265 1776,1269 1774,1279 1750,1275 1725,1270"/>
  <polygon points="1730,1251 1735,1243 1735,1243 1738,1240 1743,1235 1757,1257 1778,1270 1773,1278 1752,1265 1730,1251"/>
  <polygon points="1743,1235 1751,1230 1751,1230 1754,1229 1760,1227 1765,1252 1778,1273 1770,1278 1757,1257 1743,1235"/>
  <polygon points="1760,1227 1770,1225 1770,1225 1773,1225 1780,1225 1775,1250 1779,1274 1769,1276 1765,1252 1760,1227"/>
  <polygon points="1780,1225 1789,1227 1789,1227 1797,1230 1784,1252 1778,1276 1769,1274 1775,1250 1780,1225"/>
  <polygon points="1797,1230 1805,1235 1805,1235 1808,1238 1813,1243 1792,1257 1778,1278 1770,1273 1784,1252 1797,1230"/>
  <polygon points="1813,1243 1818,1251 1818,1251 1820,1257 1797,1265 1775,1278 1770,1270 1792,1257 1813,1243"/>
  <polygon points="1820,1257 1823,1267 1823,1267 1824,1271 1824,1275 1823,1282 1800,1275 1776,1282 1773,1272 1797,1265 1820,1257"/>
  <polygon points="1823,1282 1820,1291 1820,1291 1818,1297 1797,1284 1773,1276 1776,1267 1800,1275 1823,1282"/>
  <polygon points="1818,1297 1813,1305 1813,1305 1810,1308 1805,1313 1792,1292 1770,1278 1775,1270 1797,1284 1818,1297"/>
  <polygon points="1805,1313 1797,1318 1797,1318 1791,1320 1784,1297 1770,1275 1778,1270 1792,1292 1805,1313"/>
  <polygon points="1791,1320 1782,1323 1782,1323 1779,1324 1775,1324 1767,1323 1775,1300 1767,1276 1776,1273 1784,1297 1791,1320"/>
  <polygon points="275,2050 25,2050 25,2050 21,2049 17,2048 13,2047 10,2045 7,2042 4,2039 2,2036 1,2032 0,2025 25,2025 25,2000 275,2000 275,2025 275,2050"/>
  <polygon points="0,2025 0,1525 0,1525 0,1521 1,1517 2,1513 4,1510 7,1507 10,1504 13,1502 17,1501 25,1500 25,1525 50,1525 50,2025 25,2025 0,2025"/>
  <polygon points="25,1500 525,1500 525,1500 528,1500 532,1501 536,1502 539,1504 542,1507 545,1510 547,1513 548,1517 550,1525 525,1525 525,1550 25,1550 25,1525 25,1500"/>
  <polygon points="550,1525 550,2025 550,2025 549,2028 548,2032 547,2036 545,2039 542,2042 539,2045 536,2047 532,2048 525,2050 525,2025 500,2025 500,1525 525,1525 550,1525"/>
  <polygon points="525,2025 525,2050 275,2050 275,2025 275,2000 525,2000 525,2025"/>
 </g>
 <g style="stroke:none;fill:rgb(255,0,0)">
  <polygon points="275,1800 265,1797 257,1792 252,1784 250,1775 252,1765 257,1757 265,1752 275,1750 284,1752 292,1757 297,1765 300,1775 297,1784 292,1792 284,1797 275,1800"/>
 </g>
 <g style="stroke:none;fill:rgb(0,0,0)">
  <polygon points="267,1823 257,1820 257,1820 251,1818 265,1797 272,1773 282,1776 275,1800 267,1823"/>
  <polygon points="251,1818 243,1813 243,1813 240,1810 235,1805 257,1792 270,1770 278,1775 265,1797 251,1818"/>
  <polygon points="235,1805 230,1797 230,1797 227,1789 252,1784 273,1770 278,1778 257,1792 235,1805"/>
  <polygon points="227,1789 225,1780 225,1780 225,1776 225,1770 250,1775 274,1769 276,1778 252,1784 227,1789"/>
  <polygon points="225,1770 227,1760 227,1760 228,1757 230,1751 252,1765 276,1769 274,1779 250,1775 225,1770"/>
  <polygon points="230,1751 235,1743 235,1743 238,1740 243,1735 257,1757 278,1770 273,1778 252,1765 230,1751"/>
  <polygon points="243,1735 251,1730 251,1730 254,1729 260,1727 265,1752 278,1773 270,1778 257,1757 243,1735"/>
  <polygon points="260,1727 270,1725 270,1725 273,1725 280,1725 275,1750 279,1774 269,1776 265,1752 260,1727"/>
  <polygon points="280,1725 289,1727 289,1727 297,1730 284,1752 278,1776 269,1774 275,1750 280,1725"/>
  <polygon points="297,1730 305,1735 305,1735 308,1738 313,1743 292,1757 278,1778 270,1773 284,1752 297,1730"/>
  <polygon points="313,1743 318,1751 318,1751 320,1757 297,1765 275,1778 270,1770 292,1757 313,1743"/>
  <polygon points="320,1757 323,1767 323,1767 324,1771 324,1775 323,1782 300,1775 276,1782 273,1772 297,1765 320,1757"/>
  <polygon points="323,1782 320,1791 320,1791 318,1797 297,1784 273,1776 276,1767 300,1775 323,1782"/>
  <polygon points="318,1797 313,1805 313,1805 310,1808 305,1813 292,1792 270,1778 275,1770 297,1784 318,1797"/>
  <polygon points="305,1813 297,1818 297,1818 291,1820 284,1797 270,1775 278,1770 292,1792 305,1813"/>
  <polygon points="291,1820 282,1823 282,1823 279,1824 275,1824 267,1823 275,1800 267,1776 276,1773 284,1797 291,1820"/>
  <polygon points="775,2050 525,2050 525,2050 521,2049 517,2048 513,2047 510,2045 507,2042 504,2039 502,2036 501,2032 500,2025 525,2025 525,2000 775,2000 775,2025 775,2050"/>
  <polygon points="500,2025 500,1525 500,1525 500,1521 501,1517 502,1513 504,1510 507,1507 510,1504 513,1502 517,1501 525,1500 525,1525 550,1525 550,2025 525,2025 500,2025"/>
  <polygon points="525,1500 1025,1500 1025,1500 1028,1500 1032,1501 1036,1502 1039,1504 1042,1507 1045,1510 1047,1513 1048,1517 1050,1525 1025,1525 1025,1550 525,1550 525,1525 525,1500"/>
  <polygon points="1050,1525 1050,2025 1050,2025 1049,2028 1048,2032 1047,2036 1045,2039 1042,2042 1039,2045 1036,2047 1032,2048 1025,2050 1025,2025 1000,2025 1000,1525 1025,1525 1050,1525"/>
  <polygon points="1025,2025 1025,2050 775,2050 775,2025 775,2000 1025,2000 1025,2025"/>
 </g>
 <g style="stroke:none;fill:rgb(255,0,0)">
  <polygon points="775,1800 765,1797 757,1792 752,1784 750,1775 752,1765 757,1757 765,1752 775,1750 784,1752 792,1757 797,1765 800,1775 797,1784 792,1792 784,1797 775,1800"/>
 </g>
 <g style="stroke:none;fill:rgb(0,0,0)">
  <polygon points="767,1823 757,1820 757,1820 751,1818 765,1797 772,1773 782,1776 775,1800 767,1823"/>
  <polygon points="751,1818 743,1813 743,1813 740,1810 735,1805 757,1792 770,1770 778,1775 765,1797 751,1818"/>
  <polygon points="735,1805 730,1797 730,1797 727,1789 752,1784 773,1770 778,1778 757,1792 735,1805"/>
  <polygon points="727,1789 725,1780 725,1780 725,1776 725,1770 750,1775 774,1769 776,1778 752,1784 727,1789"/>
  <polygon points="725,1770 727,1760 727,1760 728,1757 730,1751 752,1765 776,1769 774,1779 750,1775 725,1770"/>
  <polygon points="730,1751 735,1743 735,1743 738,1740 743,1735 757,1757 778,1770 773,1778 752,1765 730,1751"/>
  <polygon points="743,1735 751,1730 751,1730 754,1729 760,1727 765,1752 778,1773 770,1778 757,1757 743,1735"/>
  <polygon points="760,1727 770,1725 770,1725 773,1725 780,1725 775,1750 779,1774 769,1776 765,1752 760,1727"/>
  <polygon points="780,1725 789,1727 789,1727 797,1730 784,1752 778,1776 769,1774 775,1750 780,1725"/>
  <polygon points="797,1730 805,1735 805,1735 808,1738 813,1743 792,1757 778,1778 770,1773 784,1752 797,1730"/>
  <polygon points="813,1743 818,1751 818,1751 820,1757 797,1765 775,1778 770,1770 792,1757 813,1743"/>
  <polygon points="820,1757 823,1767 823,1767 824,1771 824,1775 823,1782 800,1775 776,1782 773,1772 797,1765 820,1757"/>
  <polygon points="823,1782 820,1791 820,1791 818,1797 797,1784 773,1776 776,1767 800,1775 823,1782"/>
  <polygon points="818,1797 813,1805 813,1805 810,1808 805,1813 792,1792 770,1778 775,1770 797,1784 818,1797"/>
  <polygon points="805,1813 797,1818 797,1818 791,1820 784,1797 770,1775 778,1770 792,1792 805,1813"/>
  <polygon points="791,1820 782,1823 782,1823 779,1824 775,1824 767,1823 775,1800 767,1776 776,1773 784,1797 791,1820"/>
  <polygon points="1275,2050 1025,2050 1025,2050 1021,2049 1017,2048 1013,2047 1010,2045 1007,2042 1004,2039 1002,2036 1001,2032 1000,2025 1025,2025 1025,2000 1275,2000 1275,2025 1275,2050"/>
  <polygon points="1000,2025 1000,1525 1000,1525 1000,1521 1001,1517 1002,1513 1004,1510 1007,1507 1010,1504 1013,1502 1017,1501 1025,1500 1025,1525 1050,1525 1050,2025 1025,2025 1000,2025"/>
  <polygon points="1025,1500 1525,1500 1525,1500 1528,1500 1532,1501 1536,1502 1539,1504 1542,1507 1545,1510 1547,1513 1548,1517 1550,1525 1525,1525 1525,1550 1025,1550 1025,1525 1025,1500"/>
  <polygon points="1550,1525 1550,2025 1550,2025 1549,2028 1548,2032 1547,2036 1545,2039 1542,2042 1539,2045 1536,2047 1532,2048 1525,2050 1525,2025 1500,2025 1500,1525 1525,1525 1550,1525"/>
  <polygon points="1525,2025 1525,2050 1275,2050 1275,2025 1275,2000 1525,2000 1525,2025"/>
 </g>
 <g style="stroke:none;fill:rgb(255,0,0)">
  <polygon points="1275,1800 1265,1797 1257,1792 1252,1784 1250,1775 1252,1765 1257,1757 1265,1752 1275,1750 1284,1752 1292,1757 1297,1765 1300,1775 1297,1784 1292,1792 1284,1797 1275,1800"/>
 </g>
 <g style="stroke:none;fill:rgb(0,0,0)">
  <polygon points="1267,1823 1257,1820 1257,1820 1251,1818 1265,1797 1272,1773 1282,1776 1275,1800 1267,1823"/>
  <polygon points="1251,1818 1243,1813 1243,1813 1240,1810 1235,1805 1257,1792 1270,1770 1278,1775 1265,1797 1251,1818"/>
  <polygon points="1235,1805 1230,1797 1230,1797 1227,1789 1252,1784 1273,1770 1278,1778 1257,1792 1235,1805"/>
  <polygon points="1227,1789 1225,1780 1225,1780 1225,1776 1225,1770 1250,1775 1274,1769 1276,1778 1252,1784 1227,1789"/>
  <polygon points="1225,1770 1227,1760 1227,1760 1228,1757 1230,1751 1252,1765 1276,1769 1274,1779 1250,1775 1225,1770"/>
  <polygon points="1230,1751 1235,1743 1235,1743 1238,1740 1243,1735 1257,1757 1278,1770 1273,1778 1252,1765 1230,1751"/>
  <polygon points="1243,1735 1251,1730 1251,1730 1254,1729 1260,1727 1265,1752 1278,1773 1270,1778 1257,1757 1243,1735"/>
  <polygon points="1260,1727 1270,1725 1270,1725 1273,1725 1280,1725 1275,1750 1279,1774 1269,1776 1265,1752 1260,1727"/>
  <polygon points="1280,1725 1289,1727 1289,1727 1297,1730 1284,1752 1278,1776 1269,1774 1275,1750 1280,1725"/>
  <polygon points="1297,1730 1305,1735 1305,1735 1308,1738 1313,1743 1292,1757 1278,1778 1270,1773 1284,1752 1297,1730"/>
  <polygon points="1313,1743 1318,1751 1318,1751 1320,1757 1297,1765 1275,1778 1270,1770 1292,1757 1313,1743"/>
  <polygon points="1320,1757 1323,1767 1323,1767 1324,1771 1324,1775 1323,1782 1300,1775 1276,1782 1273,1772 1297,1765 1320,1757"/>
  <polygon points="1323,1782 1320,1791 1320,1791 1318,1797 1297,1784 1273,1776 1276,1767 1300,1775 1323,1782"/>
  <polygon points="1318,1797 1313,1805 1313,1805 1310,1808 1305,1813 1292,1792 1270,1778 1275,1770 1297,1784 1318,1797"/>
  <polygon points="1305,1813 1297,1818 1297,1818 1291,1820 1284,1797 1270,1775 1278,1770 1292,1792 1305,1813"/>
  <polygon points="1291,1820 1282,1823 1282,1823 1279,1824 1275,1824 1267,1823 1275,1800 1267,1776 1276,1773 1284,1797 1291,1820"/>
  <polygon points="1775,2050 1525,2050 1525,2050 1521,2049 1517,2048 1513,2047 1510,2045 1507,2042 1504,2039 1502,2036 1501,2032 1500,2025 1525,2025 1525,2000 1775,2000 1775,2025 1775,2050"/>
  <polygon points="1500,2025 1500,1525 1500,1525 1500,1521 1501,1517 1502,1513 1504,1510 1507,1507 1510,1504 1513,1502 1517,1501 1525,1500 1525,1525 1550,1525 1550,2025 1525,2025 1500,2025"/>
  <polygon points="1525,1500 2025,1500 2025,1500 2028,1500 2032,1501 2036,1502 2039,1504 2042,1507 2045,1510 2047,1513 2048,1517 2050,1525 2025,1525 2025,1550 1525,1550 1525,1525 1525,1500"/>
  <polygon points="2050,1525 2050,2025 2050,2025 2049,2028 2048,2032 2047,2036 2045,2039 2042,2042 2039,2045 2036,2047 2032,2048 2025,2050 2025,2025 2000,2025 2000,1525 2025,1525 2050,1525"/>
  <polygon points="2025,2025 2025,2050 1775,2050 1775,2025 1775,2000 2025,2000 2025,2025"/>
 </g>
 <g style="stroke:none;fill:rgb(255,0,0)">
  <polygon points="1775,1800 1765,1797 1757,1792 1752,1784 1750,1775 1752,1765 1757,1757 1765,1752 1775,1750 1784,1752 1792,1757 1797,1765 1800,1775 1797,1784 1792,1792 1784,1797 1775,1800"/>
 </g>
 <g style="stroke:none;fill:rgb(0,0,0)">
  <polygon points="1767,1823 1757,1820 1757,1820 1751,1818 1765,1797 1772,1773 1782,1776 1775,1800 1767,1823"/>
  <polygon points="1751,1818 1743,1813 1743,1813 1740,1810 1735,1805 1757,1792 1770,1770 1778,1775 1765,1797 1751,1818"/>
  <polygon points="1735,1805 1730,1797 1730,1797 1727,1789 1752,1784 1773,1770 1778,1778 1757,1792 1735,1805"/>
  <polygon points="1727,1789 1725,1780 1725,1780 1725,1776 1725,1770 1750,1775 1774,1769 1776,1778 1752,1784 1727,1789"/>
  <polygon points="1725,1770 1727,1760 1727,1760 1728,1757 1730,1751 1752,1765 1776,1769 1774,1779 1750,1775 1725,1770"/>
  <polygon points="1730,1751 1735,1743 1735,1743 1738,1740 1743,1735 1757,1757 1778,1770 1773,1778 1752,1765 1730,1751"/>
  <polygon points="1743,1735 1751,1730 1751,1730 1754,1729 1760,1727 1765,1752 1778,1773 1770,1778 1757,1757 1743,1735"/>
  <polygon points="1760,1727 1770,1725 1770,1725 1773,1725 1780,1725 1775,1750 1779,1774 1769,1776 1765,1752 1760,1727"/>
  <polygon points="1780,1725 1789,1727 1789,1727 1797,1730 1784,1752 1778,1776 1769,1774 1775,1750 1780,1725"/>
  <polygon points="1797,1730 1805,1735 1805,1735 1808,1738 1813,1743 1792,1757 1778,1778 1770,1773 1784,1752 1797,1730"/>
  <polygon points="1813,1743 1818,1751 1818,1751 1820,1757 1797,1765 1775,1778 1770,1770 1792,1757 1813,1743"/>
  <polygon points="1820,1757 1823,1767 1823,1767 1824,1771 1824,1775 1823,1782 1800,1775 1776,1782 1773,1772 1797,1765 1820,1757"/>
  <polygon points="1823,1782 1820,1791 1820,1791 1818,1797 1797,1784 1773,1776 1776,1767 1800,1775 1823,1782"/>
  <polygon points="1818,1797 1813,1805 1813,1805 1810,1808 1805,1813 1792,1792 1770,1778 1775,1770 1797,1784 1818,1797"/>
  <polygon points="1805,1813 1797,1818 1797,1818 1791,1820 1784,1797 1770,1775 1778,1770 1792,1792 1805,1813"/>
  <polygon points="1791,1820 1782,1823 1782,1823 1779,1824 1775,1824 1767,1823 1775,1800 1767,1776 1776,1773 1784,1797 1791,1820"/>
  <polygon points="2766,1251 2516,1251 2516,1251 2512,1250 2508,1249 2504,1248 2501,1246 2498,1243 2495,1240 2493,1237 2492,1233 2491,1226 2516,1226 2516,1201 2766,1201 2766,1226 2766,1251"/>
  <polygon points="2491,1226 2491,726 2491,726 2491,722 2492,718 2493,714 2495,711 2498,708 2501,705 2504,703 2508,702 2516,701 2516,726 2541,726 2541,1226 2516,1226 2491,1226"/>
  <polygon points="2516,701 3016,701 3016,701 3019,701 3023,702 3027,703 3030,705 3033,708 3036,711 3038,714 3039,718 3041,726 3016,726 3016,751 2516,751 2516,726 2516,701"/>
  <polygon points="3041,726 3041,1226 3041,1226 3040,1229 3039,1233 3038,1237 3036,1240 3033,1243 3030,1246 3027,1248 3023,1249 3016,1251 3016,1226 2991,1226 2991,726 3016,726 3041,726"/>
  <polygon points="3016,1226 3016,1251 2766,1251 2766,1226 2766,1201 3016,1201 3016,1226"/>
 </g>
 <g style="stroke:none;fill:rgb(255,0,0)">
  <polygon points="2766,1001 2756,998 2748,993 2743,985 2741,976 2743,966 2748,958 2756,953 2766,951 2775,953 2783,958 2788,966 2791,976 2788,985 2783,993 2775,998 2766,1001"/>
 </g>
 <g style="stroke:none;fill:rgb(0,0,0)">
  <polygon points="2758,1024 2748,1021 2748,1021 2742,1019 2756,998 2763,974 2773,977 2766,1001 2758,1024"/>
  <polygon points="2742,1019 2734,1014 2734,1014 2731,1011 2726,1006 2748,993 2761,971 2769,976 2756,998 2742,1019"/>
  <polygon points="2726,1006 2721,998 2721,998 2718,990 2743,985 2764,971 2769,979 2748,993 2726,1006"/>
  <polygon points="2718,990 2716,981 2716,981 2716,977 2716,971 2741,976 2765,970 2767,979 2743,985 2718,990"/>
  <polygon points="2716,971 2718,961 2718,961 2719,958 2721,952 2743,966 2767,970 2765,980 2741,976 2716,971"/>
  <polygon points="2721,952 2726,944 2726,944 2729,941 2734,936 2748,958 2769,971 2764,979 2743,966 2721,952"/>
  <polygon points="2734,936 2742,931 2742,931 2745,930 2751,928 2756,953 2769,974 2761,979 2748,958 2734,936"/>
  <polygon points="2751,928 2761,926 2761,926 2764,926 2771,926 2766,951 2770,975 2760,977 2756,953 2751,928"/>
  <polygon points="2771,926 2780,928 2780,928 2788,931 2775,953 2769,977 2760,975 2766,951 2771,926"/>
  <polygon points="2788,931 2796,936 2796,936 2799,939 2804,944 2783,958 2769,979 2761,974 2775,953 2788,931"/>
  <polygon points="2804,944 2809,952 2809,952 2811,958 2788,966 2766,979 2761,971 2783,958 2804,944"/>
  <polygon points="2811,958 2814,968 2814,968 2815,972 2815,976 2814,983 2791,976 2767,983 2764,973 2788,966 2811,958"/>
  <polygon points="2814,983 2811,992 2811,992 2809,998 2788,985 2764,977 2767,968 2791,976 2814,983"/>
  <polygon points="2809,998 2804,1006 2804,1006 2801,1009 2796,1014 2783,993 2761,979 2766,971 2788,985 2809,998"/>
  <polygon points="2796,1014 2788,1019 2788,1019 2782,1021 2775,998 2761,976 2769,971 2783,993 2796,1014"/>
  <polygon points="2782,1021 2773,1024 2773,1024 2770,1025 2766,1025 2758,1024 2766,1001 2758,977 2767,974 2775,998 2782,1021"/>
  <polygon points="3266,1251 3016,1251 3016,1251 3012,1250 3008,1249 3004,1248 3001,1246 2998,1243 2995,1240 2993,1237 2992,1233 2991,1226 3016,1226 3016,1201 3266,1201 3266,1226 3266,1251"/>
  <polygon points="2991,1226 2991,726 2991,726 2991,722 2992,718 2993,714 2995,711 2998,708 3001,705 3004,703 3008,702 3016,701 3016,726 3041,726 3041,1226 3016,1226 2991,1226"/>
  <polygon points="3016,701 3516,701 3516,701 3519,701 3523,702 3527,703 3530,705 3533,708 3536,711 3538,714 3539,718 3541,726 3516,726 3516,751 3016,751 3016,726 3016,701"/>
  <polygon points="3541,726 3541,1226 3541,1226 3540,1229 3539,1233 3538,1237 3536,1240 3533,1243 3530,1246 3527,1248 3523,1249 3516,1251 3516,1226 3491,1226 3491,726 3516,726 3541,726"/>
  <polygon points="3516,1226 3516,1251 3266,1251 3266,1226 3266,1201 3516,1201 3516,1226"/>
 </g>
 <g style="stroke:none;fill:rgb(255,0,0)">
  <polygon points="3266,1001 3256,998 3248,993 3243,985 3241,976 3243,966 3248,958 3256,953 3266,951 3275,953 3283,958 3288,966 3291,976 3288,985 3283,993 3275,998 3266,1001"/>
 </g>
 <g style="stroke:none;fill:rgb(0,0,0)">
  <polygon points="3258,1024 3248,1021 3248,1021 3242,1019 3256,998 3263,974 3273,977 3266,1001 3258,1024"/>
  <polygon points="3242,1019 3234,1014 3234,1014 3231,1011 3226,1006 3248,993 3261,971 3269,976 3256,998 3242,1019"/>
  <polygon points="3226,1006 3221,998 3221,998 3218,990 3243,985 3264,971 3269,979 3248,993 3226,1006"/>
  <polygon points="3218,990 3216,981 3216,981 3216,977 3216,971 3241,976 3265,970 3267,979 3243,985 3218,990"/>
  <polygon points="3216,971 3218,961 3218,961 3219,958 3221,952 3243,966 3267,970 3265,980 3241,976 3216,971"/>
  <polygon points="3221,952 3226,944 3226,944 3229,941 3234,936 3248,958 3269,971 3264,979 3243,966 3221,952"/>
  <polygon points="3234,936 3242,931 3242,931 3245,930 3251,928 3256,953 3269,974 3261,979 3248,958 3234,936"/>
  <polygon points="3251,928 3261,926 3261,926 3264,926 3271,926 3266,951 3270,975 3260,977 3256,953 3251,928"/>
  <polygon points="3271,926 3280,928 3280,928 3288,931 3275,953 3269,977 3260,975 3266,951 3271,926"/>
  <polygon points="3288,931 3296,936 3296,936 3299,939 3304,944 3283,958 3269,979 3261,974 3275,953 3288,931"/>
  <polygon points="3304,944 3309,952 3309,952 3311,958 3288,966 3266,979 3261,971 3283,958 3304,944"/>
  <polygon points="3311,958 3314,968 3314,968 3315,972 3315,976 3314,983 3291,976 3267,983 3264,973 3288,966 3311,958"/>
  <polygon points="3314,983 3311,992 3311,992 3309,998 3288,985 3264,977 3267,968 3291,976 3314,983"/>
  <polygon points="3309,998 3304,1006 3304,1006 3301,1009 3296,1014 3283,993 3261,979 3266,971 3288,985 3309,998"/>
  <polygon points="3296,1014 3288,1019 3288,1019 3282,1021 3275,998 3261,976 3269,971 3283,993 3296,1014"/>
  <polygon points="3282,1021 3273,1024 3273,1024 3270,1025 3266,1025 3258,1024 3266,1001 3258,977 3267,974 3275,998 3282,1021"/>
  <polygon points="3766,1251 3516,1251 3516,1251 3512,1250 3508,1249 3504,1248 3501,1246 3498,1243 3495,1240 3493,1237 3492,1233 3491,1226 3516,1226 3516,1201 3766,1201 3766,1226 3766,1251"/>
  <polygon points="3491,1226 3491,726 3491,726 3491,722 3492,718 3493,714 3495,711 3498,708 3501,705 3504,703 3508,702 3516,701 3516,726 3541,726 3541,1226 3516,1226 3491,1226"/>
  <polygon points="3516,701 4016,701 4016,701 4019,701 4023,702 4027,703 4030,705 4033,708 4036,711 4038,714 4039,718 4041,726 4016,726 4016,751 3516,751 3516,726 3516,701"/>
  <polygon points="4041,726 4041,1226 4041,1226 4040,1229 4039,1233 4038,1237 4036,1240 4033,1243 4030,1246 4027,1248 4023,1249 4016,1251 4016,1226 3991,1226 3991,726 4016,726 4041,726"/>
  <polygon points="4016,1226 4016,1251 3766,1251 3766,1226 3766,1201 4016,1201 4016,1226"/>
 </g>
 <g style="stroke:none;fill:rgb(255,0,0)">
  <polygon points="3766,1001 3756,998 3748,993 3743,985 3741,976 3743,966 3748,958 3756,953 3766,951 3775,953 3783,958 3788,966 3791,976 3788,985 3783,993 3775,998 3766,1001"/>
 </g>
 <g style="stroke:none;fill:rgb(0,0,0)">
  <polygon points="3758,1024 3748,1021 3748,1021 3742,1019 3756,998 3763,974 3773,977 3766,1001 3758,1024"/>
  <polygon points="3742,1019 3734,1014 3734,1014 3731,1011 3726,1006 3748,993 3761,971 3769,976 3756,998 3742,1019"/>
  <polygon points="3726,1006 3721,998 3721,998 3718,990 3743,985 3764,971 3769,979 3748,993 3726,1006"/>
  <polygon points="3718,990 3716,981 3716,981 3716,977 3716,971 3741,976 3765,970 3767,979 3743,985 3718,990"/>
  <polygon points="3716,971 3718,961 3718,961 3719,958 3721,952 3743,966 3767,970 3765,980 3741,976 3716,971"/>
  <polygon points="3721,952 3726,944 3726,944 3729,941 3734,936 3748,958 3769,971 3764,979 3743,966 3721,952"/>
  <polygon points="3734,936 3742,931 3742,931 3745,930 3751,928 3756,953 3769,974 3761,979 3748,958 3734,936"/>
  <polygon points="3751,928 3761,926 3761,926 3764,926 3771,926 3766,951 3770,975 3760,977 3756,953 3751,928"/>
  <polygon points="3771,926 3780,928 3780,928 3788,931 3775,953 3769,977 3760,975 3766,951 3771,926"/>
  <polygon points="3788,931 3796,936 3796,936 3799,939 3804,944 3783,958 3769,979 3761,974 3775,953 3788,931"/>
  <polygon points="3804,944 3809,952 3809,952 3811,958 3788,966 3766,979 3761,971 3783,958 3804,944"/>
  <polygon points="3811,958 3814,968 3814,968 3815,972 3815,976 3814,983 3791,976 3767,983 3764,973 3788,966 3811,958"/>
  <polygon points="3814,983 3811,992 3811,992 3809,998 3788,985 3764,977 3767,968 3791,976 3814,983"/>
  <polygon points="3809,998 3804,1006 3804,1006 3801,1009 3796,1014 3783,993 3761,979 3766,971 3788,985 3809,998"/>
  <polygon points="3796,1014 3788,1019 3788,1019 3782,1021 3775,998 3761,976 3769,971 3783,993 3796,1014"/>
  <polygon points="3782,1021 3773,1024 3773,1024 3770,1025 3766,1025 3758,1024 3766,1001 3758,977 3767,974 3775,998 3782,1021"/>
  <polygon points="4266,1251 4016,1251 4016,1251 4012,1250 4008,1249 4004,1248 4001,1246 3998,1243 3995,1240 3993,1237 3992,1233 3991,1226 4016,1226 4016,1201 4266,1201 4266,1226 4266,1251"/>
  <polygon points="3991,1226 3991,726 3991,726 3991,722 3992,718 3993,714 3995,711 3998,708 4001,705 4004,703 4008,702 4016,701 4016,726 4041,726 4041,1226 4016,1226 3991,1226"/>
  <polygon points="4016,701 4516,701 4516,701 4519,701 4523,702 4527,703 4530,705 4533,708 4536,711 4538,714 4539,718 4541,726 4516,726 4516,751 4016,751 4016,726 4016,701"/>
  <polygon points="4541,726 4541,1226 4541,1226 4540,1229 4539,1233 4538,1237 4536,1240 4533,1243 4530,1246 4527,1248 4523,1249 4516,1251 4516,1226 4491,1226 4491,726 4516,726 4541,726"/>
  <polygon points="4516,1226 4516,1251 4266,1251 4266,1226 4266,1201 4516,1201 4516,1226"/>
 </g>
 <g style="stroke:none;fill:rgb(255,0,0)">
  <polygon points="4266,1001 4256,998 4248,993 4243,985 4241,976 4243,966 4248,958 4256,953 4266,951 4275,953 4283,958 4288,966 4291,976 4288,985 4283,993 4275,998 4266,1001"/>
 </g>
 <g style="stroke:none;fill:rgb(0,0,0)">
  <polygon points="4258,1024 4248,1021 4248,1021 4242,1019 4256,998 4263,974 4273,977 4266,1001 4258,1024"/>
  <polygon points="4242,1019 4234,1014 4234,1014 4231,1011 4226,1006 4248,993 4261,971 4269,976 4256,998 4242,1019"/>
  <polygon points="4226,1006 4221,998 4221,998 4218,990 4243,985 4264,971 4269,979 4248,993 4226,1006"/>
  <polygon points="4218,990 4216,981 4216,981 4216,977 4216,971 4241,976 4265,970 4267,979 4243,985 4218,990"/>
  <polygon points="4216,971 4218,961 4218,961 4219,958 4221,952 4243,966 4267,970 4265,980 4241,976 4216,971"/>
  <polygon points="4221,952 4226,944 4226,944 4229,941 4234,936 4248,958 4269,971 4264,979 4243,966 4221,952"/>
  <polygon points="4234,936 4242,931 4242,931 4245,930 4251,928 4256,953 4269,974 4261,979 4248,958 4234,936"/>
  <polygon points="4251,928 4261,926 4261,926 4264,926 4271,926 4266,951 4270,975 4260,977 4256,953 4251,928"/>
  <polygon points="4271,926 4280,928 4280,928 4288,931 4275,953 4269,977 4260,975 4266,951 4271,926"/>
  <polygon points="4288,931 4296,936 4296,936 4299,939 4304,944 4283,958 4269,979 4261,974 4275,953 4288,931"/>
  <polygon points="4304,944 4309,952 4309,952 4311,958 4288,966 4266,979 4261,971 4283,958 4304,944"/>
  <polygon points="4311,958 4314,968 4314,968 4315,972 4315,976 4314,983 4291,976 4267,983 4264,973 4288,966 4311,958"/>
  <polygon points="4314,983 4311,992 4311,992 4309,998 4288,985 4264,977 4267,968 4291,976 4314,983"/>
  <polygon points="4309,998 4304,1006 4304,1006 4301,1009 4296,1014 4283,993 4261,979 4266,971 4288,985 4309,998"/>
  <polygon points="4296,1014 4288,1019 4288,1019 4282,1021 4275,998 4261,976 4269,971 4283,993 4296,1014"/>
  <polygon points="4282,1021 4273,1024 4273,1024 4270,1025 4266,1025 4258,1024 4266,1001 4258,977 4267,974 4275,998 4282,1021"/>
  <polygon points="2766,1751 2516,1751 2516,1751 2512,1750 2508,1749 2504,1748 2501,1746 2498,1743 2495,1740 2493,1737 2492,1733 2491,1726 2516,1726 2516,1701 2766,1701 2766,1726 2766,1751"/>
  <polygon points="2491,1726 2491,1226 2491,1226 2491,1222 2492,1218 2493,1214 2495,1211 2498,1208 2501,1205 2504,1203 2508,1202 2516,1201 2516,1226 2541,1226 2541,1726 2516,1726 2491,1726"/>
  <polygon points="2516,1201 3016,1201 3016,1201 3019,1201 3023,1202 3027,1203 3030,1205 3033,1208 3036,1211 3038,1214 3039,1218 3041,1226 3016,1226 3016,1251 2516,1251 2516,1226 2516,1201"/>
  <polygon points="3041,1226 3041,1726 3041,1726 3040,1729 3039,1733 3038,1737 3036,1740 3033,1743 3030,1746 3027,1748 3023,1749 3016,1751 3016,1726 2991,1726 2991,1226 3016,1226 3041,1226"/>
  <polygon points="3016,1726 3016,1751 2766,1751 2766,1726 2766,1701 3016,1701 3016,1726"/>
 </g>
 <g style="stroke:none;fill:rgb(255,0,0)">
  <polygon points="2766,1501 2756,1498 2748,1493 2743,1485 2741,1476 2743,1466 2748,1458 2756,1453 2766,1451 2775,1453 2783,1458 2788,1466 2791,1476 2788,1485 2783,1493 2775,1498 2766,1501"/>
 </g>
 <g style="stroke:none;fill:rgb(0,0,0)">
  <polygon points="2758,1524 2748,1521 2748,1521 2742,1519 2756,1498 2763,1474 2773,1477 2766,1501 2758,1524"/>
  <polygon points="2742,1519 2734,1514 2734,1514 2731,1511 2726,1506 2748,1493 2761,1471 2769,1476 2756,1498 2742,1519"/>
  <polygon points="2726,1506 2721,1498 2721,1498 2718,1490 2743,1485 2764,1471 2769,1479 2748,1493 2726,1506"/>
  <polygon points="2718,1490 2716,1481 2716,1481 2716,1477 2716,1471 2741,1476 2765,1470 2767,1479 2743,1485 2718,1490"/>
  <polygon points="2716,1471 2718,1461 2718,1461 2719,1458 2721,1452 2743,1466 2767,1470 2765,1480 2741,1476 2716,1471"/>
  <polygon points="2721,1452 2726,1444 2726,1444 2729,1441 2734,1436 2748,1458 2769,1471 2764,1479 2743,1466 2721,1452"/>
  <polygon points="2734,1436 2742,1431 2742,1431 2745,1430 2751,1428 2756,1453 2769,1474 2761,1479 2748,1458 2734,1436"/>
  <polygon points="2751,1428 2761,1426 2761,1426 2764,1426 2771,1426 2766,1451 2770,1475 2760,1477 2756,1453 2751,1428"/>
  <polygon points="2771,1426 2780,1428 2780,1428 2788,1431 2775,1453 2769,1477 2760,1475 2766,1451 2771,1426"/>
  <polygon points="2788,1431 2796,1436 2796,1436 2799,1439 2804,1444 2783,1458 2769,1479 2761,1474 2775,1453 2788,1431"/>
  <polygon points="2804,1444 2809,1452 2809,1452 2811,1458 2788,1466 2766,1479 2761,1471 2783,1458 2804,1444"/>
  <polygon points="2811,1458 2814,1468 2814,1468 2815,1472 2815,1476 2814,1483 2791,1476 2767,1483 2764,1473 2788,1466 2811,1458"/>
  <polygon points="2814,1483 2811,1492 2811,1492 2809,1498 2788,1485 2764,1477 2767,1468 2791,1476 2814,1483"/>
  <polygon points="2809,1498 2804,1506 2804,1506 2801,1509 2796,1514 2783,1493 2761,1479 2766,1471 2788,1485 2809,1498"/>
  <polygon points="2796,1514 2788,1519 2788,1519 2782,1521 2775,1498 2761,1476 2769,1471 2783,1493 2796,1514"/>
  <polygon points="2782,1521 2773,1524 2773,1524 2770,1525 2766,1525 2758,1524 2766,1501 2758,1477 2767,1474 2775,1498 2782,1521"/>
  <polygon points="3266,1751 3016,1751 3016,1751 3012,1750 3008,1749 3004,1748 3001,1746 2998,1743 2995,1740 2993,1737 2992,1733 2991,1726 3016,1726 3016,1701 3266,1701 3266,1726 3266,1751"/>
  <polygon points="2991,1726 2991,1226 2991,1226 2991,1222 2992,1218 2993,1214 2995,1211 2998,1208 3001,1205 3004,1203 3008,1202 3016,1201 3016,1226 3041,1226 3041,1726 3016,1726 2991,1726"/>
  <polygon points="3016,1201 3516,1201 3516,1201 3519,1201 3523,1202 3527,1203 3530,1205 3533,1208 3536,1211 3538,1214 3539,1218 3541,1226 3516,1226 3516,1251 3016,1251 3016,1226 3016,1201"/>
  <polygon points="3541,1226 3541,1726 3541,1726 3540,1729 3539,1733 3538,1737 3536,1740 3533,1743 3530,1746 3527,1748 3523,1749 3516,1751 3516,1726 3491,1726 3491,1226 3516,1226 3541,1226"/>
  <polygon points="3516,1726 3516,1751 3266,1751 3266,1726 3266,1701 3516,1701 3516,1726"/>
 </g>
 <g style="stroke:none;fill:rgb(255,0,0)">
  <polygon points="3266,1501 3256,1498 3248,1493 3243,1485 3241,1476 3243,1466 3248,1458 3256,1453 3266,1451 3275,1453 3283,1458 3288,1466 3291,1476 3288,1485 3283,1493 3275,1498 3266,1501"/>
 </g>
 <g style="stroke:none;fill:rgb(0,0,0)">
  <polygon points="3258,1524 3248,1521 3248,1521 3242,1519 3256,1498 3263,1474 3273,1477 3266,1501 3258,1524"/>
  <polygon points="3242,1519 3234,1514 3234,1514 3231,1511 3226,1506 3248,1493 3261,1471 3269,1476 3256,1498 3242,1519"/>
  <polygon points="3226,1506 3221,1498 3221,1498 3218,1490 3243,1485 3264,1471 3269,1479 3248,1493 3226,1506"/>
  <polygon points="3218,1490 3216,1481 3216,1481 3216,1477 3216,1471 3241,1476 3265,1470 3267,1479 3243,1485 3218,1490"/>
  <polygon points="3216,1471 3218,1461 3218,1461 3219,1458 3221,1452 3243,1466 3267,1470 3265,1480 3241,1476 3216,1471"/>
  <polygon points="3221,1452 3226,1444 3226,1444 3229,1441 3234,1436 3248,1458 3269,1471 3264,1479 3243,1466 3221,1452"/>
  <polygon points="3234,1436 3242,1431 3242,1431 3245,1430 3251,1428 3256,1453 3269,1474 3261,1479 3248,1458 3234,1436"/>
  <polygon points="3251,1428 3261,1426 3261,1426 3264,1426 3271,1426 3266,1451 3270,1475 3260,1477 3256,1453 3251,1428"/>
  <polygon points="3271,1426 3280,1428 3280,1428 3288,1431 3275,1453 3269,1477 3260,1475 3266,1451 3271,1426"/>
  <polygon points="3288,1431 3296,1436 3296,1436 3299,1439 3304,1444 3283,1458 3269,1479 3261,1474 3275,1453 3288,1431"/>
  <polygon points="3304,1444 3309,1452 3309,1452 3311,1458 3288,1466 3266,1479 3261,1471 3283,1458 3304,1444"/>
  <polygon points="3311,1458 3314,1468 3314,1468 3315,1472 3315,1476 3314,1483 3291,1476 3267,1483 3264,1473 3288,1466 3311,1458"/>
  <polygon points="3314,1483 3311,1492 3311,1492 3309,1498 3288,1485 3264,1477 3267,1468 3291,1476 3314,1483"/>
  <polygon points="3309,1498 3304,1506 3304,1506 3301,1509 3296,1514 3283,1493 3261,1479 3266,1471 3288,1485 3309,1498"/>
  <polygon points="3296,1514 3288,1519 3288,1519 3282,1521 3275,1498 3261,1476 3269,1471 3283,1493 3296,1514"/>
  <polygon points="3282,1521 3273,1524 3273,1524 3270,1525 3266,1525 3258,1524 3266,1501 3258,1477 3267,1474 3275,1498 3282,1521"/>
  <polygon points="3766,1751 3516,1751 3516,1751 3512,1750 3508,1749 3504,1748 3501,1746 3498,1743 3495,1740 3493,1737 3492,1733 3491,1726 3516,1726 3516,1701 3766,1701 3766,1726 3766,1751"/>
  <polygon points="3491,1726 3491,1226 3491,1226 3491,1222 3492,1218 3493,1214 3495,1211 3498,1208 3501,1205 3504,1203 3508,1202 3516,1201 3516,1226 3541,1226 3541,1726 3516,1726 3491,1726"/>
  <polygon points="3516,1201 4016,1201 4016,1201 4019,1201 4023,1202 4027,1203 4030,1205 4033,1208 4036,1211 4038,1214 4039,1218 4041,1226 4016,1226 4016,1251 3516,1251 3516,1226 3516,1201"/>
  <polygon points="4041,1226 4041,1726 4041,1726 4040,1729 4039,1733 4038,1737 4036,1740 4033,1743 4030,1746 4027,1748 4023,1749 4016,1751 4016,1726 3991,1726 3991,1226 4016,1226 4041,1226"/>
  <polygon points="4016,1726 4016,1751 3766,1751 3766,1726 3766,1701 4016,1701 4016,1726"/>
 </g>
 <g style="stroke:none;fill:rgb(255,0,0)">
  <polygon points="3766,1501 3756,1498 3748,1493 3743,1485 3741,1476 3743,1466 3748,1458 3756,1453 3766,1451 3775,1453 3783,1458 3788,1466 3791,1476 3788,1485 3783,1493 3775,1498 3766,1501"/>
 </g>
 <g style="stroke:none;fill:rgb(0,0,0)">
  <polygon points="3758,1524 3748,1521 3748,1521 3742,1519 3756,1498 3763,1474 3773,1477 3766,1501 3758,1524"/>
  <polygon points="3742,1519 3734,1514 3734,1514 3731,1511 3726,1506 3748,1493 3761,1471 3769,1476 3756,1498 3742,1519"/>
  <polygon points="3726,1506 3721,1498 3721,1498 3718,1490 3743,1485 3764,1471 3769,1479 3748,1493 3726,1506"/>
  <polygon points="3718,1490 3716,1481 3716,1481 3716,1477 3716,1471 3741,1476 3765,1470 3767,1479 3743,1485 3718,1490"/>
  <polygon points="3716,1471 3718,1461 3718,1461 3719,1458 3721,1452 3743,1466 3767,1470 3765,1480 3741,1476 3716,1471"/>
  <polygon points="3721,1452 3726,1444 3726,1444 3729,1441 3734,1436 3748,1458 3769,1471 3764,1479 3743,1466 3721,1452"/>
  <polygon points="3734,1436 3742,1431 3742,1431 3745,1430 3751,1428 3756,1453 3769,1474 3761,1479 3748,1458 3734,1436"/>
  <polygon points="3751,1428 3761,1426 3761,1426 3764,1426 3771,1426 3766,1451 3770,1475 3760,1477 3756,1453 3751,1428"/>
  <polygon points="3771,1426 3780,1428 3780,1428 3788,1431 3775,1453 3769,1477 3760,1475 3766,1451 3771,1426"/>
  <polygon points="3788,1431 3796,1436 3796,1436 3799,1439 3804,1444 3783,1458 3769,1479 3761,1474 3775,1453 3788,1431"/>
  <polygon points="3804,1444 3809,1452 3809,1452 3811,1458 3788,1466 3766,1479 3761,1471 3783,1458 3804,1444"/>
  <polygon points="3811,1458 3814,1468 3814,1468 3815,1472 3815,1476 3814,1483 3791,1476 3767,1483 3764,1473 3788,1466 3811,1458"/>
  <polygon points="3814,1483 3811,1492 3811,1492 3809,1498 3788,1485 3764,1477 3767,1468 3791,1476 3814,1483"/>
  <polygon points="3809,1498 3804,1506 3804,1506 3801,1509 3796,1514 3783,1493 3761,1479 3766,1471 3788,1485 3809,1498"/>
  <polygon points="3796,1514 3788,1519 3788,1519 3782,1521 3775,1498 3761,1476 3769,1471 3783,1493 3796,1514"/>
  <polygon points="3782,1521 3773,1524 3773,1524 3770,1525 3766,1525 3758,1524 3766,1501 3758,1477 3767,1474 3775,1498 3782,1521"/>
  <polygon points="4266,1751 4016,1751 4016,1751 4012,1750 4008,1749 4004,1748 4001,1746 3998,1743 3995,1740 3993,1737 3992,1733 3991,1726 4016,1726 4016,1701 4266,1701 4266,1726 4266,1751"/>
  <polygon points="3991,1726 3991,1226 3991,1226 3991,1222 3992,1218 3993,1214 3995,1211 3998,1208 4001,1205 4004,1203 4008,1202 4016,1201 4016,1226 4041,1226 4041,1726 4016,1726 3991,1726"/>
  <polygon points="4016,1201 4516,1201 4516,1201 4519,1201 4523,1202 4527,1203 4530,1205 4533,1208 4536,1211 4538,1214 4539,1218 4541,1226 4516,1226 4516,1251 4016,1251 4016,1226 4016,1201"/>
  <polygon points="4541,1226 4541,1726 4541,1726 4540,1729 4539,1733 4538,1737 4536,1740 4533,1743 4530,1746 4527,1748 4523,1749 4516,1751 4516,1726 4491,1726 4491,1226 4516,1226 4541,1226"/>
  <polygon points="4516,1726 4516,1751 4266,1751 4266,1726 4266,1701 4516,1701 4516,1726"/>
 </g>
 <g style="stroke:none;fill:rgb(255,0,0)">
  <polygon points="4266,1501 4256,1498 4248,1493 4243,1485 4241,1476 4243,1466 4248,1458 4256,1453 4266,1451 4275,1453 4283,1458 4288,1466 4291,1476 4288,1485 4283,1493 4275,1498 4266,1501"/>
 </g>
 <g style="stroke:none;fill:rgb(0,0,0)">
  <polygon points="4258,1524 4248,1521 4248,1521 4242,1519 4256,1498 4263,1474 4273,1477 4266,1501 4258,1524"/>
  <polygon points="4242,1519 4234,1514 4234,1514 4231,1511 4226,1506 4248,1493 4261,1471 4269,1476 4256,1498 4242,1519"/>
  <polygon points="4226,1506 4221,1498 4221,1498 4218,1490 4243,1485 4264,1471 4269,1479 4248,1493 4226,1506"/>
  <polygon points="4218,1490 4216,1481 4216,1481 4216,1477 4216,1471 4241,1476 4265,1470 4267,1479 4243,1485 4218,1490"/>
  <polygon points="4216,1471 4218,1461 4218,1461 4219,1458 4221,1452 4243,1466 4267,1470 4265,1480 4241,1476 4216,1471"/>
  <polygon points="4221,1452 4226,1444 4226,1444 4229,1441 4234,1436 4248,1458 4269,1471 4264,1479 4243,1466 4221,1452"/>
  <polygon points="4234,1436 4242,1431 4242,1431 4245,1430 4251,1428 4256,1453 4269,1474 4261,1479 4248,1458 4234,1436"/>
  <polygon points="4251,1428 4261,1426 4261,1426 4264,1426 4271,1426 4266,1451 4270,1475 4260,1477 4256,1453 4251,1428"/>
  <polygon points="4271,1426 4280,1428 4280,1428 4288,1431 4275,1453 4269,1477 4260,1475 4266,1451 4271,1426"/>
  <polygon points="4288,1431 4296,1436 4296,1436 4299,1439 4304,1444 4283,1458 4269,1479 4261,1474 4275,1453 4288,1431"/>
  <polygon points="4304,1444 4309,1452 4309,1452 4311,1458 4288,1466 4266,1479 4261,1471 4283,1458 4304,1444"/>
  <polygon points="4311,1458 4314,1468 4314,1468 4315,1472 4315,1476 4314,1483 4291,1476 4267,1483 4264,1473 4288,1466 4311,1458"/>
  <polygon points="4314,1483 4311,1492 4311,1492 4309,1498 4288,1485 4264,1477 4267,1468 4291,1476 4314,1483"/>
  <polygon points="4309,1498 4304,1506 4304,1506 4301,1509 4296,1514 4283,1493 4261,1479 4266,1471 4288,1485 4309,1498"/>
  <polygon points="4296,1514 4288,1519 4288,1519 4282,1521 4275,1498 4261,1476 4269,1471 4283,1493 4296,1514"/>
  <polygon points="4282,1521 4273,1524 4273,1524 4270,1525 4266,1525 4258,1524 4266,1501 4258,1477 4267,1474 4275,1498 4282,1521"/>
  <polygon points="2766,2251 2516,2251 2516,2251 2512,2250 2508,2249 2504,2248 2501,2246 2498,2243 2495,2240 2493,2237 2492,2233 2491,2226 2516,2226 2516,2201 2766,2201 2766,2226 2766,2251"/>
  <polygon points="2491,2226 2491,1726 2491,1726 2491,1722 2492,1718 2493,1714 2495,1711 2498,1708 2501,1705 2504,1703 2508,1702 2516,1701 2516,1726 2541,1726 2541,2226 2516,2226 2491,2226"/>
  <polygon points="2516,1701 3016,1701 3016,1701 3019,1701 3023,1702 3027,1703 3030,1705 3033,1708 3036,1711 3038,1714 3039,1718 3041,1726 3016,1726 3016,1751 2516,1751 2516,1726 2516,1701"/>
  <polygon points="3041,1726 3041,2226 3041,2226 3040,2229 3039,2233 3038,2237 3036,2240 3033,2243 3030,2246 3027,2248 3023,2249 3016,2251 3016,2226 2991,2226 2991,1726 3016,1726 3041,1726"/>
  <polygon points="3016,2226 3016,2251 2766,2251 2766,2226 2766,2201 3016,2201 3016,2226"/>
 </g>
 <g style="stroke:none;fill:rgb(255,0,0)">
  <polygon points="2766,2001 2756,1998 2748,1993 2743,1985 2741,1976 2743,1966 2748,1958 2756,1953 2766,1951 2775,1953 2783,1958 2788,1966 2791,1976 2788,1985 2783,1993 2775,1998 2766,2001"/>
 </g>
 <g style="stroke:none;fill:rgb(0,0,0)">
  <polygon points="2758,2024 2748,2021 2748,2021 2742,2019 2756,1998 2763,1974 2773,1977 2766,2001 2758,2024"/>
  <polygon points="2742,2019 2734,2014 2734,2014 2731,2011 2726,2006 2748,1993 2761,1971 2769,1976 2756,1998 2742,2019"/>
  <polygon points="2726,2006 2721,1998 2721,1998 2718,1990 2743,1985 2764,1971 2769,1979 2748,1993 2726,2006"/>
  <polygon points="2718,1990 2716,1981 2716,1981 2716,1977 2716,1971 2741,1976 2765,1970 2767,1979 2743,1985 2718,1990"/>
  <polygon points="2716,1971 2718,1961 2718,1961 2719,1958 2721,1952 2743,1966 2767,1970 2765,1980 2741,1976 2716,1971"/>
  <polygon points="2721,1952 2726,1944 2726,1944 2729,1941 2734,1936 2748,1958 2769,1971 2764,1979 2743,1966 2721,1952"/>
  <polygon points="2734,1936 2742,1931 2742,1931 2745,1930 2751,1928 2756,1953 2769,1974 2761,1979 2748,1958 2734,1936"/>
  <polygon points="2751,1928 2761,1926 2761,1926 2764,1926 2771,1926 2766,1951 2770,1975 2760,1977 2756,1953 2751,1928"/>
  <polygon points="2771,1926 2780,1928 2780,1928 2788,1931 2775,1953 2769,1977 2760,1975 2766,1951 2771,1926"/>
  <polygon points="2788,1931 2796,1936 2796,1936 2799,1939 2804,1944 2783,1958 2769,1979 2761,1974 2775,1953 2788,1931"/>
  <polygon points="2804,1944 2809,1952 2809,1952 2811,1958 2788,1966 2766,1979 2761,1971 2783,1958 2804,1944"/>
  <polygon points="2811,1958 2814,1968 2814,1968 2815,1972 2815,1976 2814,1983 2791,1976 2767,1983 2764,1973 2788,1966 2811,1958"/>
  <polygon points="2814,1983 2811,1992 2811,1992 2809,1998 2788,1985 2764,1977 2767,1968 2791,1976 2814,1983"/>
  <polygon points="2809,1998 2804,2006 2804,2006 2801,2009 2796,2014 2783,1993 2761,1979 2766,1971 2788,1985 2809,1998"/>
  <polygon points="2796,2014 2788,2019 2788,2019 2782,2021 2775,1998 2761,1976 2769,1971 2783,1993 2796,2014"/>
  <polygon points="2782,2021 2773,2024 2773,2024 2770,2025 2766,2025 2758,2024 2766,2001 2758,1977 2767,1974 2775,1998 2782,2021"/>
  <polygon points="3266,2251 3016,2251 3016,2251 3012,2250 3008,2249 3004,2248 3001,2246 2998,2243 2995,2240 2993,2237 2992,2233 2991,2226 3016,2226 3016,2201 3266,2201 3266,2226 3266,2251"/>
  <polygon points="2991,2226 2991,1726 2991,1726 2991,1722 2992,1718 2993,1714 2995,1711 2998,1708 3001,1705 3004,1703 3008,1702 3016,1701 3016,1726 3041,1726 3041,2226 3016,2226 2991,2226"/>
  <polygon points="3016,1701 3516,1701 3516,1701 3519,1701 3523,1702 3527,1703 3530,1705 3533,1708 3536,1711 3538,1714 3539,1718 3541,1726 3516,1726 3516,1751 3016,1751 3016,1726 3016,1701"/>
  <polygon points="3541,1726 3541,2226 3541,2226 3540,2229 3539,2233 3538,2237 3536,2240 3533,2243 3530,2246 3527,2248 3523,2249 3516,2251 3516,2226 3491,2226 3491,1726 3516,1726 3541,1726"/>
  <polygon points="3516,2226 3516,2251 3266,2251 3266,2226 3266,2201 3516,2201 3516,2226"/>
 </g>
 <g style="stroke:none;fill:rgb(255,0,0)">
  <polygon points="3266,2001 3256,1998 3248,1993 3243,1985 3241,1976 3243,1966 3248,1958 3256,1953 3266,1951 3275,1953 3283,1958 3288,1966 3291,1976 3288,1985 3283,1993 3275,1998 3266,2001"/>
 </g>
 <g style="stroke:none;fill:rgb(0,0,0)">
  <polygon points="3258,2024 3248,2021 3248,2021 3242,2019 3256,1998 3263,1974 3273,1977 3266,2001 3258,2024"/>
  <polygon points="3242,2019 3234,2014 3234,2014 3231,2011 3226,2006 3248,1993 3261,1971 3269,1976 3256,1998 3242,2019"/>
  <polygon points="3226,2006 3221,1998 3221,1998 3218,1990 3243,1985 3264,1971 3269,1979 3248,1993 3226,2006"/>
  <polygon points="3218,1990 3216,1981 3216,1981 3216,1977 3216,1971 3241,1976 3265,1970 3267,1979 3243,1985 3218,1990"/>
  <polygon points="3216,1971 3218,1961 3218,1961 3219,1958 3221,1952 3243,1966 3267,1970 3265,1980 3241,1976 3216,1971"/>
  <polygon points="3221,1952 3226,1944 3226,1944 3229,1941 3234,1936 3248,1958 3269,1971 3264,1979 3243,1966 3221,1952"/>
  <polygon points="3234,1936 3242,1931 3242,1931 3245,1930 3251,1928 3256,1953 3269,1974 3261,1979 3248,1958 3234,1936"/>
  <polygon points="3251,1928 3261,1926 3261,1926 3264,1926 3271,1926 3266,1951 3270,1975 3260,1977 3256,1953 3251,1928"/>
  <polygon points="3271,1926 3280,1928 3280,1928 3288,1931 3275,1953 3269,1977 3260,1975 3266,1951 3271,1926"/>
  <polygon points="3288,1931 3296,1936 3296,1936 3299,1939 3304,1944 3283,1958 3269,1979 3261,1974 3275,1953 3288,1931"/>
  <polygon points="3304,1944 3309,1952 3309,1952 3311,1958 3288,1966 3266,1979 3261,1971 3283,1958 3304,1944"/>
  <polygon points="3311,1958 3314,1968 3314,1968 3315,1972 3315,1976 3314,1983 3291,1976 3267,1983 3264,1973 3288,1966 3311,1958"/>
  <polygon points="3314,1983 3311,1992 3311,1992 3309,1998 3288,1985 3264,1977 3267,1968 3291,1976 3314,1983"/>
  <polygon points="3309,1998 3304,2006 3304,2006 3301,2009 3296,2014 3283,1993 3261,1979 3266,1971 3288,1985 3309,1998"/>
  <polygon points="3296,2014 3288,2019 3288,2019 3282,2021 3275,1998 3261,1976 3269,1971 3283,1993 3296,2014"/>
  <polygon points="3282,2021 3273,2024 3273,2024 3270,2025 3266,2025 3258,2024 3266,2001 3258,1977 3267,1974 3275,1998 3282,2021"/>
  <polygon points="3766,2251 3516,2251 3516,2251 3512,2250 3508,2249 3504,2248 3501,2246 3498,2243 3495,2240 3493,2237 3492,2233 3491,2226 3516,2226 3516,2201 3766,2201 3766,2226 3766,2251"/>
  <polygon points="3491,2226 3491,1726 3491,1726 3491,1722 3492,1718 3493,1714 3495,1711 3498,1708 3501,1705 3504,1703 3508,1702 3516,1701 3516,1726 3541,1726 3541,2226 3516,2226 3491,2226"/>
  <polygon points="3516,1701 4016,1701 4016,1701 4019,1701 4023,1702 4027,1703 4030,1705 4033,1708 4036,1711 4038,1714 4039,1718 4041,1726 4016,1726 4016,1751 3516,1751 3516,1726 3516,1701"/>
  <polygon points="4041,1726 4041,2226 4041,2226 4040,2229 4039,2233 4038,2237 4036,2240 4033,2243 4030,2246 4027,2248 4023,2249 4016,2251 4016,2226 3991,2226 3991,1726 4016,1726 4041,1726"/>
  <polygon points="4016,2226 4016,2251 3766,2251 3766,2226 3766,2201 4016,2201 4016,2226"/>
 </g>
 <g style="stroke:none;fill:rgb(255,0,0)">
  <polygon points="3766,2001 3756,1998 3748,1993 3743,1985 3741,1976 3743,1966 3748,1958 3756,1953 3766,1951 3775,1953 3783,1958 3788,1966 3791,1976 3788,1985 3783,1993 3775,1998 3766,2001"/>
 </g>
 <g style="stroke:none;fill:rgb(0,0,0)">
  <polygon points="3758,2024 3748,2021 3748,2021 3742,2019 3756,1998 3763,1974 3773,1977 3766,2001 3758,2024"/>
  <polygon points="3742,2019 3734,2014 3734,2014 3731,2011 3726,2006 3748,1993 3761,1971 3769,1976 3756,1998 3742,2019"/>
  <polygon points="3726,2006 3721,1998 3721,1998 3718,1990 3743,1985 3764,1971 3769,1979 3748,1993 3726,2006"/>
  <polygon points="3718,1990 3716,1981 3716,1981 3716,1977 3716,1971 3741,1976 3765,1970 3767,1979 3743,1985 3718,1990"/>
  <polygon points="3716,1971 3718,1961 3718,1961 3719,1958 3721,1952 3743,1966 3767,1970 3765,1980 3741,1976 3716,1971"/>
  <polygon points="3721,1952 3726,1944 3726,1944 3729,1941 3734,1936 3748,1958 3769,1971 3764,1979 3743,1966 3721,1952"/>
  <polygon points="3734,1936 3742,1931 3742,1931 3745,1930 3751,1928 3756,1953 3769,1974 3761,1979 3748,1958 3734,1936"/>
  <polygon points="3751,1928 3761,1926 3761,1926 3764,1926 3771,1926 3766,1951 3770,1975 3760,1977 3756,1953 3751,1928"/>
  <polygon points="3771,1926 3780,1928 3780,1928 3788,1931 3775,1953 3769,1977 3760,1975 3766,1951 3771,1926"/>
  <polygon points="3788,1931 3796,1936 3796,1936 3799,1939 3804,1944 3783,1958 3769,1979 3761,1974 3775,1953 3788,1931"/>
  <polygon points="3804,1944 3809,1952 3809,1952 3811,1958 3788,1966 3766,1979 3761,1971 3783,1958 3804,1944"/>
  <polygon points="3811,1958 3814,1968 3814,1968 3815,1972 3815,1976 3814,1983 3791,1976 3767,1983 3764,1973 3788,1966 3811,1958"/>
  <polygon points="3814,1983 3811,1992 3811,1992 3809,1998 3788,1985 3764,1977 3767,1968 3791,1976 3814,1983"/>
  <polygon points="3809,1998 3804,2006 3804,2006 3801,2009 3796,2014 3783,1993 3761,1979 3766,1971 3788,1985 3809,1998"/>
  <polygon points="3796,2014 3788,2019 3788,2019 3782,2021 3775,1998 3761,1976 3769,1971 3783,1993 3796,2014"/>
  <polygon points="3782,2021 3773,2024 3773,2024 3770,2025 3766,2025 3758,2024 3766,2001 3758,1977 3767,1974 3775,1998 3782,2021"/>
  <polygon points="4266,2251 4016,2251 4016,2251 4012,2250 4008,2249 4004,2248 4001,2246 3998,2243 3995,2240 3993,2237 3992,2233 3991,2226 4016,2226 4016,2201 4266,2201 4266,2226 4266,2251"/>
  <polygon points="3991,2226 3991,1726 3991,1726 3991,1722 3992,1718 3993,1714 3995,1711 3998,1708 4001,1705 4004,1703 4008,1702 4016,1701 4016,1726 4041,1726 4041,2226 4016,2226 3991,2226"/>
  <polygon points="4016,1701 4516,1701 4516,1701 4519,1701 4523,1702 4527,1703 4530,1705 4533,1708 4536,1711 4538,1714 4539,1718 4541,1726 4516,1726 4516,1751 4016,1751 4016,1726 4016,1701"/>
  <polygon points="4541,1726 4541,2226 4541,2226 4540,2229 4539,2233 4538,2237 4536,2240 4533,2243 4530,2246 4527,2248 4523,2249 4516,2251 4516,2226 4491,2226 4491,1726 4516,1726 4541,1726"/>
  <polygon points="4516,2226 4516,2251 4266,2251 4266,2226 4266,2201 4516,2201 4516,2226"/>
 </g>
 <g style="stroke:none;fill:rgb(255,0,0)">
  <polygon points="4266,2001 4256,1998 4248,1993 4243,1985 4241,1976 4243,1966 4248,1958 4256,1953 4266,1951 4275,1953 4283,1958 4288,1966 4291,1976 4288,1985 4283,1993 4275,1998 4266,2001"/>
 </g>
 <g style="stroke:none;fill:rgb(0,0,0)">
  <polygon points="4258,2024 4248,2021 4248,2021 4242,2019 4256,1998 4263,1974 4273,1977 4266,2001 4258,2024"/>
  <polygon points="4242,2019 4234,2014 4234,2014 4231,2011 4226,2006 4248,1993 4261,1971 4269,1976 4256,1998 4242,2019"/>
  <polygon points="4226,2006 4221,1998 4221,1998 4218,1990 4243,1985 4264,1971 4269,1979 4248,1993 4226,2006"/>
  <polygon points="4218,1990 4216,1981 4216,1981 4216,1977 4216,1971 4241,1976 4265,1970 4267,1979 4243,1985 4218,1990"/>
  <polygon points="4216,1971 4218,1961 4218,1961 4219,1958 4221,1952 4243,1966 4267,1970 4265,1980 4241,1976 4216,1971"/>
  <polygon points="4221,1952 4226,1944 4226,1944 4229,1941 4234,1936 4248,1958 4269,1971 4264,1979 4243,1966 4221,1952"/>
  <polygon points="4234,1936 4242,1931 4242,1931 4245,1930 4251,1928 4256,1953 4269,1974 4261,1979 4248,1958 4234,1936"/>
  <polygon points="4251,1928 4261,1926 4261,1926 4264,1926 4271,1926 4266,1951 4270,1975 4260,1977 4256,1953 4251,1928"/>
  <polygon points="4271,1926 4280,1928 4280,1928 4288,1931 4275,1953 4269,1977 4260,1975 4266,1951 4271,1926"/>
  <polygon points="4288,1931 4296,1936 4296,1936 4299,1939 4304,1944 4283,1958 4269,1979 4261,1974 4275,1953 4288,1931"/>
  <polygon points="4304,1944 4309,1952 4309,1952 4311,1958 4288,1966 4266,1979 4261,1971 4283,1958 4304,1944"/>
  <polygon points="4311,1958 4314,1968 4314,1968 4315,1972 4315,1976 4314,1983 4291,1976 4267,1983 4264,1973 4288,1966 4311,1958"/>
  <polygon points="4314,1983 4311,1992 4311,1992 4309,1998 4288,1985 4264,1977 4267,1968 4291,1976 4314,1983"/>
  <polygon points="4309,1998 4304,2006 4304,2006 4301,2009 4296,2014 4283,1993 4261,1979 4266,1971 4288,1985 4309,1998"/>
  <polygon points="4296,2014 4288,2019 4288,2019 4282,2021 4275,1998 4261,1976 4269,1971 4283,1993 4296,2014"/>
  <polygon points="4282,2021 4273,2024 4273,2024 4270,2025 4266,2025 4258,2024 4266,2001 4258,1977 4267,1974 4275,1998 4282,2021"/>
  <polygon points="2766,2751 2516,2751 2516,2751 2512,2750 2508,2749 2504,2748 2501,2746 2498,2743 2495,2740 2493,2737 2492,2733 2491,2726 2516,2726 2516,2701 2766,2701 2766,2726 2766,2751"/>
  <polygon points="2491,2726 2491,2226 2491,2226 2491,2222 2492,2218 2493,2214 2495,2211 2498,2208 2501,2205 2504,2203 2508,2202 2516,2201 2516,2226 2541,2226 2541,2726 2516,2726 2491,2726"/>
  <polygon points="2516,2201 3016,2201 3016,2201 3019,2201 3023,2202 3027,2203 3030,2205 3033,2208 3036,2211 3038,2214 3039,2218 3041,2226 3016,2226 3016,2251 2516,2251 2516,2226 2516,2201"/>
  <polygon points="3041,2226 3041,2726 3041,2726 3040,2729 3039,2733 3038,2737 3036,2740 3033,2743 3030,2746 3027,2748 3023,2749 3016,2751 3016,2726 2991,2726 2991,2226 3016,2226 3041,2226"/>
  <polygon points="3016,2726 3016,2751 2766,2751 2766,2726 2766,2701 3016,2701 3016,2726"/>
 </g>
 <g style="stroke:none;fill:rgb(255,0,0)">
  <polygon points="2766,2501 2756,2498 2748,2493 2743,2485 2741,2476 2743,2466 2748,2458 2756,2453 2766,2451 2775,2453 2783,2458 2788,2466 2791,2476 2788,2485 2783,2493 2775,2498 2766,2501"/>
 </g>
 <g style="stroke:none;fill:rgb(0,0,0)">
  <polygon points="2758,2524 2748,2521 2748,2521 2742,2519 2756,2498 2763,2474 2773,2477 2766,2501 2758,2524"/>
  <polygon points="2742,2519 2734,2514 2734,2514 2731,2511 2726,2506 2748,2493 2761,2471 2769,2476 2756,2498 2742,2519"/>
  <polygon points="2726,2506 2721,2498 2721,2498 2718,2490 2743,2485 2764,2471 2769,2479 2748,2493 2726,2506"/>
  <polygon points="2718,2490 2716,2481 2716,2481 2716,2477 2716,2471 2741,2476 2765,2470 2767,2479 2743,2485 2718,2490"/>
  <polygon points="2716,2471 2718,2461 2718,2461 2719,2458 2721,2452 2743,2466 2767,2470 2765,2480 2741,2476 2716,2471"/>
  <polygon points="2721,2452 2726,2444 2726,2444 2729,2441 2734,2436 2748,2458 2769,2471 2764,2479 2743,2466 2721,2452"/>
  <polygon points="2734,2436 2742,2431 2742,2431 2745,2430 2751,2428 2756,2453 2769,2474 2761,2479 2748,2458 2734,2436"/>
  <polygon points="2751,2428 2761,2426 2761,2426 2764,2426 2771,2426 2766,2451 2770,2475 2760,2477 2756,2453 2751,2428"/>
  <polygon points="2771,2426 2780,2428 2780,2428 2788,2431 2775,2453 2769,2477 2760,2475 2766,2451 2771,2426"/>
  <polygon points="2788,2431 2796,2436 2796,2436 2799,2439 2804,2444 2783,2458 2769,2479 2761,2474 2775,2453 2788,2431"/>
  <polygon points="2804,2444 2809,2452 2809,2452 2811,2458 2788,2466 2766,2479 2761,2471 2783,2458 2804,2444"/>
  <polygon points="2811,2458 2814,2468 2814,2468 2815,2472 2815,2476 2814,2483 2791,2476 2767,2483 2764,2473 2788,2466 2811,2458"/>
  <polygon points="2814,2483 2811,2492 2811,2492 2809,2498 2788,2485 2764,2477 2767,2468 2791,2476 2814,2483"/>
  <polygon points="2809,2498 2804,2506 2804,2506 2801,2509 2796,2514 2783,2493 2761,2479 2766,2471 2788,2485 2809,2498"/>
  <polygon points="2796,2514 2788,2519 2788,2519 2782,2521 2775,2498 2761,2476 2769,2471 2783,2493 2796,2514"/>
  <polygon points="2782,2521 2773,2524 2773,2524 2770,2525 2766,2525 2758,2524 2766,2501 2758,2477 2767,2474 2775,2498 2782,2521"/>
  <polygon points="3266,2751 3016,2751 3016,2751 3012,2750 3008,2749 3004,2748 3001,2746 2998,2743 2995,2740 2993,2737 2992,2733 2991,2726 3016,2726 3016,2701 3266,2701 3266,2726 3266,2751"/>
  <polygon points="2991,2726 2991,2226 2991,2226 2991,2222 2992,2218 2993,2214 2995,2211 2998,2208 3001,2205 3004,2203 3008,2202 3016,2201 3016,2226 3041,2226 3041,2726 3016,2726 2991,2726"/>
  <polygon points="3016,2201 3516,2201 3516,2201 3519,2201 3523,2202 3527,2203 3530,2205 3533,2208 3536,2211 3538,2214 3539,2218 3541,2226 3516,2226 3516,2251 3016,2251 3016,2226 3016,2201"/>
  <polygon points="3541,2226 3541,2726 3541,2726 3540,2729 3539,2733 3538,2737 3536,2740 3533,2743 3530,2746 3527,2748 3523,2749 3516,2751 3516,2726 3491,2726 3491,2226 3516,2226 3541,2226"/>
  <polygon points="3516,2726 3516,2751 3266,2751 3266,2726 3266,2701 3516,2701 3516,2726"/>
 </g>
 <g style="stroke:none;fill:rgb(255,0,0)">
  <polygon points="3266,2501 3256,2498 3248,2493 3243,2485 3241,2476 3243,2466 3248,2458 3256,2453 3266,2451 3275,2453 3283,2458 3288,2466 3291,2476 3288,2485 3283,2493 3275,2498 3266,2501"/>
 </g>
 <g style="stroke:none;fill:rgb(0,0,0)">
  <polygon points="3258,2524 3248,2521 3248,2521 3242,2519 3256,2498 3263,2474 3273,2477 3266,2501 3258,2524"/>
  <polygon points="3242,2519 3234,2514 3234,2514 3231,2511 3226,2506 3248,2493 3261,2471 3269,2476 3256,2498 3242,2519"/>
  <polygon points="3226,2506 3221,2498 3221,2498 3218,2490 3243,2485 3264,2471 3269,2479 3248,2493 3226,2506"/>
  <polygon points="3218,2490 3216,2481 3216,2481 3216,2477 3216,2471 3241,2476 3265,2470 3267,2479 3243,2485 3218,2490"/>
  <polygon points="3216,2471 3218,2461 3218,2461 3219,2458 3221,2452 3243,2466 3267,2470 3265,2480 3241,2476 3216,2471"/>
  <polygon points="3221,2452 3226,2444 3226,2444 3229,2441 3234,2436 3248,2458 3269,2471 3264,2479 3243,2466 3221,2452"/>
  <polygon points="3234,2436 3242,2431 3242,2431 3245,2430 3251,2428 3256,2453 3269,2474 3261,2479 3248,2458 3234,2436"/>
  <polygon points="3251,2428 3261,2426 3261,2426 3264,2426 3271,2426 3266,2451 3270,2475 3260,2477 3256,2453 3251,2428"/>
  <polygon points="3271,2426 3280,2428 3280,2428 3288,2431 3275,2453 3269,2477 3260,2475 3266,2451 3271,2426"/>
  <polygon points="3288,2431 3296,2436 3296,2436 3299,2439 3304,2444 3283,2458 3269,2479 3261,2474 3275,2453 3288,2431"/>
  <polygon points="3304,2444 3309,2452 3309,2452 3311,2458 3288,2466 3266,2479 3261,2471 3283,2458 3304,2444"/>
  <polygon points="3311,2458 3314,2468 3314,2468 3315,2472 3315,2476 3314,2483 3291,2476 3267,2483 3264,2473 3288,2466 3311,2458"/>
  <polygon points="3314,2483 3311,2492 3311,2492 3309,2498 3288,2485 3264,2477 3267,2468 3291,2476 3314,2483"/>
  <polygon points="3309,2498 3304,2506 3304,2506 3301,2509 3296,2514 3283,2493 3261,2479 3266,2471 3288,2485 3309,2498"/>
  <polygon points="3296,2514 3288,2519 3288,2519 3282,2521 3275,2498 3261,2476 3269,2471 3283,2493 3296,2514"/>
  <polygon points="3282,2521 3273,2524 3273,2524 3270,2525 3266,2525 3258,2524 3266,2501 3258,2477 3267,2474 3275,2498 3282,2521"/>
  <polygon points="3766,2751 3516,2751 3516,2751 3512,2750 3508,2749 3504,2748 3501,2746 3498,2743 3495,2740 3493,2737 3492,2733 3491,2726 3516,2726 3516,2701 3766,2701 3766,2726 3766,2751"/>
  <polygon points="3491,2726 3491,2226 3491,2226 3491,2222 3492,2218 3493,2214 3495,2211 3498,2208 3501,2205 3504,2203 3508,2202 3516,2201 3516,2226 3541,2226 3541,2726 3516,2726 3491,2726"/>
  <polygon points="3516,2201 4016,2201 4016,2201 4019,2201 4023,2202 4027,2203 4030,2205 4033,2208 4036,2211 4038,2214 4039,2218 4041,2226 4016,2226 4016,2251 3516,2251 3516,2226 3516,2201"/>
  <polygon points="4041,2226 4041,2726 4041,2726 4040,2729 4039,2733 4038,2737 4036,2740 4033,2743 4030,2746 4027,2748 4023,2749 4016,2751 4016,2726 3991,2726 3991,2226 4016,2226 4041,2226"/>
  <polygon points="4016,2726 4016,2751 3766,2751 3766,2726 3766,2701 4016,2701 4016,2726"/>
 </g>
 <g style="stroke:none;fill:rgb(255,0,0)">
  <polygon points="3766,2501 3756,2498 3748,2493 3743,2485 3741,2476 3743,2466 3748,2458 3756,2453 3766,2451 3775,2453 3783,2458 3788,2466 3791,2476 3788,2485 3783,2493 3775,2498 3766,2501"/>
 </g>
 <g style="stroke:none;fill:rgb(0,0,0)">
  <polygon points="3758,2524 3748,2521 3748,2521 3742,2519 3756,2498 3763,2474 3773,2477 3766,2501 3758,2524"/>
  <polygon points="3742,2519 3734,2514 3734,2514 3731,2511 3726,2506 3748,2493 3761,2471 3769,2476 3756,2498 3742,2519"/>
  <polygon points="3726,2506 3721,2498 3721,2498 3718,2490 3743,2485 3764,2471 3769,2479 3748,2493 3726,2506"/>
  <polygon points="3718,2490 3716,2481 3716,2481 3716,2477 3716,2471 3741,2476 3765,2470 3767,2479 3743,2485 3718,2490"/>
  <polygon points="3716,2471 3718,2461 3718,2461 3719,2458 3721,2452 3743,2466 3767,2470 3765,2480 3741,2476 3716,2471"/>
  <polygon points="3721,2452 3726,2444 3726,2444 3729,2441 3734,2436 3748,2458 3769,2471 3764,2479 3743,2466 3721,2452"/>
  <polygon points="3734,2436 3742,2431 3742,2431 3745,2430 3751,2428 3756,2453 3769,2474 3761,2479 3748,2458 3734,2436"/>
  <polygon points="3751,2428 3761,2426 3761,2426 3764,2426 3771,2426 3766,2451 3770,2475 3760,2477 3756,2453 3751,2428"/>
  <polygon points="3771,2426 3780,2428 3780,2428 3788,2431 3775,2453 3769,2477 3760,2475 3766,2451 3771,2426"/>
  <polygon points="3788,2431 3796,2436 3796,2436 3799,2439 3804,2444 3783,2458 3769,2479 3761,2474 3775,2453 3788,2431"/>
  <polygon points="3804,2444 3809,2452 3809,2452 3811,2458 3788,2466 3766,2479 3761,2471 3783,2458 3804,2444"/>
  <polygon points="3811,2458 3814,2468 3814,2468 3815,2472 3815,2476 3814,2483 3791,2476 3767,2483 3764,2473 3788,2466 3811,2458"/>
  <polygon points="3814,2483 3811,2492 3811,2492 3809,2498 3788,2485 3764,2477 3767,2468 3791,2476 3814,2483"/>
  <polygon points="3809,2498 3804,2506 3804,2506 3801,2509 3796,2514 3783,2493 3761,2479 3766,2471 3788,2485 3809,2498"/>
  <polygon points="3796,2514 3788,2519 3788,2519 3782,2521 3775,2498 3761,2476 3769,2471 3783,2493 3796,2514"/>
  <polygon points="3782,2521 3773,2524 3773,2524 3770,2525 3766,2525 3758,2524 3766,2501 3758,2477 3767,2474 3775,2498 3782,2521"/>
  <polygon points="4266,2751 4016,2751 4016,2751 4012,2750 4008,2749 4004,2748 4001,2746 3998,2743 3995,2740 3993,2737 3992,2733 3991,2726 4016,2726 4016,2701 4266,2701 4266,2726 4266,2751"/>
  <polygon points="3991,2726 3991,2226 3991,2226 3991,2222 3992,2218 3993,2214 3995,2211 3998,2208 4001,2205 4004,2203 4008,2202 4016,2201 4016,2226 4041,2226 4041,2726 4016,2726 3991,2726"/>
  <polygon points="4016,2201 4516,2201 4516,2201 4519,2201 4523,2202 4527,2203 4530,2205 4533,2208 4536,2211 4538,2214 4539,2218 4541,2226 4516,2226 4516,2251 4016,2251 4016,2226 4016,2201"/>
  <polygon points="4541,2226 4541,2726 4541,2726 4540,2729 4539,2733 4538,2737 4536,2740 4533,2743 4530,2746 4527,2748 4523,2749 4516,2751 4516,2726 4491,2726 4491,2226 4516,2226 4541,2226"/>
  <polygon points="4516,2726 4516,2751 4266,2751 4266,2726 4266,2701 4516,2701 4516,2726"/>
 </g>
 <g style="stroke:none;fill:rgb(255,0,0)">
  <polygon points="4266,2501 4256,2498 4248,2493 4243,2485 4241,2476 4243,2466 4248,2458 4256,2453 4266,2451 4275,2453 4283,2458 4288,2466 4291,2476 4288,2485 4283,2493 4275,2498 4266,2501"/>
 </g>
 <g style="stroke:none;fill:rgb(0,0,0)">
  <polygon points="4258,2524 4248,2521 4248,2521 4242,2519 4256,2498 4263,2474 4273,2477 4266,2501 4258,2524"/>
  <polygon points="4242,2519 4234,2514 4234,2514 4231,2511 4226,2506 4248,2493 4261,2471 4269,2476 4256,2498 4242,2519"/>
  <polygon points="4226,2506 4221,2498 4221,2498 4218,2490 4243,2485 4264,2471 4269,2479 4248,2493 4226,2506"/>
  <polygon points="4218,2490 4216,2481 4216,2481 4216,2477 4216,2471 4241,2476 4265,2470 4267,2479 4243,2485 4218,2490"/>
  <polygon points="4216,2471 4218,2461 4218,2461 4219,2458 4221,2452 4243,2466 4267,2470 4265,2480 4241,2476 4216,2471"/>
  <polygon points="4221,2452 4226,2444 4226,2444 4229,2441 4234,2436 4248,2458 4269,2471 4264,2479 4243,2466 4221,2452"/>
  <polygon points="4234,2436 4242,2431 4242,2431 4245,2430 4251,2428 4256,2453 4269,2474 4261,2479 4248,2458 4234,2436"/>
  <polygon points="4251,2428 4261,2426 4261,2426 4264,2426 4271,2426 4266,2451 4270,2475 4260,2477 4256,2453 4251,2428"/>
  <polygon points="4271,2426 4280,2428 4280,2428 4288,2431 4275,2453 4269,2477 4260,2475 4266,2451 4271,2426"/>
  <polygon points="4288,2431 4296,2436 4296,2436 4299,2439 4304,2444 4283,2458 4269,2479 4261,2474 4275,2453 4288,2431"/>
  <polygon points="4304,2444 4309,2452 4309,2452 4311,2458 4288,2466 4266,2479 4261,2471 4283,2458 4304,2444"/>
  <polygon points="4311,2458 4314,2468 4314,2468 4315,2472 4315,2476 4314,2483 4291,2476 4267,2483 4264,2473 4288,2466 4311,2458"/>
  <polygon points="4314,2483 4311,2492 4311,2492 4309,2498 4288,2485 4264,2477 4267,2468 4291,2476 4314,2483"/>
  <polygon points="4309,2498 4304,2506 4304,2506 4301,2509 4296,2514 4283,2493 4261,2479 4266,2471 4288,2485 4309,2498"/>
  <polygon points="4296,2514 4288,2519 4288,2519 4282,2521 4275,2498 4261,2476 4269,2471 4283,2493 4296,2514"/>
  <polygon points="4282,2521 4273,2524 4273,2524 4270,2525 4266,2525 4258,2524 4266,2501 4258,2477 4267,2474 4275,2498 4282,2521"/>
  <g style="stroke:rgb(128,128,128);fill:rgb(128,128,128)">
   <polygon points="300,275 566,566 688,348 300,275"/>
   <polygon points="4241,2476 3974,2184 3852,2402 4241,2476"/>
   <polygon points="586,377 4003,2286 3954,2373 537,464 586,377"/>
  </g>
  <g style="stroke:rgb(128,128,128);fill:rgb(128,128,128)">
   <polygon points="1300,1275 1663,1430 1683,1181 1300,1275"/>
   <polygon points="3741,1476 3377,1320 3357,1569 3741,1476"/>
   <polygon points="1603,1249 3446,1401 3437,1501 1594,1349 1603,1249"/>
  </g>
  <g style="stroke:rgb(128,128,128);fill:rgb(128,128,128)">
   <polygon points="3241,2476 2941,2218 2846,2449 3241,2476"/>
   <polygon points="300,1275 599,1532 694,1301 300,1275"/>
   <polygon points="2944,2408 558,1434 596,1342 2982,2316 2944,2408"/>
  </g>
 </g>
</svg>