/* XPM */
const char * pause_icon[] = {
"13 13 2 1",
" 	c None",
".	c #313193",
"             ",
" ....   .... ",
" ....   .... ",
" ....   .... ",
" ....   .... ",
" ....   .... ",
" ....   .... ",
" ....   .... ",
" ....   .... ",
" ....   .... ",
" ....   .... ",
" ....   .... ",
"             "};
