digraph G
{
  edge [fontsize=12,labellabelfontsize=10,labelfontname="Helvetica",labeldistance=1.6];
  node [fontsize=14,shape=record,fontname="Helvetica"];
  rankdir=LR;
  nodesep=.26;
  ranksep=.76;
	
  System [];

{ rank=same;
  Process [];
  Connection [];
}

{ rank=same;
  Group [];
  Module [];
}

{ rank=same;
  Neuron [];
  Synapse [];
}

/*
  iStateN [label="internal state"];
  iStateS [label="internal state"];

  oStateN [label="output state"];
  oStateS [label="output state"];
*/


  System -> Process [arrowhead=open, arrowtail=odiamond, headlabel="0..*", taillabel="1"];
  Process -> Module [arrowhead=open, arrowtail=odiamond, headlabel="0..1", taillabel="1"];
  Process ->Group [arrowhead=open, arrowtail=odiamond, headlabel="0..*", taillabel="1"];
  Group -> Neuron [arrowhead=open, arrowtail=odiamond, headlabel="1", taillabel="1"];

//  Neuron -> iStateN[arrowhead=open, arrowtail=odiamond, headlabel="0..*", taillabel="1"];
//  Neuron -> oStateN[arrowhead=open, arrowtail=odiamond, headlabel="1", taillabel="1"];





  System -> Connection [arrowhead=open, arrowtail=odiamond, headlabel="0..*", taillabel="1"];
  Connection -> Synapse [arrowhead=open, arrowtail=odiamond, headlabel="1", taillabel="1"];

//  Synapse -> iStateS[arrowhead=open, arrowtail=odiamond, headlabel="0..*", taillabel="1"];
//  Synapse -> oStateS[arrowhead=open, arrowtail=odiamond, headlabel="1", taillabel="1"];

//  Module->StateN[arrowhead=open];
//  Synapse -> StateN[label="feedback",arrowhead=open];
  









}
