/* XPM */
const  char * eraser_cursor_xpm[] = {
"32 32 84 1",
" 	c None",
".	c #EDECEB",
"+	c #C6C6C5",
"@	c #000000",
"#	c #4C0D4B",
"$	c #D0D0D0",
"%	c #A7A6A5",
"&	c #F7F7F7",
"*	c #CFCFCF",
"=	c #AFAFAF",
"-	c #8A8989",
";	c #A1A1A1",
">	c #1D1D1D",
",	c #F8F8F8",
"'	c #3C3C3C",
")	c #494949",
"!	c #787877",
"~	c #191818",
"{	c #A2A2A2",
"]	c #444444",
"^	c #898888",
"/	c #6A6A6A",
"(	c #0D0D0D",
"_	c #C5C5C5",
":	c #D7D7D7",
"<	c #636362",
"[	c #8C8B8B",
"}	c #7E7E7E",
"|	c #525252",
"1	c #E9E9E9",
"2	c #D2D2D2",
"3	c #B2B2B2",
"4	c #A6A6A6",
"5	c #838383",
"6	c #515151",
"7	c #BDBDBD",
"8	c #A7A7A7",
"9	c #9E9E9E",
"0	c #7A7A7A",
"a	c #656565",
"b	c #DADADA",
"c	c #B5B5B5",
"d	c #ABABAB",
"e	c #B0B0B0",
"f	c #AEAEAE",
"g	c #6E6E6E",
"h	c #4F4F4F",
"i	c #EAEAEA",
"j	c #D1D1D1",
"k	c #B4B4B4",
"l	c #ACACAC",
"m	c #A9A9A9",
"n	c #AAAAAA",
"o	c #B1B1B1",
"p	c #4E4E4E",
"q	c #868686",
"r	c #DFDFDF",
"s	c #ADADAD",
"t	c #898989",
"u	c #545454",
"v	c #DEDEDE",
"w	c #BBBBBB",
"x	c #797979",
"y	c #5F5F5F",
"z	c #F3F3F3",
"A	c #7F7F7F",
"B	c #A4A4A4",
"C	c #888888",
"D	c #616161",
"E	c #FFFFFF",
"F	c #B3B3B3",
"G	c #5A5A5A",
"H	c #969696",
"I	c #C9C9C9",
"J	c #6F6F6F",
"K	c #7C7C7C",
"L	c #7B7B7B",
"M	c #878787",
"N	c #8B8B8B",
"O	c #606060",
"P	c #B8B8B8",
"Q	c #FBFBFB",
"R	c #CCCCCC",
"S	c #A5A5A5",
".+                              ",
"@@#                             ",
"@$@%                            ",
"@&$@%                           ",
"@&&$@%                          ",
"@&&&$@%                         ",
"@&&&&$@%                        ",
"@&&&&&$@%                       ",
"@&&&&&&$@%                      ",
"@&&&&&&&$@%                     ",
"@&&&&&&&&*@                     ",
"@&&&&&=@@@@-                    ",
"@&&$;&$>                        ",
"@,$@'&&)!                       ",
"@*@ ~{&=]                       ",
"@@  ^/&&(                       ",
"-   +@_:@                       ",
"     <@@[                 :}|   ",
"                        123456  ",
"                        $78390a ",
"                       bc4ddefgh",
"                     ijklmdn3ogp",
"                     j74mddo{qg ",
"                   rbk4ddddstu  ",
"                  v*wsmddo=xy   ",
"                  z7ABedo{CD    ",
"                 EEFGH=d=Cu     ",
"                 EEzIJKeLD      ",
"                 EEEE4MNO       ",
"                  EEEEP6        ",
"                   EQRS         ",
"                    ,n          "};
