/* XPM */
const char * pencil_cursor_xpm[] = {
"32 32 74 1",
" 	c None",
".	c #EDECEB",
"+	c #C7C6C5",
"@	c #000000",
"#	c #A7A7A6",
"$	c #D0D0D0",
"%	c #F7F7F7",
"&	c #B4B4B4",
"*	c #CFCFCF",
"=	c #AFAFAF",
"-	c #8A8A89",
";	c #A1A1A1",
">	c #1D1D1D",
",	c #F8F8F8",
"'	c #3C3C3C",
")	c #494949",
"!	c #797878",
"~	c #191919",
"{	c #A2A2A2",
"]	c #454444",
"^	c #8A8988",
"/	c #6A6A6A",
"(	c #0E0E0E",
"_	c #C5C5C5",
":	c #D7D7D7",
"<	c #D0CFCE",
"[	c #7E7E7D",
"}	c #333333",
"|	c #D3D2D1",
"1	c #636363",
"2	c #8C8C8B",
"3	c #CECECE",
"4	c #C3C3C3",
"5	c #C6C6C5",
"6	c #C8C7C6",
"7	c #939392",
"8	c #D9D8D8",
"9	c #B3B3B3",
"0	c #A4A4A4",
"a	c #989897",
"b	c #D3D3D3",
"c	c #F2F2F2",
"d	c #E6E6E6",
"e	c #D5D5D5",
"f	c #C7C7C7",
"g	c #EAEAE9",
"h	c #DCDCDB",
"i	c #E4E4E4",
"j	c #E2E2E2",
"k	c #B8B8B8",
"l	c #ACABAA",
"m	c #5E5D5D",
"n	c #CBCBCB",
"o	c #D8D8D7",
"p	c #DDDCDC",
"q	c #E4E3E3",
"r	c #999999",
"s	c #E3E3E2",
"t	c #CECDCD",
"u	c #CACACA",
"v	c #C9C9C8",
"w	c #BDBCBB",
"x	c #E8E7E7",
"y	c #C0BFBF",
"z	c #DFDFDE",
"A	c #D9D9D9",
"B	c #EFEFEF",
"C	c #EBEBEB",
"D	c #EEEEED",
"E	c #BEBEBE",
"F	c #E0E0E0",
"G	c #EBEAEA",
"H	c #B4B4B3",
"I	c #A8A8A8",
".+                              ",
"@@#                             ",
"@$@#                            ",
"@%$@#                           ",
"@%%$@#                          ",
"@%%%$@#                         ",
"@%%%%$@&                        ",
"@%%%%%$@&                       ",
"@%%%%%%$@&                      ",
"@%%%%%%%$@                      ",
"@%%%%%%%%*@                     ",
"@%%%%%=@@@@-                    ",
"@%%$;%$>                        ",
"@,$@'%%)!                       ",
"@*@ ~{%=]                       ",
"@@  ^/%%(                       ",
"-   +@_:@                 <[}}}|",
"     1@@2                 [3455}",
"                         678904}",
"                         abcdef[",
"                        67ghijkl",
"                        mnofpq} ",
"                       6rstu8va ",
"                       mfofpq}  ",
"                      wrxtf8ya  ",
"                      a4zpAB}   ",
"                      }CDxcEa   ",
"                      }DDxj}    ",
"                      }FxG}     ",
"                      }H3}      ",
"                      }I}       ",
"                      }}        "};
